%!PS-Adobe-2.0
%%Title: agg2.life.eps
%%Creator: gnuplot 4.6 patchlevel 4
%%CreationDate: Mon Aug 11 17:05:36 2014
%%DocumentFonts: (atend)
%%BoundingBox: 50 50 410 806
%%Orientation: Landscape
%%Pages: (atend)
%%EndComments
%%BeginProlog
/gnudict 256 dict def
gnudict begin
%
% The following true/false flags may be edited by hand if desired.
% The unit line width and grayscale image gamma correction may also be changed.
%
/Color true def
/Blacktext false def
/Solid false def
/Dashlength 1 def
/Landscape true def
/Level1 false def
/Rounded false def
/ClipToBoundingBox false def
/SuppressPDFMark false def
/TransparentPatterns false def
/gnulinewidth 5.000 def
/userlinewidth gnulinewidth def
/Gamma 1.0 def
/BackgroundColor {-1.000 -1.000 -1.000} def
%
/vshift -46 def
/dl1 {
  10.0 Dashlength mul mul
  Rounded { currentlinewidth 0.75 mul sub dup 0 le { pop 0.01 } if } if
} def
/dl2 {
  10.0 Dashlength mul mul
  Rounded { currentlinewidth 0.75 mul add } if
} def
/hpt_ 31.5 def
/vpt_ 31.5 def
/hpt hpt_ def
/vpt vpt_ def
/doclip {
  ClipToBoundingBox {
    newpath 50 50 moveto 410 50 lineto 410 806 lineto 50 806 lineto closepath
    clip
  } if
} def
%
% Gnuplot Prolog Version 4.6 (September 2012)
%
%/SuppressPDFMark true def
%
/M {moveto} bind def
/L {lineto} bind def
/R {rmoveto} bind def
/V {rlineto} bind def
/N {newpath moveto} bind def
/Z {closepath} bind def
/C {setrgbcolor} bind def
/f {rlineto fill} bind def
/g {setgray} bind def
/Gshow {show} def   % May be redefined later in the file to support UTF-8
/vpt2 vpt 2 mul def
/hpt2 hpt 2 mul def
/Lshow {currentpoint stroke M 0 vshift R 
	Blacktext {gsave 0 setgray show grestore} {show} ifelse} def
/Rshow {currentpoint stroke M dup stringwidth pop neg vshift R
	Blacktext {gsave 0 setgray show grestore} {show} ifelse} def
/Cshow {currentpoint stroke M dup stringwidth pop -2 div vshift R 
	Blacktext {gsave 0 setgray show grestore} {show} ifelse} def
/UP {dup vpt_ mul /vpt exch def hpt_ mul /hpt exch def
  /hpt2 hpt 2 mul def /vpt2 vpt 2 mul def} def
/DL {Color {setrgbcolor Solid {pop []} if 0 setdash}
 {pop pop pop 0 setgray Solid {pop []} if 0 setdash} ifelse} def
/BL {stroke userlinewidth 2 mul setlinewidth
	Rounded {1 setlinejoin 1 setlinecap} if} def
/AL {stroke userlinewidth 2 div setlinewidth
	Rounded {1 setlinejoin 1 setlinecap} if} def
/UL {dup gnulinewidth mul /userlinewidth exch def
	dup 1 lt {pop 1} if 10 mul /udl exch def} def
/PL {stroke userlinewidth setlinewidth
	Rounded {1 setlinejoin 1 setlinecap} if} def
3.8 setmiterlimit
% Default Line colors
/LCw {1 1 1} def
/LCb {0 0 0} def
/LCa {0 0 0} def
/LC0 {1 0 0} def
/LC1 {0 1 0} def
/LC2 {0 0 1} def
/LC3 {1 0 1} def
/LC4 {0 1 1} def
/LC5 {1 1 0} def
/LC6 {0 0 0} def
/LC7 {1 0.3 0} def
/LC8 {0.5 0.5 0.5} def
% Default Line Types
/LTw {PL [] 1 setgray} def
/LTb {BL [] LCb DL} def
/LTa {AL [1 udl mul 2 udl mul] 0 setdash LCa setrgbcolor} def
/LT0 {PL [] LC0 DL} def
/LT1 {PL [4 dl1 2 dl2] LC1 DL} def
/LT2 {PL [2 dl1 3 dl2] LC2 DL} def
/LT3 {PL [1 dl1 1.5 dl2] LC3 DL} def
/LT4 {PL [6 dl1 2 dl2 1 dl1 2 dl2] LC4 DL} def
/LT5 {PL [3 dl1 3 dl2 1 dl1 3 dl2] LC5 DL} def
/LT6 {PL [2 dl1 2 dl2 2 dl1 6 dl2] LC6 DL} def
/LT7 {PL [1 dl1 2 dl2 6 dl1 2 dl2 1 dl1 2 dl2] LC7 DL} def
/LT8 {PL [2 dl1 2 dl2 2 dl1 2 dl2 2 dl1 2 dl2 2 dl1 4 dl2] LC8 DL} def
/Pnt {stroke [] 0 setdash gsave 1 setlinecap M 0 0 V stroke grestore} def
/Dia {stroke [] 0 setdash 2 copy vpt add M
  hpt neg vpt neg V hpt vpt neg V
  hpt vpt V hpt neg vpt V closepath stroke
  Pnt} def
/Pls {stroke [] 0 setdash vpt sub M 0 vpt2 V
  currentpoint stroke M
  hpt neg vpt neg R hpt2 0 V stroke
 } def
/Box {stroke [] 0 setdash 2 copy exch hpt sub exch vpt add M
  0 vpt2 neg V hpt2 0 V 0 vpt2 V
  hpt2 neg 0 V closepath stroke
  Pnt} def
/Crs {stroke [] 0 setdash exch hpt sub exch vpt add M
  hpt2 vpt2 neg V currentpoint stroke M
  hpt2 neg 0 R hpt2 vpt2 V stroke} def
/TriU {stroke [] 0 setdash 2 copy vpt 1.12 mul add M
  hpt neg vpt -1.62 mul V
  hpt 2 mul 0 V
  hpt neg vpt 1.62 mul V closepath stroke
  Pnt} def
/Star {2 copy Pls Crs} def
/BoxF {stroke [] 0 setdash exch hpt sub exch vpt add M
  0 vpt2 neg V hpt2 0 V 0 vpt2 V
  hpt2 neg 0 V closepath fill} def
/TriUF {stroke [] 0 setdash vpt 1.12 mul add M
  hpt neg vpt -1.62 mul V
  hpt 2 mul 0 V
  hpt neg vpt 1.62 mul V closepath fill} def
/TriD {stroke [] 0 setdash 2 copy vpt 1.12 mul sub M
  hpt neg vpt 1.62 mul V
  hpt 2 mul 0 V
  hpt neg vpt -1.62 mul V closepath stroke
  Pnt} def
/TriDF {stroke [] 0 setdash vpt 1.12 mul sub M
  hpt neg vpt 1.62 mul V
  hpt 2 mul 0 V
  hpt neg vpt -1.62 mul V closepath fill} def
/DiaF {stroke [] 0 setdash vpt add M
  hpt neg vpt neg V hpt vpt neg V
  hpt vpt V hpt neg vpt V closepath fill} def
/Pent {stroke [] 0 setdash 2 copy gsave
  translate 0 hpt M 4 {72 rotate 0 hpt L} repeat
  closepath stroke grestore Pnt} def
/PentF {stroke [] 0 setdash gsave
  translate 0 hpt M 4 {72 rotate 0 hpt L} repeat
  closepath fill grestore} def
/Circle {stroke [] 0 setdash 2 copy
  hpt 0 360 arc stroke Pnt} def
/CircleF {stroke [] 0 setdash hpt 0 360 arc fill} def
/C0 {BL [] 0 setdash 2 copy moveto vpt 90 450 arc} bind def
/C1 {BL [] 0 setdash 2 copy moveto
	2 copy vpt 0 90 arc closepath fill
	vpt 0 360 arc closepath} bind def
/C2 {BL [] 0 setdash 2 copy moveto
	2 copy vpt 90 180 arc closepath fill
	vpt 0 360 arc closepath} bind def
/C3 {BL [] 0 setdash 2 copy moveto
	2 copy vpt 0 180 arc closepath fill
	vpt 0 360 arc closepath} bind def
/C4 {BL [] 0 setdash 2 copy moveto
	2 copy vpt 180 270 arc closepath fill
	vpt 0 360 arc closepath} bind def
/C5 {BL [] 0 setdash 2 copy moveto
	2 copy vpt 0 90 arc
	2 copy moveto
	2 copy vpt 180 270 arc closepath fill
	vpt 0 360 arc} bind def
/C6 {BL [] 0 setdash 2 copy moveto
	2 copy vpt 90 270 arc closepath fill
	vpt 0 360 arc closepath} bind def
/C7 {BL [] 0 setdash 2 copy moveto
	2 copy vpt 0 270 arc closepath fill
	vpt 0 360 arc closepath} bind def
/C8 {BL [] 0 setdash 2 copy moveto
	2 copy vpt 270 360 arc closepath fill
	vpt 0 360 arc closepath} bind def
/C9 {BL [] 0 setdash 2 copy moveto
	2 copy vpt 270 450 arc closepath fill
	vpt 0 360 arc closepath} bind def
/C10 {BL [] 0 setdash 2 copy 2 copy moveto vpt 270 360 arc closepath fill
	2 copy moveto
	2 copy vpt 90 180 arc closepath fill
	vpt 0 360 arc closepath} bind def
/C11 {BL [] 0 setdash 2 copy moveto
	2 copy vpt 0 180 arc closepath fill
	2 copy moveto
	2 copy vpt 270 360 arc closepath fill
	vpt 0 360 arc closepath} bind def
/C12 {BL [] 0 setdash 2 copy moveto
	2 copy vpt 180 360 arc closepath fill
	vpt 0 360 arc closepath} bind def
/C13 {BL [] 0 setdash 2 copy moveto
	2 copy vpt 0 90 arc closepath fill
	2 copy moveto
	2 copy vpt 180 360 arc closepath fill
	vpt 0 360 arc closepath} bind def
/C14 {BL [] 0 setdash 2 copy moveto
	2 copy vpt 90 360 arc closepath fill
	vpt 0 360 arc} bind def
/C15 {BL [] 0 setdash 2 copy vpt 0 360 arc closepath fill
	vpt 0 360 arc closepath} bind def
/Rec {newpath 4 2 roll moveto 1 index 0 rlineto 0 exch rlineto
	neg 0 rlineto closepath} bind def
/Square {dup Rec} bind def
/Bsquare {vpt sub exch vpt sub exch vpt2 Square} bind def
/S0 {BL [] 0 setdash 2 copy moveto 0 vpt rlineto BL Bsquare} bind def
/S1 {BL [] 0 setdash 2 copy vpt Square fill Bsquare} bind def
/S2 {BL [] 0 setdash 2 copy exch vpt sub exch vpt Square fill Bsquare} bind def
/S3 {BL [] 0 setdash 2 copy exch vpt sub exch vpt2 vpt Rec fill Bsquare} bind def
/S4 {BL [] 0 setdash 2 copy exch vpt sub exch vpt sub vpt Square fill Bsquare} bind def
/S5 {BL [] 0 setdash 2 copy 2 copy vpt Square fill
	exch vpt sub exch vpt sub vpt Square fill Bsquare} bind def
/S6 {BL [] 0 setdash 2 copy exch vpt sub exch vpt sub vpt vpt2 Rec fill Bsquare} bind def
/S7 {BL [] 0 setdash 2 copy exch vpt sub exch vpt sub vpt vpt2 Rec fill
	2 copy vpt Square fill Bsquare} bind def
/S8 {BL [] 0 setdash 2 copy vpt sub vpt Square fill Bsquare} bind def
/S9 {BL [] 0 setdash 2 copy vpt sub vpt vpt2 Rec fill Bsquare} bind def
/S10 {BL [] 0 setdash 2 copy vpt sub vpt Square fill 2 copy exch vpt sub exch vpt Square fill
	Bsquare} bind def
/S11 {BL [] 0 setdash 2 copy vpt sub vpt Square fill 2 copy exch vpt sub exch vpt2 vpt Rec fill
	Bsquare} bind def
/S12 {BL [] 0 setdash 2 copy exch vpt sub exch vpt sub vpt2 vpt Rec fill Bsquare} bind def
/S13 {BL [] 0 setdash 2 copy exch vpt sub exch vpt sub vpt2 vpt Rec fill
	2 copy vpt Square fill Bsquare} bind def
/S14 {BL [] 0 setdash 2 copy exch vpt sub exch vpt sub vpt2 vpt Rec fill
	2 copy exch vpt sub exch vpt Square fill Bsquare} bind def
/S15 {BL [] 0 setdash 2 copy Bsquare fill Bsquare} bind def
/D0 {gsave translate 45 rotate 0 0 S0 stroke grestore} bind def
/D1 {gsave translate 45 rotate 0 0 S1 stroke grestore} bind def
/D2 {gsave translate 45 rotate 0 0 S2 stroke grestore} bind def
/D3 {gsave translate 45 rotate 0 0 S3 stroke grestore} bind def
/D4 {gsave translate 45 rotate 0 0 S4 stroke grestore} bind def
/D5 {gsave translate 45 rotate 0 0 S5 stroke grestore} bind def
/D6 {gsave translate 45 rotate 0 0 S6 stroke grestore} bind def
/D7 {gsave translate 45 rotate 0 0 S7 stroke grestore} bind def
/D8 {gsave translate 45 rotate 0 0 S8 stroke grestore} bind def
/D9 {gsave translate 45 rotate 0 0 S9 stroke grestore} bind def
/D10 {gsave translate 45 rotate 0 0 S10 stroke grestore} bind def
/D11 {gsave translate 45 rotate 0 0 S11 stroke grestore} bind def
/D12 {gsave translate 45 rotate 0 0 S12 stroke grestore} bind def
/D13 {gsave translate 45 rotate 0 0 S13 stroke grestore} bind def
/D14 {gsave translate 45 rotate 0 0 S14 stroke grestore} bind def
/D15 {gsave translate 45 rotate 0 0 S15 stroke grestore} bind def
/DiaE {stroke [] 0 setdash vpt add M
  hpt neg vpt neg V hpt vpt neg V
  hpt vpt V hpt neg vpt V closepath stroke} def
/BoxE {stroke [] 0 setdash exch hpt sub exch vpt add M
  0 vpt2 neg V hpt2 0 V 0 vpt2 V
  hpt2 neg 0 V closepath stroke} def
/TriUE {stroke [] 0 setdash vpt 1.12 mul add M
  hpt neg vpt -1.62 mul V
  hpt 2 mul 0 V
  hpt neg vpt 1.62 mul V closepath stroke} def
/TriDE {stroke [] 0 setdash vpt 1.12 mul sub M
  hpt neg vpt 1.62 mul V
  hpt 2 mul 0 V
  hpt neg vpt -1.62 mul V closepath stroke} def
/PentE {stroke [] 0 setdash gsave
  translate 0 hpt M 4 {72 rotate 0 hpt L} repeat
  closepath stroke grestore} def
/CircE {stroke [] 0 setdash 
  hpt 0 360 arc stroke} def
/Opaque {gsave closepath 1 setgray fill grestore 0 setgray closepath} def
/DiaW {stroke [] 0 setdash vpt add M
  hpt neg vpt neg V hpt vpt neg V
  hpt vpt V hpt neg vpt V Opaque stroke} def
/BoxW {stroke [] 0 setdash exch hpt sub exch vpt add M
  0 vpt2 neg V hpt2 0 V 0 vpt2 V
  hpt2 neg 0 V Opaque stroke} def
/TriUW {stroke [] 0 setdash vpt 1.12 mul add M
  hpt neg vpt -1.62 mul V
  hpt 2 mul 0 V
  hpt neg vpt 1.62 mul V Opaque stroke} def
/TriDW {stroke [] 0 setdash vpt 1.12 mul sub M
  hpt neg vpt 1.62 mul V
  hpt 2 mul 0 V
  hpt neg vpt -1.62 mul V Opaque stroke} def
/PentW {stroke [] 0 setdash gsave
  translate 0 hpt M 4 {72 rotate 0 hpt L} repeat
  Opaque stroke grestore} def
/CircW {stroke [] 0 setdash 
  hpt 0 360 arc Opaque stroke} def
/BoxFill {gsave Rec 1 setgray fill grestore} def
/Density {
  /Fillden exch def
  currentrgbcolor
  /ColB exch def /ColG exch def /ColR exch def
  /ColR ColR Fillden mul Fillden sub 1 add def
  /ColG ColG Fillden mul Fillden sub 1 add def
  /ColB ColB Fillden mul Fillden sub 1 add def
  ColR ColG ColB setrgbcolor} def
/BoxColFill {gsave Rec PolyFill} def
/PolyFill {gsave Density fill grestore grestore} def
/h {rlineto rlineto rlineto gsave closepath fill grestore} bind def
%
% PostScript Level 1 Pattern Fill routine for rectangles
% Usage: x y w h s a XX PatternFill
%	x,y = lower left corner of box to be filled
%	w,h = width and height of box
%	  a = angle in degrees between lines and x-axis
%	 XX = 0/1 for no/yes cross-hatch
%
/PatternFill {gsave /PFa [ 9 2 roll ] def
  PFa 0 get PFa 2 get 2 div add PFa 1 get PFa 3 get 2 div add translate
  PFa 2 get -2 div PFa 3 get -2 div PFa 2 get PFa 3 get Rec
  TransparentPatterns {} {gsave 1 setgray fill grestore} ifelse
  clip
  currentlinewidth 0.5 mul setlinewidth
  /PFs PFa 2 get dup mul PFa 3 get dup mul add sqrt def
  0 0 M PFa 5 get rotate PFs -2 div dup translate
  0 1 PFs PFa 4 get div 1 add floor cvi
	{PFa 4 get mul 0 M 0 PFs V} for
  0 PFa 6 get ne {
	0 1 PFs PFa 4 get div 1 add floor cvi
	{PFa 4 get mul 0 2 1 roll M PFs 0 V} for
 } if
  stroke grestore} def
%
/languagelevel where
 {pop languagelevel} {1} ifelse
 2 lt
	{/InterpretLevel1 true def}
	{/InterpretLevel1 Level1 def}
 ifelse
%
% PostScript level 2 pattern fill definitions
%
/Level2PatternFill {
/Tile8x8 {/PaintType 2 /PatternType 1 /TilingType 1 /BBox [0 0 8 8] /XStep 8 /YStep 8}
	bind def
/KeepColor {currentrgbcolor [/Pattern /DeviceRGB] setcolorspace} bind def
<< Tile8x8
 /PaintProc {0.5 setlinewidth pop 0 0 M 8 8 L 0 8 M 8 0 L stroke} 
>> matrix makepattern
/Pat1 exch def
<< Tile8x8
 /PaintProc {0.5 setlinewidth pop 0 0 M 8 8 L 0 8 M 8 0 L stroke
	0 4 M 4 8 L 8 4 L 4 0 L 0 4 L stroke}
>> matrix makepattern
/Pat2 exch def
<< Tile8x8
 /PaintProc {0.5 setlinewidth pop 0 0 M 0 8 L
	8 8 L 8 0 L 0 0 L fill}
>> matrix makepattern
/Pat3 exch def
<< Tile8x8
 /PaintProc {0.5 setlinewidth pop -4 8 M 8 -4 L
	0 12 M 12 0 L stroke}
>> matrix makepattern
/Pat4 exch def
<< Tile8x8
 /PaintProc {0.5 setlinewidth pop -4 0 M 8 12 L
	0 -4 M 12 8 L stroke}
>> matrix makepattern
/Pat5 exch def
<< Tile8x8
 /PaintProc {0.5 setlinewidth pop -2 8 M 4 -4 L
	0 12 M 8 -4 L 4 12 M 10 0 L stroke}
>> matrix makepattern
/Pat6 exch def
<< Tile8x8
 /PaintProc {0.5 setlinewidth pop -2 0 M 4 12 L
	0 -4 M 8 12 L 4 -4 M 10 8 L stroke}
>> matrix makepattern
/Pat7 exch def
<< Tile8x8
 /PaintProc {0.5 setlinewidth pop 8 -2 M -4 4 L
	12 0 M -4 8 L 12 4 M 0 10 L stroke}
>> matrix makepattern
/Pat8 exch def
<< Tile8x8
 /PaintProc {0.5 setlinewidth pop 0 -2 M 12 4 L
	-4 0 M 12 8 L -4 4 M 8 10 L stroke}
>> matrix makepattern
/Pat9 exch def
/Pattern1 {PatternBgnd KeepColor Pat1 setpattern} bind def
/Pattern2 {PatternBgnd KeepColor Pat2 setpattern} bind def
/Pattern3 {PatternBgnd KeepColor Pat3 setpattern} bind def
/Pattern4 {PatternBgnd KeepColor Landscape {Pat5} {Pat4} ifelse setpattern} bind def
/Pattern5 {PatternBgnd KeepColor Landscape {Pat4} {Pat5} ifelse setpattern} bind def
/Pattern6 {PatternBgnd KeepColor Landscape {Pat9} {Pat6} ifelse setpattern} bind def
/Pattern7 {PatternBgnd KeepColor Landscape {Pat8} {Pat7} ifelse setpattern} bind def
} def
%
%
%End of PostScript Level 2 code
%
/PatternBgnd {
  TransparentPatterns {} {gsave 1 setgray fill grestore} ifelse
} def
%
% Substitute for Level 2 pattern fill codes with
% grayscale if Level 2 support is not selected.
%
/Level1PatternFill {
/Pattern1 {0.250 Density} bind def
/Pattern2 {0.500 Density} bind def
/Pattern3 {0.750 Density} bind def
/Pattern4 {0.125 Density} bind def
/Pattern5 {0.375 Density} bind def
/Pattern6 {0.625 Density} bind def
/Pattern7 {0.875 Density} bind def
} def
%
% Now test for support of Level 2 code
%
Level1 {Level1PatternFill} {Level2PatternFill} ifelse
%
/Symbol-Oblique /Symbol findfont [1 0 .167 1 0 0] makefont
dup length dict begin {1 index /FID eq {pop pop} {def} ifelse} forall
currentdict end definefont pop
/MFshow {
   { dup 5 get 3 ge
     { 5 get 3 eq {gsave} {grestore} ifelse }
     {dup dup 0 get findfont exch 1 get scalefont setfont
     [ currentpoint ] exch dup 2 get 0 exch R dup 5 get 2 ne {dup dup 6
     get exch 4 get {Gshow} {stringwidth pop 0 R} ifelse }if dup 5 get 0 eq
     {dup 3 get {2 get neg 0 exch R pop} {pop aload pop M} ifelse} {dup 5
     get 1 eq {dup 2 get exch dup 3 get exch 6 get stringwidth pop -2 div
     dup 0 R} {dup 6 get stringwidth pop -2 div 0 R 6 get
     show 2 index {aload pop M neg 3 -1 roll neg R pop pop} {pop pop pop
     pop aload pop M} ifelse }ifelse }ifelse }
     ifelse }
   forall} def
/Gswidth {dup type /stringtype eq {stringwidth} {pop (n) stringwidth} ifelse} def
/MFwidth {0 exch { dup 5 get 3 ge { 5 get 3 eq { 0 } { pop } ifelse }
 {dup 3 get{dup dup 0 get findfont exch 1 get scalefont setfont
     6 get Gswidth pop add} {pop} ifelse} ifelse} forall} def
/MLshow { currentpoint stroke M
  0 exch R
  Blacktext {gsave 0 setgray MFshow grestore} {MFshow} ifelse } bind def
/MRshow { currentpoint stroke M
  exch dup MFwidth neg 3 -1 roll R
  Blacktext {gsave 0 setgray MFshow grestore} {MFshow} ifelse } bind def
/MCshow { currentpoint stroke M
  exch dup MFwidth -2 div 3 -1 roll R
  Blacktext {gsave 0 setgray MFshow grestore} {MFshow} ifelse } bind def
/XYsave    { [( ) 1 2 true false 3 ()] } bind def
/XYrestore { [( ) 1 2 true false 4 ()] } bind def
Level1 SuppressPDFMark or 
{} {
/SDict 10 dict def
systemdict /pdfmark known not {
  userdict /pdfmark systemdict /cleartomark get put
} if
SDict begin [
  /Title (agg2.life.eps)
  /Subject (gnuplot plot)
  /Creator (gnuplot 4.6 patchlevel 4)
  /Author (romoore)
%  /Producer (gnuplot)
%  /Keywords ()
  /CreationDate (Mon Aug 11 17:05:36 2014)
  /DOCINFO pdfmark
end
} ifelse
end
%%EndProlog
%%Page: 1 1
gnudict begin
gsave
doclip
50 50 translate
0.100 0.100 scale
90 rotate
0 -3600 translate
0 setgray
newpath
(Helvetica) findfont 140 scalefont setfont
BackgroundColor 0 lt 3 1 roll 0 lt exch 0 lt or or not {gsave BackgroundColor C clippath fill grestore} if
1.500 UL
LTb
0.42 0.42 0.42 C 1.000 UL
LTa
0.84 0.88 0.79 C 854 644 M
4374 0 V
stroke
1.500 UL
LTb
0.42 0.42 0.42 C 854 644 M
63 0 V
4311 0 R
-63 0 V
stroke
0.42 0.42 0.42 C 770 644 M
[ [(SVBasic Manual) 120.0 0.0 true true 0 ( 100)]
] -40.0 MRshow
1.500 UL
LTb
0.42 0.42 0.42 C 854 952 M
31 0 V
4343 0 R
-31 0 V
854 1132 M
31 0 V
4343 0 R
-31 0 V
854 1260 M
31 0 V
4343 0 R
-31 0 V
854 1359 M
31 0 V
4343 0 R
-31 0 V
854 1440 M
31 0 V
4343 0 R
-31 0 V
854 1509 M
31 0 V
4343 0 R
-31 0 V
854 1568 M
31 0 V
4343 0 R
-31 0 V
854 1621 M
31 0 V
4343 0 R
-31 0 V
stroke
1.000 UL
LTa
0.84 0.88 0.79 C 854 1667 M
4374 0 V
stroke
1.500 UL
LTb
0.42 0.42 0.42 C 854 1667 M
63 0 V
4311 0 R
-63 0 V
stroke
0.42 0.42 0.42 C 770 1667 M
[ [(SVBasic Manual) 120.0 0.0 true true 0 ( 1000)]
] -40.0 MRshow
1.500 UL
LTb
0.42 0.42 0.42 C 854 1975 M
31 0 V
4343 0 R
-31 0 V
854 2156 M
31 0 V
4343 0 R
-31 0 V
854 2283 M
31 0 V
4343 0 R
-31 0 V
854 2383 M
31 0 V
4343 0 R
-31 0 V
854 2464 M
31 0 V
4343 0 R
-31 0 V
854 2532 M
31 0 V
4343 0 R
-31 0 V
854 2592 M
31 0 V
4343 0 R
-31 0 V
854 2644 M
31 0 V
4343 0 R
-31 0 V
stroke
1.000 UL
LTa
0.84 0.88 0.79 C 854 2691 M
4374 0 V
stroke
1.500 UL
LTb
0.42 0.42 0.42 C 854 2691 M
63 0 V
4311 0 R
-63 0 V
stroke
0.42 0.42 0.42 C 770 2691 M
[ [(SVBasic Manual) 120.0 0.0 true true 0 ( 10000)]
] -40.0 MRshow
1.500 UL
LTb
0.42 0.42 0.42 C 854 2999 M
31 0 V
4343 0 R
-31 0 V
854 3179 M
31 0 V
4343 0 R
-31 0 V
stroke
1.000 UL
LTa
0.84 0.88 0.79 C 854 644 M
0 2535 V
stroke
1.500 UL
LTb
0.42 0.42 0.42 C 854 644 M
0 63 V
0 2472 R
0 -63 V
stroke
0.42 0.42 0.42 C 854 560 M
currentpoint gsave translate -270 rotate 0 0 moveto
[ [(SVBasic Manual) 120.0 0.0 true true 0 ( 0)]
] -40.0 MRshow
grestore
1.500 UL
LTb
0.42 0.42 0.42 C 1.000 UL
LTa
0.84 0.88 0.79 C 1401 644 M
0 2535 V
stroke
1.500 UL
LTb
0.42 0.42 0.42 C 1401 644 M
0 63 V
0 2472 R
0 -63 V
stroke
0.42 0.42 0.42 C 1401 560 M
currentpoint gsave translate -270 rotate 0 0 moveto
[ [(SVBasic Manual) 120.0 0.0 true true 0 ( 50)]
] -40.0 MRshow
grestore
1.500 UL
LTb
0.42 0.42 0.42 C 1.000 UL
LTa
0.84 0.88 0.79 C 1948 644 M
0 2535 V
stroke
1.500 UL
LTb
0.42 0.42 0.42 C 1948 644 M
0 63 V
0 2472 R
0 -63 V
stroke
0.42 0.42 0.42 C 1948 560 M
currentpoint gsave translate -270 rotate 0 0 moveto
[ [(SVBasic Manual) 120.0 0.0 true true 0 ( 100)]
] -40.0 MRshow
grestore
1.500 UL
LTb
0.42 0.42 0.42 C 1.000 UL
LTa
0.84 0.88 0.79 C 2494 644 M
0 2535 V
stroke
1.500 UL
LTb
0.42 0.42 0.42 C 2494 644 M
0 63 V
0 2472 R
0 -63 V
stroke
0.42 0.42 0.42 C 2494 560 M
currentpoint gsave translate -270 rotate 0 0 moveto
[ [(SVBasic Manual) 120.0 0.0 true true 0 ( 150)]
] -40.0 MRshow
grestore
1.500 UL
LTb
0.42 0.42 0.42 C 1.000 UL
LTa
0.84 0.88 0.79 C 3041 644 M
0 2535 V
stroke
1.500 UL
LTb
0.42 0.42 0.42 C 3041 644 M
0 63 V
0 2472 R
0 -63 V
stroke
0.42 0.42 0.42 C 3041 560 M
currentpoint gsave translate -270 rotate 0 0 moveto
[ [(SVBasic Manual) 120.0 0.0 true true 0 ( 200)]
] -40.0 MRshow
grestore
1.500 UL
LTb
0.42 0.42 0.42 C 1.000 UL
LTa
0.84 0.88 0.79 C 3588 644 M
0 2535 V
stroke
1.500 UL
LTb
0.42 0.42 0.42 C 3588 644 M
0 63 V
0 2472 R
0 -63 V
stroke
0.42 0.42 0.42 C 3588 560 M
currentpoint gsave translate -270 rotate 0 0 moveto
[ [(SVBasic Manual) 120.0 0.0 true true 0 ( 250)]
] -40.0 MRshow
grestore
1.500 UL
LTb
0.42 0.42 0.42 C 1.000 UL
LTa
0.84 0.88 0.79 C 4135 644 M
0 2535 V
stroke
1.500 UL
LTb
0.42 0.42 0.42 C 4135 644 M
0 63 V
0 2472 R
0 -63 V
stroke
0.42 0.42 0.42 C 4135 560 M
currentpoint gsave translate -270 rotate 0 0 moveto
[ [(SVBasic Manual) 120.0 0.0 true true 0 ( 300)]
] -40.0 MRshow
grestore
1.500 UL
LTb
0.42 0.42 0.42 C 1.000 UL
LTa
0.84 0.88 0.79 C 4681 644 M
0 2535 V
stroke
1.500 UL
LTb
0.42 0.42 0.42 C 4681 644 M
0 63 V
0 2472 R
0 -63 V
stroke
0.42 0.42 0.42 C 4681 560 M
currentpoint gsave translate -270 rotate 0 0 moveto
[ [(SVBasic Manual) 120.0 0.0 true true 0 ( 350)]
] -40.0 MRshow
grestore
1.500 UL
LTb
0.42 0.42 0.42 C 1.000 UL
LTa
0.84 0.88 0.79 C 5228 644 M
0 2535 V
stroke
1.500 UL
LTb
0.42 0.42 0.42 C 5228 644 M
0 63 V
0 2472 R
0 -63 V
stroke
0.42 0.42 0.42 C 5228 560 M
currentpoint gsave translate -270 rotate 0 0 moveto
[ [(SVBasic Manual) 120.0 0.0 true true 0 ( 400)]
] -40.0 MRshow
grestore
1.500 UL
LTb
0.42 0.42 0.42 C 1.500 UL
LTb
0.42 0.42 0.42 C 854 3179 N
854 644 L
4374 0 V
0 2535 V
-4374 0 V
Z stroke
0.42 0.42 0.42 C 112 1911 M
currentpoint gsave translate -270 rotate 0 0 moveto
[ [(SVBasic Manual) 120.0 0.0 true true 0 (Sample Lifetime \()]
[(Symbol) 120.0 0.0 true true 0 (m)]
[(SVBasic Manual) 120.0 0.0 true true 0 (s\))]
] -40.0 MCshow
grestore
LTb
0.42 0.42 0.42 C 3041 98 M
[ [(SVBasic Manual) 120.0 0.0 true true 0 (Time \(seconds\))]
] -40.0 MCshow
LTb
0.42 0.42 0.42 C 3041 3389 M
[ [(SVBasic Manual) 150.0 0.0 true true 0 (Aggregator Performance: Multiple Replay Sensors and No Solvers)]
] -50.0 MCshow
LTb
1.000 UP
0.42 0.42 0.42 C 1.500 UL
LTb
0.42 0.42 0.42 C 1.000 UL
LTb
LCb setrgbcolor
5396 1219 N
0 1960 V
2079 0 V
0 -1960 V
-2079 0 V
Z stroke
% Begin plot #1
2.000 UL
LT0
LC0 setrgbcolor
LCb setrgbcolor
6908 2969 M
[ [(SVBasic Manual) 120.0 0.0 true true 0 (3 Sensors, 1X Speed)]
] -40.0 MRshow
LT0
LC0 setrgbcolor
6992 2969 M
399 0 V
963 1144 M
1073 806 L
109 -16 V
109 -76 V
110 43 V
109 -14 V
109 -33 V
110 37 V
109 10 V
110 49 V
109 -59 V
109 0 V
110 37 V
109 55 V
109 -12 V
110 -43 V
109 40 V
109 15 V
110 -24 V
109 -38 V
109 23 V
110 36 V
109 20 V
109 -20 V
110 0 V
109 -9 V
109 -6 V
110 -47 V
109 35 V
110 47 V
109 -17 V
109 -75 V
110 48 V
109 30 V
109 -36 V
110 -19 V
109 31 V
% End plot #1
% Begin plot #2
stroke
LT1
LC0 setrgbcolor
LCb setrgbcolor
6908 2829 M
[ [(SVBasic Manual) 120.0 0.0 true true 0 (3 Sensors, 5X Speed)]
] -40.0 MRshow
LT1
LC0 setrgbcolor
6992 2829 M
399 0 V
963 1565 M
110 -452 V
109 27 V
109 28 V
110 39 V
109 -53 V
109 -34 V
110 65 V
109 -30 V
110 6 V
109 5 V
109 -8 V
110 -5 V
109 7 V
109 -29 V
110 3 V
109 -2 V
109 -95 V
110 -45 V
109 48 V
109 2 V
110 58 V
109 -11 V
109 -34 V
110 -20 V
109 16 V
109 18 V
110 10 V
109 19 V
110 -14 V
109 3 V
109 -27 V
110 15 V
109 27 V
109 -25 V
110 15 V
109 0 V
% End plot #2
% Begin plot #3
stroke
LT2
LC0 setrgbcolor
LCb setrgbcolor
6908 2689 M
[ [(SVBasic Manual) 120.0 0.0 true true 0 (3 Sensors, 10X Speed)]
] -40.0 MRshow
LT2
LC0 setrgbcolor
6992 2689 M
399 0 V
963 2118 M
110 72 V
109 -75 V
109 82 V
110 -102 V
109 58 V
109 -50 V
110 62 V
109 -57 V
110 44 V
109 12 V
109 43 V
110 15 V
109 9 V
109 13 V
110 -40 V
109 53 V
109 -48 V
110 10 V
109 33 V
109 -46 V
110 -23 V
109 20 V
109 -13 V
110 -4 V
109 48 V
109 -49 V
110 15 V
109 -8 V
110 4 V
109 2 V
109 23 V
110 -5 V
109 2 V
109 14 V
110 -24 V
109 49 V
% End plot #3
% Begin plot #4
stroke
LT3
LC0 setrgbcolor
LCb setrgbcolor
6908 2549 M
[ [(SVBasic Manual) 120.0 0.0 true true 0 (3 Sensors, 15X Speed)]
] -40.0 MRshow
LT3
LC0 setrgbcolor
6992 2549 M
399 0 V
963 2285 M
110 159 V
109 6 V
109 0 V
110 2 V
109 -4 V
109 -7 V
110 1 V
109 0 V
110 1 V
109 3 V
109 9 V
110 -4 V
109 9 V
109 -10 V
110 -14 V
109 5 V
109 0 V
110 5 V
109 -4 V
109 -8 V
110 7 V
109 1 V
109 -5 V
110 -6 V
109 6 V
109 -7 V
110 -2 V
109 4 V
110 4 V
109 -5 V
109 1 V
110 0 V
109 0 V
109 6 V
110 0 V
109 -5 V
% End plot #4
% Begin plot #5
stroke
LT0
LC1 setrgbcolor
LCb setrgbcolor
6908 2409 M
[ [(SVBasic Manual) 120.0 0.0 true true 0 (6 Sensors, 1X Speed)]
] -40.0 MRshow
LT0
LC1 setrgbcolor
6992 2409 M
399 0 V
963 1252 M
1073 774 L
109 35 V
109 -15 V
110 21 V
109 6 V
109 15 V
110 -6 V
109 3 V
110 -39 V
109 42 V
109 0 V
110 -15 V
109 -18 V
109 -16 V
110 -3 V
109 -7 V
109 -20 V
110 20 V
109 7 V
109 -3 V
110 37 V
109 0 V
109 -3 V
110 -65 V
109 59 V
109 -19 V
110 22 V
109 -62 V
110 31 V
109 3 V
109 0 V
110 19 V
109 -26 V
109 -52 V
110 39 V
109 0 V
109 94 V
% End plot #5
% Begin plot #6
stroke
LT1
LC1 setrgbcolor
LCb setrgbcolor
6908 2269 M
[ [(SVBasic Manual) 120.0 0.0 true true 0 (6 Sensors, 5X Speed)]
] -40.0 MRshow
LT1
LC1 setrgbcolor
6992 2269 M
399 0 V
963 1439 M
110 -28 V
109 23 V
109 62 V
110 -216 V
109 295 V
109 -27 V
110 44 V
109 -5 V
110 0 V
109 -40 V
109 35 V
110 50 V
109 -22 V
109 -43 V
110 -39 V
109 14 V
109 -51 V
110 -1 V
109 15 V
109 -6 V
110 -8 V
109 -28 V
109 -12 V
110 17 V
109 100 V
109 -77 V
110 -29 V
109 -26 V
110 13 V
109 -12 V
109 94 V
110 -100 V
109 6 V
109 4 V
110 -13 V
109 57 V
109 -40 V
% End plot #6
% Begin plot #7
stroke
LT2
LC1 setrgbcolor
LCb setrgbcolor
6908 2129 M
[ [(SVBasic Manual) 120.0 0.0 true true 0 (6 Sensors, 10X Speed)]
] -40.0 MRshow
LT2
LC1 setrgbcolor
6992 2129 M
399 0 V
963 1803 M
110 650 V
109 167 V
109 -14 V
110 15 V
109 -11 V
109 -5 V
110 2 V
109 0 V
110 0 V
109 2 V
109 2 V
110 -3 V
109 1 V
109 -4 V
110 313 V
109 -290 V
109 -12 V
110 20 V
109 -19 V
109 2 V
110 9 V
109 -14 V
109 -6 V
110 4 V
109 -15 V
109 -9 V
110 9 V
109 6 V
110 -15 V
109 -12 V
109 20 V
110 -3 V
109 -3 V
109 -5 V
110 6 V
109 9 V
109 -8 V
% End plot #7
% Begin plot #8
stroke
LT3
LC1 setrgbcolor
LCb setrgbcolor
6908 1989 M
[ [(SVBasic Manual) 120.0 0.0 true true 0 (6 Sensors, 15X Speed)]
] -40.0 MRshow
LT3
LC1 setrgbcolor
6992 1989 M
399 0 V
963 2340 M
110 164 V
109 128 V
109 -12 V
110 -5 V
109 2 V
109 -10 V
110 5 V
109 -3 V
110 13 V
109 -8 V
109 7 V
110 -4 V
109 -12 V
109 6 V
110 -2 V
109 5 V
109 2 V
110 -3 V
109 -3 V
109 7 V
110 -2 V
109 1 V
109 -28 V
110 12 V
109 -17 V
109 8 V
110 -6 V
109 7 V
110 -10 V
109 14 V
109 -7 V
110 3 V
109 4 V
109 -11 V
110 313 V
109 -297 V
109 1 V
% End plot #8
% Begin plot #9
stroke
LT0
LC2 setrgbcolor
LCb setrgbcolor
6908 1849 M
[ [(SVBasic Manual) 120.0 0.0 true true 0 (9 Sensors, 1X Speed)]
] -40.0 MRshow
LT0
LC2 setrgbcolor
6992 1849 M
399 0 V
963 1164 M
1073 736 L
109 7 V
109 121 V
110 3 V
109 76 V
109 29 V
110 -27 V
109 27 V
110 6 V
109 -15 V
109 -13 V
110 28 V
109 -33 V
109 -30 V
110 -38 V
109 3 V
109 -80 V
110 64 V
109 -8 V
109 -3 V
110 3 V
109 47 V
109 -36 V
110 -23 V
109 31 V
109 0 V
110 30 V
109 -81 V
110 34 V
109 17 V
109 50 V
110 -64 V
109 8 V
109 16 V
110 15 V
109 -44 V
109 21 V
110 -13 V
% End plot #9
% Begin plot #10
stroke
LT1
LC2 setrgbcolor
LCb setrgbcolor
6908 1709 M
[ [(SVBasic Manual) 120.0 0.0 true true 0 (9 Sensors, 5X Speed)]
] -40.0 MRshow
LT1
LC2 setrgbcolor
6992 1709 M
399 0 V
963 1396 M
110 23 V
109 1010 V
109 412 V
110 4 V
109 20 V
109 1 V
110 5 V
109 -19 V
110 -14 V
109 10 V
109 -1 V
110 0 V
109 9 V
109 -6 V
110 7 V
109 -11 V
109 2 V
110 3 V
109 -10 V
109 -6 V
110 10 V
109 -8 V
109 -13 V
110 -1 V
109 -7 V
109 28 V
110 3 V
109 -7 V
110 5 V
109 -2 V
109 -16 V
110 29 V
109 -2 V
109 -2 V
110 -2 V
109 -20 V
109 13 V
110 3 V
% End plot #10
% Begin plot #11
stroke
LT2
LC2 setrgbcolor
LCb setrgbcolor
6908 1569 M
[ [(SVBasic Manual) 120.0 0.0 true true 0 (9 Sensors, 10X Speed)]
] -40.0 MRshow
LT2
LC2 setrgbcolor
6992 1569 M
399 0 V
963 2133 M
110 336 V
109 316 V
109 84 V
110 6 V
109 9 V
109 -6 V
110 -9 V
109 8 V
110 3 V
109 -11 V
109 -19 V
110 -1 V
109 -12 V
109 -4 V
110 24 V
109 -4 V
109 -10 V
110 8 V
109 12 V
109 -13 V
110 15 V
109 15 V
109 -41 V
110 -1 V
109 27 V
109 -7 V
110 -1 V
109 -2 V
110 -12 V
109 -9 V
109 18 V
110 322 V
109 -330 V
109 6 V
110 -13 V
109 23 V
109 -9 V
110 -8 V
% End plot #11
% Begin plot #12
stroke
LT3
LC2 setrgbcolor
LCb setrgbcolor
6908 1429 M
[ [(SVBasic Manual) 120.0 0.0 true true 0 (9 Sensors, 15X Speed)]
] -40.0 MRshow
LT3
LC2 setrgbcolor
6992 1429 M
399 0 V
963 2314 M
110 147 V
109 297 V
109 117 V
110 -38 V
109 14 V
109 -7 V
110 0 V
109 308 V
110 -305 V
109 22 V
109 12 V
110 -10 V
109 0 V
109 14 V
110 -27 V
109 2 V
109 21 V
110 -22 V
109 5 V
109 6 V
110 2 V
109 10 V
109 -28 V
110 -4 V
109 -18 V
109 10 V
110 16 V
109 -9 V
110 -8 V
109 -2 V
109 20 V
110 0 V
109 -23 V
109 13 V
110 313 V
109 -316 V
109 2 V
110 308 V
% End plot #12
stroke
1.500 UL
LTb
0.42 0.42 0.42 C 854 3179 N
854 644 L
4374 0 V
0 2535 V
-4374 0 V
Z stroke
1.000 UP
1.500 UL
LTb
0.42 0.42 0.42 C stroke
grestore
end
showpage
%%Trailer
%%DocumentFonts: Symbol Helvetica
%%Pages: 1
