%!PS-Adobe-2.0
%%Title: agg4.rate_vs.proc.eps
%%Creator: gnuplot 4.6 patchlevel 4
%%CreationDate: Mon Aug 11 16:25:13 2014
%%DocumentFonts: (atend)
%%BoundingBox: 50 50 410 806
%%Orientation: Landscape
%%Pages: (atend)
%%EndComments
%%BeginProlog
/gnudict 256 dict def
gnudict begin
%
% The following true/false flags may be edited by hand if desired.
% The unit line width and grayscale image gamma correction may also be changed.
%
/Color true def
/Blacktext false def
/Solid false def
/Dashlength 1 def
/Landscape true def
/Level1 false def
/Rounded false def
/ClipToBoundingBox false def
/SuppressPDFMark false def
/TransparentPatterns false def
/gnulinewidth 5.000 def
/userlinewidth gnulinewidth def
/Gamma 1.0 def
/BackgroundColor {-1.000 -1.000 -1.000} def
%
/vshift -46 def
/dl1 {
  10.0 Dashlength mul mul
  Rounded { currentlinewidth 0.75 mul sub dup 0 le { pop 0.01 } if } if
} def
/dl2 {
  10.0 Dashlength mul mul
  Rounded { currentlinewidth 0.75 mul add } if
} def
/hpt_ 31.5 def
/vpt_ 31.5 def
/hpt hpt_ def
/vpt vpt_ def
/doclip {
  ClipToBoundingBox {
    newpath 50 50 moveto 410 50 lineto 410 806 lineto 50 806 lineto closepath
    clip
  } if
} def
%
% Gnuplot Prolog Version 4.6 (September 2012)
%
%/SuppressPDFMark true def
%
/M {moveto} bind def
/L {lineto} bind def
/R {rmoveto} bind def
/V {rlineto} bind def
/N {newpath moveto} bind def
/Z {closepath} bind def
/C {setrgbcolor} bind def
/f {rlineto fill} bind def
/g {setgray} bind def
/Gshow {show} def   % May be redefined later in the file to support UTF-8
/vpt2 vpt 2 mul def
/hpt2 hpt 2 mul def
/Lshow {currentpoint stroke M 0 vshift R 
	Blacktext {gsave 0 setgray show grestore} {show} ifelse} def
/Rshow {currentpoint stroke M dup stringwidth pop neg vshift R
	Blacktext {gsave 0 setgray show grestore} {show} ifelse} def
/Cshow {currentpoint stroke M dup stringwidth pop -2 div vshift R 
	Blacktext {gsave 0 setgray show grestore} {show} ifelse} def
/UP {dup vpt_ mul /vpt exch def hpt_ mul /hpt exch def
  /hpt2 hpt 2 mul def /vpt2 vpt 2 mul def} def
/DL {Color {setrgbcolor Solid {pop []} if 0 setdash}
 {pop pop pop 0 setgray Solid {pop []} if 0 setdash} ifelse} def
/BL {stroke userlinewidth 2 mul setlinewidth
	Rounded {1 setlinejoin 1 setlinecap} if} def
/AL {stroke userlinewidth 2 div setlinewidth
	Rounded {1 setlinejoin 1 setlinecap} if} def
/UL {dup gnulinewidth mul /userlinewidth exch def
	dup 1 lt {pop 1} if 10 mul /udl exch def} def
/PL {stroke userlinewidth setlinewidth
	Rounded {1 setlinejoin 1 setlinecap} if} def
3.8 setmiterlimit
% Default Line colors
/LCw {1 1 1} def
/LCb {0 0 0} def
/LCa {0 0 0} def
/LC0 {1 0 0} def
/LC1 {0 1 0} def
/LC2 {0 0 1} def
/LC3 {1 0 1} def
/LC4 {0 1 1} def
/LC5 {1 1 0} def
/LC6 {0 0 0} def
/LC7 {1 0.3 0} def
/LC8 {0.5 0.5 0.5} def
% Default Line Types
/LTw {PL [] 1 setgray} def
/LTb {BL [] LCb DL} def
/LTa {AL [1 udl mul 2 udl mul] 0 setdash LCa setrgbcolor} def
/LT0 {PL [] LC0 DL} def
/LT1 {PL [4 dl1 2 dl2] LC1 DL} def
/LT2 {PL [2 dl1 3 dl2] LC2 DL} def
/LT3 {PL [1 dl1 1.5 dl2] LC3 DL} def
/LT4 {PL [6 dl1 2 dl2 1 dl1 2 dl2] LC4 DL} def
/LT5 {PL [3 dl1 3 dl2 1 dl1 3 dl2] LC5 DL} def
/LT6 {PL [2 dl1 2 dl2 2 dl1 6 dl2] LC6 DL} def
/LT7 {PL [1 dl1 2 dl2 6 dl1 2 dl2 1 dl1 2 dl2] LC7 DL} def
/LT8 {PL [2 dl1 2 dl2 2 dl1 2 dl2 2 dl1 2 dl2 2 dl1 4 dl2] LC8 DL} def
/Pnt {stroke [] 0 setdash gsave 1 setlinecap M 0 0 V stroke grestore} def
/Dia {stroke [] 0 setdash 2 copy vpt add M
  hpt neg vpt neg V hpt vpt neg V
  hpt vpt V hpt neg vpt V closepath stroke
  Pnt} def
/Pls {stroke [] 0 setdash vpt sub M 0 vpt2 V
  currentpoint stroke M
  hpt neg vpt neg R hpt2 0 V stroke
 } def
/Box {stroke [] 0 setdash 2 copy exch hpt sub exch vpt add M
  0 vpt2 neg V hpt2 0 V 0 vpt2 V
  hpt2 neg 0 V closepath stroke
  Pnt} def
/Crs {stroke [] 0 setdash exch hpt sub exch vpt add M
  hpt2 vpt2 neg V currentpoint stroke M
  hpt2 neg 0 R hpt2 vpt2 V stroke} def
/TriU {stroke [] 0 setdash 2 copy vpt 1.12 mul add M
  hpt neg vpt -1.62 mul V
  hpt 2 mul 0 V
  hpt neg vpt 1.62 mul V closepath stroke
  Pnt} def
/Star {2 copy Pls Crs} def
/BoxF {stroke [] 0 setdash exch hpt sub exch vpt add M
  0 vpt2 neg V hpt2 0 V 0 vpt2 V
  hpt2 neg 0 V closepath fill} def
/TriUF {stroke [] 0 setdash vpt 1.12 mul add M
  hpt neg vpt -1.62 mul V
  hpt 2 mul 0 V
  hpt neg vpt 1.62 mul V closepath fill} def
/TriD {stroke [] 0 setdash 2 copy vpt 1.12 mul sub M
  hpt neg vpt 1.62 mul V
  hpt 2 mul 0 V
  hpt neg vpt -1.62 mul V closepath stroke
  Pnt} def
/TriDF {stroke [] 0 setdash vpt 1.12 mul sub M
  hpt neg vpt 1.62 mul V
  hpt 2 mul 0 V
  hpt neg vpt -1.62 mul V closepath fill} def
/DiaF {stroke [] 0 setdash vpt add M
  hpt neg vpt neg V hpt vpt neg V
  hpt vpt V hpt neg vpt V closepath fill} def
/Pent {stroke [] 0 setdash 2 copy gsave
  translate 0 hpt M 4 {72 rotate 0 hpt L} repeat
  closepath stroke grestore Pnt} def
/PentF {stroke [] 0 setdash gsave
  translate 0 hpt M 4 {72 rotate 0 hpt L} repeat
  closepath fill grestore} def
/Circle {stroke [] 0 setdash 2 copy
  hpt 0 360 arc stroke Pnt} def
/CircleF {stroke [] 0 setdash hpt 0 360 arc fill} def
/C0 {BL [] 0 setdash 2 copy moveto vpt 90 450 arc} bind def
/C1 {BL [] 0 setdash 2 copy moveto
	2 copy vpt 0 90 arc closepath fill
	vpt 0 360 arc closepath} bind def
/C2 {BL [] 0 setdash 2 copy moveto
	2 copy vpt 90 180 arc closepath fill
	vpt 0 360 arc closepath} bind def
/C3 {BL [] 0 setdash 2 copy moveto
	2 copy vpt 0 180 arc closepath fill
	vpt 0 360 arc closepath} bind def
/C4 {BL [] 0 setdash 2 copy moveto
	2 copy vpt 180 270 arc closepath fill
	vpt 0 360 arc closepath} bind def
/C5 {BL [] 0 setdash 2 copy moveto
	2 copy vpt 0 90 arc
	2 copy moveto
	2 copy vpt 180 270 arc closepath fill
	vpt 0 360 arc} bind def
/C6 {BL [] 0 setdash 2 copy moveto
	2 copy vpt 90 270 arc closepath fill
	vpt 0 360 arc closepath} bind def
/C7 {BL [] 0 setdash 2 copy moveto
	2 copy vpt 0 270 arc closepath fill
	vpt 0 360 arc closepath} bind def
/C8 {BL [] 0 setdash 2 copy moveto
	2 copy vpt 270 360 arc closepath fill
	vpt 0 360 arc closepath} bind def
/C9 {BL [] 0 setdash 2 copy moveto
	2 copy vpt 270 450 arc closepath fill
	vpt 0 360 arc closepath} bind def
/C10 {BL [] 0 setdash 2 copy 2 copy moveto vpt 270 360 arc closepath fill
	2 copy moveto
	2 copy vpt 90 180 arc closepath fill
	vpt 0 360 arc closepath} bind def
/C11 {BL [] 0 setdash 2 copy moveto
	2 copy vpt 0 180 arc closepath fill
	2 copy moveto
	2 copy vpt 270 360 arc closepath fill
	vpt 0 360 arc closepath} bind def
/C12 {BL [] 0 setdash 2 copy moveto
	2 copy vpt 180 360 arc closepath fill
	vpt 0 360 arc closepath} bind def
/C13 {BL [] 0 setdash 2 copy moveto
	2 copy vpt 0 90 arc closepath fill
	2 copy moveto
	2 copy vpt 180 360 arc closepath fill
	vpt 0 360 arc closepath} bind def
/C14 {BL [] 0 setdash 2 copy moveto
	2 copy vpt 90 360 arc closepath fill
	vpt 0 360 arc} bind def
/C15 {BL [] 0 setdash 2 copy vpt 0 360 arc closepath fill
	vpt 0 360 arc closepath} bind def
/Rec {newpath 4 2 roll moveto 1 index 0 rlineto 0 exch rlineto
	neg 0 rlineto closepath} bind def
/Square {dup Rec} bind def
/Bsquare {vpt sub exch vpt sub exch vpt2 Square} bind def
/S0 {BL [] 0 setdash 2 copy moveto 0 vpt rlineto BL Bsquare} bind def
/S1 {BL [] 0 setdash 2 copy vpt Square fill Bsquare} bind def
/S2 {BL [] 0 setdash 2 copy exch vpt sub exch vpt Square fill Bsquare} bind def
/S3 {BL [] 0 setdash 2 copy exch vpt sub exch vpt2 vpt Rec fill Bsquare} bind def
/S4 {BL [] 0 setdash 2 copy exch vpt sub exch vpt sub vpt Square fill Bsquare} bind def
/S5 {BL [] 0 setdash 2 copy 2 copy vpt Square fill
	exch vpt sub exch vpt sub vpt Square fill Bsquare} bind def
/S6 {BL [] 0 setdash 2 copy exch vpt sub exch vpt sub vpt vpt2 Rec fill Bsquare} bind def
/S7 {BL [] 0 setdash 2 copy exch vpt sub exch vpt sub vpt vpt2 Rec fill
	2 copy vpt Square fill Bsquare} bind def
/S8 {BL [] 0 setdash 2 copy vpt sub vpt Square fill Bsquare} bind def
/S9 {BL [] 0 setdash 2 copy vpt sub vpt vpt2 Rec fill Bsquare} bind def
/S10 {BL [] 0 setdash 2 copy vpt sub vpt Square fill 2 copy exch vpt sub exch vpt Square fill
	Bsquare} bind def
/S11 {BL [] 0 setdash 2 copy vpt sub vpt Square fill 2 copy exch vpt sub exch vpt2 vpt Rec fill
	Bsquare} bind def
/S12 {BL [] 0 setdash 2 copy exch vpt sub exch vpt sub vpt2 vpt Rec fill Bsquare} bind def
/S13 {BL [] 0 setdash 2 copy exch vpt sub exch vpt sub vpt2 vpt Rec fill
	2 copy vpt Square fill Bsquare} bind def
/S14 {BL [] 0 setdash 2 copy exch vpt sub exch vpt sub vpt2 vpt Rec fill
	2 copy exch vpt sub exch vpt Square fill Bsquare} bind def
/S15 {BL [] 0 setdash 2 copy Bsquare fill Bsquare} bind def
/D0 {gsave translate 45 rotate 0 0 S0 stroke grestore} bind def
/D1 {gsave translate 45 rotate 0 0 S1 stroke grestore} bind def
/D2 {gsave translate 45 rotate 0 0 S2 stroke grestore} bind def
/D3 {gsave translate 45 rotate 0 0 S3 stroke grestore} bind def
/D4 {gsave translate 45 rotate 0 0 S4 stroke grestore} bind def
/D5 {gsave translate 45 rotate 0 0 S5 stroke grestore} bind def
/D6 {gsave translate 45 rotate 0 0 S6 stroke grestore} bind def
/D7 {gsave translate 45 rotate 0 0 S7 stroke grestore} bind def
/D8 {gsave translate 45 rotate 0 0 S8 stroke grestore} bind def
/D9 {gsave translate 45 rotate 0 0 S9 stroke grestore} bind def
/D10 {gsave translate 45 rotate 0 0 S10 stroke grestore} bind def
/D11 {gsave translate 45 rotate 0 0 S11 stroke grestore} bind def
/D12 {gsave translate 45 rotate 0 0 S12 stroke grestore} bind def
/D13 {gsave translate 45 rotate 0 0 S13 stroke grestore} bind def
/D14 {gsave translate 45 rotate 0 0 S14 stroke grestore} bind def
/D15 {gsave translate 45 rotate 0 0 S15 stroke grestore} bind def
/DiaE {stroke [] 0 setdash vpt add M
  hpt neg vpt neg V hpt vpt neg V
  hpt vpt V hpt neg vpt V closepath stroke} def
/BoxE {stroke [] 0 setdash exch hpt sub exch vpt add M
  0 vpt2 neg V hpt2 0 V 0 vpt2 V
  hpt2 neg 0 V closepath stroke} def
/TriUE {stroke [] 0 setdash vpt 1.12 mul add M
  hpt neg vpt -1.62 mul V
  hpt 2 mul 0 V
  hpt neg vpt 1.62 mul V closepath stroke} def
/TriDE {stroke [] 0 setdash vpt 1.12 mul sub M
  hpt neg vpt 1.62 mul V
  hpt 2 mul 0 V
  hpt neg vpt -1.62 mul V closepath stroke} def
/PentE {stroke [] 0 setdash gsave
  translate 0 hpt M 4 {72 rotate 0 hpt L} repeat
  closepath stroke grestore} def
/CircE {stroke [] 0 setdash 
  hpt 0 360 arc stroke} def
/Opaque {gsave closepath 1 setgray fill grestore 0 setgray closepath} def
/DiaW {stroke [] 0 setdash vpt add M
  hpt neg vpt neg V hpt vpt neg V
  hpt vpt V hpt neg vpt V Opaque stroke} def
/BoxW {stroke [] 0 setdash exch hpt sub exch vpt add M
  0 vpt2 neg V hpt2 0 V 0 vpt2 V
  hpt2 neg 0 V Opaque stroke} def
/TriUW {stroke [] 0 setdash vpt 1.12 mul add M
  hpt neg vpt -1.62 mul V
  hpt 2 mul 0 V
  hpt neg vpt 1.62 mul V Opaque stroke} def
/TriDW {stroke [] 0 setdash vpt 1.12 mul sub M
  hpt neg vpt 1.62 mul V
  hpt 2 mul 0 V
  hpt neg vpt -1.62 mul V Opaque stroke} def
/PentW {stroke [] 0 setdash gsave
  translate 0 hpt M 4 {72 rotate 0 hpt L} repeat
  Opaque stroke grestore} def
/CircW {stroke [] 0 setdash 
  hpt 0 360 arc Opaque stroke} def
/BoxFill {gsave Rec 1 setgray fill grestore} def
/Density {
  /Fillden exch def
  currentrgbcolor
  /ColB exch def /ColG exch def /ColR exch def
  /ColR ColR Fillden mul Fillden sub 1 add def
  /ColG ColG Fillden mul Fillden sub 1 add def
  /ColB ColB Fillden mul Fillden sub 1 add def
  ColR ColG ColB setrgbcolor} def
/BoxColFill {gsave Rec PolyFill} def
/PolyFill {gsave Density fill grestore grestore} def
/h {rlineto rlineto rlineto gsave closepath fill grestore} bind def
%
% PostScript Level 1 Pattern Fill routine for rectangles
% Usage: x y w h s a XX PatternFill
%	x,y = lower left corner of box to be filled
%	w,h = width and height of box
%	  a = angle in degrees between lines and x-axis
%	 XX = 0/1 for no/yes cross-hatch
%
/PatternFill {gsave /PFa [ 9 2 roll ] def
  PFa 0 get PFa 2 get 2 div add PFa 1 get PFa 3 get 2 div add translate
  PFa 2 get -2 div PFa 3 get -2 div PFa 2 get PFa 3 get Rec
  TransparentPatterns {} {gsave 1 setgray fill grestore} ifelse
  clip
  currentlinewidth 0.5 mul setlinewidth
  /PFs PFa 2 get dup mul PFa 3 get dup mul add sqrt def
  0 0 M PFa 5 get rotate PFs -2 div dup translate
  0 1 PFs PFa 4 get div 1 add floor cvi
	{PFa 4 get mul 0 M 0 PFs V} for
  0 PFa 6 get ne {
	0 1 PFs PFa 4 get div 1 add floor cvi
	{PFa 4 get mul 0 2 1 roll M PFs 0 V} for
 } if
  stroke grestore} def
%
/languagelevel where
 {pop languagelevel} {1} ifelse
 2 lt
	{/InterpretLevel1 true def}
	{/InterpretLevel1 Level1 def}
 ifelse
%
% PostScript level 2 pattern fill definitions
%
/Level2PatternFill {
/Tile8x8 {/PaintType 2 /PatternType 1 /TilingType 1 /BBox [0 0 8 8] /XStep 8 /YStep 8}
	bind def
/KeepColor {currentrgbcolor [/Pattern /DeviceRGB] setcolorspace} bind def
<< Tile8x8
 /PaintProc {0.5 setlinewidth pop 0 0 M 8 8 L 0 8 M 8 0 L stroke} 
>> matrix makepattern
/Pat1 exch def
<< Tile8x8
 /PaintProc {0.5 setlinewidth pop 0 0 M 8 8 L 0 8 M 8 0 L stroke
	0 4 M 4 8 L 8 4 L 4 0 L 0 4 L stroke}
>> matrix makepattern
/Pat2 exch def
<< Tile8x8
 /PaintProc {0.5 setlinewidth pop 0 0 M 0 8 L
	8 8 L 8 0 L 0 0 L fill}
>> matrix makepattern
/Pat3 exch def
<< Tile8x8
 /PaintProc {0.5 setlinewidth pop -4 8 M 8 -4 L
	0 12 M 12 0 L stroke}
>> matrix makepattern
/Pat4 exch def
<< Tile8x8
 /PaintProc {0.5 setlinewidth pop -4 0 M 8 12 L
	0 -4 M 12 8 L stroke}
>> matrix makepattern
/Pat5 exch def
<< Tile8x8
 /PaintProc {0.5 setlinewidth pop -2 8 M 4 -4 L
	0 12 M 8 -4 L 4 12 M 10 0 L stroke}
>> matrix makepattern
/Pat6 exch def
<< Tile8x8
 /PaintProc {0.5 setlinewidth pop -2 0 M 4 12 L
	0 -4 M 8 12 L 4 -4 M 10 8 L stroke}
>> matrix makepattern
/Pat7 exch def
<< Tile8x8
 /PaintProc {0.5 setlinewidth pop 8 -2 M -4 4 L
	12 0 M -4 8 L 12 4 M 0 10 L stroke}
>> matrix makepattern
/Pat8 exch def
<< Tile8x8
 /PaintProc {0.5 setlinewidth pop 0 -2 M 12 4 L
	-4 0 M 12 8 L -4 4 M 8 10 L stroke}
>> matrix makepattern
/Pat9 exch def
/Pattern1 {PatternBgnd KeepColor Pat1 setpattern} bind def
/Pattern2 {PatternBgnd KeepColor Pat2 setpattern} bind def
/Pattern3 {PatternBgnd KeepColor Pat3 setpattern} bind def
/Pattern4 {PatternBgnd KeepColor Landscape {Pat5} {Pat4} ifelse setpattern} bind def
/Pattern5 {PatternBgnd KeepColor Landscape {Pat4} {Pat5} ifelse setpattern} bind def
/Pattern6 {PatternBgnd KeepColor Landscape {Pat9} {Pat6} ifelse setpattern} bind def
/Pattern7 {PatternBgnd KeepColor Landscape {Pat8} {Pat7} ifelse setpattern} bind def
} def
%
%
%End of PostScript Level 2 code
%
/PatternBgnd {
  TransparentPatterns {} {gsave 1 setgray fill grestore} ifelse
} def
%
% Substitute for Level 2 pattern fill codes with
% grayscale if Level 2 support is not selected.
%
/Level1PatternFill {
/Pattern1 {0.250 Density} bind def
/Pattern2 {0.500 Density} bind def
/Pattern3 {0.750 Density} bind def
/Pattern4 {0.125 Density} bind def
/Pattern5 {0.375 Density} bind def
/Pattern6 {0.625 Density} bind def
/Pattern7 {0.875 Density} bind def
} def
%
% Now test for support of Level 2 code
%
Level1 {Level1PatternFill} {Level2PatternFill} ifelse
%
/Symbol-Oblique /Symbol findfont [1 0 .167 1 0 0] makefont
dup length dict begin {1 index /FID eq {pop pop} {def} ifelse} forall
currentdict end definefont pop
/MFshow {
   { dup 5 get 3 ge
     { 5 get 3 eq {gsave} {grestore} ifelse }
     {dup dup 0 get findfont exch 1 get scalefont setfont
     [ currentpoint ] exch dup 2 get 0 exch R dup 5 get 2 ne {dup dup 6
     get exch 4 get {Gshow} {stringwidth pop 0 R} ifelse }if dup 5 get 0 eq
     {dup 3 get {2 get neg 0 exch R pop} {pop aload pop M} ifelse} {dup 5
     get 1 eq {dup 2 get exch dup 3 get exch 6 get stringwidth pop -2 div
     dup 0 R} {dup 6 get stringwidth pop -2 div 0 R 6 get
     show 2 index {aload pop M neg 3 -1 roll neg R pop pop} {pop pop pop
     pop aload pop M} ifelse }ifelse }ifelse }
     ifelse }
   forall} def
/Gswidth {dup type /stringtype eq {stringwidth} {pop (n) stringwidth} ifelse} def
/MFwidth {0 exch { dup 5 get 3 ge { 5 get 3 eq { 0 } { pop } ifelse }
 {dup 3 get{dup dup 0 get findfont exch 1 get scalefont setfont
     6 get Gswidth pop add} {pop} ifelse} ifelse} forall} def
/MLshow { currentpoint stroke M
  0 exch R
  Blacktext {gsave 0 setgray MFshow grestore} {MFshow} ifelse } bind def
/MRshow { currentpoint stroke M
  exch dup MFwidth neg 3 -1 roll R
  Blacktext {gsave 0 setgray MFshow grestore} {MFshow} ifelse } bind def
/MCshow { currentpoint stroke M
  exch dup MFwidth -2 div 3 -1 roll R
  Blacktext {gsave 0 setgray MFshow grestore} {MFshow} ifelse } bind def
/XYsave    { [( ) 1 2 true false 3 ()] } bind def
/XYrestore { [( ) 1 2 true false 4 ()] } bind def
Level1 SuppressPDFMark or 
{} {
/SDict 10 dict def
systemdict /pdfmark known not {
  userdict /pdfmark systemdict /cleartomark get put
} if
SDict begin [
  /Title (agg4.rate_vs.proc.eps)
  /Subject (gnuplot plot)
  /Creator (gnuplot 4.6 patchlevel 4)
  /Author (romoore)
%  /Producer (gnuplot)
%  /Keywords ()
  /CreationDate (Mon Aug 11 16:25:13 2014)
  /DOCINFO pdfmark
end
} ifelse
end
%%EndProlog
%%Page: 1 1
gnudict begin
gsave
doclip
50 50 translate
0.100 0.100 scale
90 rotate
0 -3600 translate
0 setgray
newpath
(Helvetica) findfont 140 scalefont setfont
BackgroundColor 0 lt 3 1 roll 0 lt exch 0 lt or or not {gsave BackgroundColor C clippath fill grestore} if
1.500 UL
LTb
0.42 0.42 0.42 C 1.000 UL
LTa
0.84 0.88 0.79 C 770 560 M
6537 0 V
stroke
1.500 UL
LTb
0.42 0.42 0.42 C 770 560 M
63 0 V
6474 0 R
-63 0 V
stroke
0.42 0.42 0.42 C 686 560 M
[ [(SVBasic Manual) 120.0 0.0 true true 0 ( 0.1)]
] -40.0 MRshow
1.500 UL
LTb
0.42 0.42 0.42 C 770 757 M
31 0 V
6506 0 R
-31 0 V
770 872 M
31 0 V
6506 0 R
-31 0 V
770 954 M
31 0 V
6506 0 R
-31 0 V
770 1018 M
31 0 V
6506 0 R
-31 0 V
770 1069 M
31 0 V
6506 0 R
-31 0 V
770 1113 M
31 0 V
6506 0 R
-31 0 V
770 1151 M
31 0 V
6506 0 R
-31 0 V
770 1185 M
31 0 V
6506 0 R
-31 0 V
stroke
1.000 UL
LTa
0.84 0.88 0.79 C 770 1215 M
6537 0 V
stroke
1.500 UL
LTb
0.42 0.42 0.42 C 770 1215 M
63 0 V
6474 0 R
-63 0 V
stroke
0.42 0.42 0.42 C 686 1215 M
[ [(SVBasic Manual) 120.0 0.0 true true 0 ( 1)]
] -40.0 MRshow
1.500 UL
LTb
0.42 0.42 0.42 C 770 1412 M
31 0 V
6506 0 R
-31 0 V
770 1527 M
31 0 V
6506 0 R
-31 0 V
770 1609 M
31 0 V
6506 0 R
-31 0 V
770 1672 M
31 0 V
6506 0 R
-31 0 V
770 1724 M
31 0 V
6506 0 R
-31 0 V
770 1768 M
31 0 V
6506 0 R
-31 0 V
770 1806 M
31 0 V
6506 0 R
-31 0 V
770 1840 M
31 0 V
6506 0 R
-31 0 V
stroke
1.000 UL
LTa
0.84 0.88 0.79 C 770 1870 M
6537 0 V
stroke
1.500 UL
LTb
0.42 0.42 0.42 C 770 1870 M
63 0 V
6474 0 R
-63 0 V
stroke
0.42 0.42 0.42 C 686 1870 M
[ [(SVBasic Manual) 120.0 0.0 true true 0 ( 10)]
] -40.0 MRshow
1.500 UL
LTb
0.42 0.42 0.42 C 770 2067 M
31 0 V
6506 0 R
-31 0 V
770 2182 M
31 0 V
6506 0 R
-31 0 V
770 2264 M
31 0 V
6506 0 R
-31 0 V
770 2327 M
31 0 V
6506 0 R
-31 0 V
770 2379 M
31 0 V
6506 0 R
-31 0 V
770 2423 M
31 0 V
6506 0 R
-31 0 V
770 2461 M
31 0 V
6506 0 R
-31 0 V
770 2494 M
31 0 V
6506 0 R
-31 0 V
stroke
1.000 UL
LTa
0.84 0.88 0.79 C 770 2524 M
84 0 V
1491 0 R
4962 0 V
stroke
1.500 UL
LTb
0.42 0.42 0.42 C 770 2524 M
63 0 V
6474 0 R
-63 0 V
stroke
0.42 0.42 0.42 C 686 2524 M
[ [(SVBasic Manual) 120.0 0.0 true true 0 ( 100)]
] -40.0 MRshow
1.500 UL
LTb
0.42 0.42 0.42 C 770 2721 M
31 0 V
6506 0 R
-31 0 V
770 2837 M
31 0 V
6506 0 R
-31 0 V
770 2918 M
31 0 V
6506 0 R
-31 0 V
770 2982 M
31 0 V
6506 0 R
-31 0 V
770 3034 M
31 0 V
6506 0 R
-31 0 V
770 3078 M
31 0 V
6506 0 R
-31 0 V
770 3116 M
31 0 V
6506 0 R
-31 0 V
770 3149 M
31 0 V
6506 0 R
-31 0 V
stroke
1.000 UL
LTa
0.84 0.88 0.79 C 770 3179 M
6537 0 V
stroke
1.500 UL
LTb
0.42 0.42 0.42 C 770 3179 M
63 0 V
6474 0 R
-63 0 V
stroke
0.42 0.42 0.42 C 686 3179 M
[ [(SVBasic Manual) 120.0 0.0 true true 0 ( 1000)]
] -40.0 MRshow
1.500 UL
LTb
0.42 0.42 0.42 C 1.000 UL
LTa
0.84 0.88 0.79 C 7307 560 M
0 2619 V
stroke
1.500 UL
LTb
0.42 0.42 0.42 C 7307 560 M
0 63 V
0 2556 R
0 -63 V
stroke
0.42 0.42 0.42 C 7307 476 M
currentpoint gsave translate -270 rotate 0 0 moveto
[ [(SVBasic Manual) 120.0 0.0 true true 0 ( 0)]
] -40.0 MRshow
grestore
1.500 UL
LTb
0.42 0.42 0.42 C 1.000 UL
LTa
0.84 0.88 0.79 C 6490 560 M
0 2619 V
stroke
1.500 UL
LTb
0.42 0.42 0.42 C 6490 560 M
0 63 V
0 2556 R
0 -63 V
stroke
0.42 0.42 0.42 C 6490 476 M
currentpoint gsave translate -270 rotate 0 0 moveto
[ [(SVBasic Manual) 120.0 0.0 true true 0 ( 10)]
] -40.0 MRshow
grestore
1.500 UL
LTb
0.42 0.42 0.42 C 1.000 UL
LTa
0.84 0.88 0.79 C 5673 560 M
0 2619 V
stroke
1.500 UL
LTb
0.42 0.42 0.42 C 5673 560 M
0 63 V
0 2556 R
0 -63 V
stroke
0.42 0.42 0.42 C 5673 476 M
currentpoint gsave translate -270 rotate 0 0 moveto
[ [(SVBasic Manual) 120.0 0.0 true true 0 ( 20)]
] -40.0 MRshow
grestore
1.500 UL
LTb
0.42 0.42 0.42 C 1.000 UL
LTa
0.84 0.88 0.79 C 4856 560 M
0 2619 V
stroke
1.500 UL
LTb
0.42 0.42 0.42 C 4856 560 M
0 63 V
0 2556 R
0 -63 V
stroke
0.42 0.42 0.42 C 4856 476 M
currentpoint gsave translate -270 rotate 0 0 moveto
[ [(SVBasic Manual) 120.0 0.0 true true 0 ( 30)]
] -40.0 MRshow
grestore
1.500 UL
LTb
0.42 0.42 0.42 C 1.000 UL
LTa
0.84 0.88 0.79 C 4039 560 M
0 2619 V
stroke
1.500 UL
LTb
0.42 0.42 0.42 C 4039 560 M
0 63 V
0 2556 R
0 -63 V
stroke
0.42 0.42 0.42 C 4039 476 M
currentpoint gsave translate -270 rotate 0 0 moveto
[ [(SVBasic Manual) 120.0 0.0 true true 0 ( 40)]
] -40.0 MRshow
grestore
1.500 UL
LTb
0.42 0.42 0.42 C 1.000 UL
LTa
0.84 0.88 0.79 C 3221 560 M
0 2619 V
stroke
1.500 UL
LTb
0.42 0.42 0.42 C 3221 560 M
0 63 V
0 2556 R
0 -63 V
stroke
0.42 0.42 0.42 C 3221 476 M
currentpoint gsave translate -270 rotate 0 0 moveto
[ [(SVBasic Manual) 120.0 0.0 true true 0 ( 50)]
] -40.0 MRshow
grestore
1.500 UL
LTb
0.42 0.42 0.42 C 1.000 UL
LTa
0.84 0.88 0.79 C 2404 560 M
0 2619 V
stroke
1.500 UL
LTb
0.42 0.42 0.42 C 2404 560 M
0 63 V
0 2556 R
0 -63 V
stroke
0.42 0.42 0.42 C 2404 476 M
currentpoint gsave translate -270 rotate 0 0 moveto
[ [(SVBasic Manual) 120.0 0.0 true true 0 ( 60)]
] -40.0 MRshow
grestore
1.500 UL
LTb
0.42 0.42 0.42 C 1.000 UL
LTa
0.84 0.88 0.79 C 1587 560 M
0 1716 V
0 840 R
0 63 V
stroke
1.500 UL
LTb
0.42 0.42 0.42 C 1587 560 M
0 63 V
0 2556 R
0 -63 V
stroke
0.42 0.42 0.42 C 1587 476 M
currentpoint gsave translate -270 rotate 0 0 moveto
[ [(SVBasic Manual) 120.0 0.0 true true 0 ( 70)]
] -40.0 MRshow
grestore
1.500 UL
LTb
0.42 0.42 0.42 C 1.000 UL
LTa
0.84 0.88 0.79 C 770 560 M
0 2619 V
stroke
1.500 UL
LTb
0.42 0.42 0.42 C 770 560 M
0 63 V
0 2556 R
0 -63 V
stroke
0.42 0.42 0.42 C 770 476 M
currentpoint gsave translate -270 rotate 0 0 moveto
[ [(SVBasic Manual) 120.0 0.0 true true 0 ( 80)]
] -40.0 MRshow
grestore
1.500 UL
LTb
0.42 0.42 0.42 C 1.500 UL
LTb
0.42 0.42 0.42 C 770 3179 N
770 560 L
6537 0 V
0 2619 V
-6537 0 V
Z stroke
0.42 0.42 0.42 C 112 1869 M
currentpoint gsave translate -270 rotate 0 0 moveto
[ [(SVBasic Manual) 120.0 0.0 true true 0 (Processing Time per Sample \()]
[(Symbol) 120.0 0.0 true true 0 (m)]
[(SVBasic Manual) 120.0 0.0 true true 0 (s\))]
] -40.0 MCshow
grestore
LTb
0.42 0.42 0.42 C 4038 98 M
[ [(SVBasic Manual) 120.0 0.0 true true 0 (Average Sample Arrival Rate \()]
[(Symbol) 120.0 0.0 true true 0 (m)]
[(SVBasic Manual) 120.0 0.0 true true 0 (s\))]
] -40.0 MCshow
LTb
0.42 0.42 0.42 C 4038 3389 M
[ [(SVBasic Manual) 150.0 0.0 true true 0 (Impact of Service Rate on Processing Time)]
] -50.0 MCshow
LTb
1.000 UP
0.42 0.42 0.42 C 1.500 UL
LTb
0.42 0.42 0.42 C 1.000 UL
LTb
LCb setrgbcolor
854 2276 N
0 840 V
1491 0 V
0 -840 V
-1491 0 V
Z stroke
% Begin plot #1
1.000 UP
2.000 UL
LT0
0.45 0.59 0.90 C LCb setrgbcolor
1778 2906 M
[ [(SVBasic Manual) 120.0 0.0 true true 0 (1 Solver)]
] -40.0 MRshow
LT0
0.45 0.59 0.90 C 1862 2906 M
399 0 V
-399 31 R
0 -62 V
399 62 R
0 -62 V
6980 2072 M
0 7 V
-31 -7 R
62 0 V
-62 7 R
62 0 V
6898 1719 M
0 237 V
-31 -237 R
62 0 V
-62 237 R
62 0 V
-112 18 R
0 6 V
-31 -6 R
62 0 V
-62 6 R
62 0 V
6735 905 M
-31 0 R
62 0 V
-62 0 R
62 0 V
-113 985 R
0 11 V
-31 -11 R
62 0 V
-62 11 R
62 0 V
-112 -2 R
0 8 V
-31 -8 R
62 0 V
-62 8 R
62 0 V
6490 898 M
-31 0 R
62 0 V
-62 0 R
62 0 V
-603 956 R
0 12 V
-31 -12 R
62 0 V
-62 12 R
62 0 V
-113 -2 R
0 17 V
-31 -17 R
62 0 V
-62 17 R
62 0 V
5754 1368 M
0 448 V
-31 -448 R
62 0 V
-62 448 R
62 0 V
5591 905 M
-31 0 R
62 0 V
-62 0 R
62 0 V
-440 25 R
-31 0 R
62 0 V
-62 0 R
62 0 V
4202 952 M
-31 0 R
62 0 V
-62 0 R
62 0 V
-3218 53 R
-31 0 R
62 0 V
-62 0 R
62 0 V
6980 2076 CircleF
6898 1861 CircleF
6817 1977 CircleF
6735 905 CircleF
6653 1896 CircleF
6572 1903 CircleF
6490 898 CircleF
5918 1860 CircleF
5836 1873 CircleF
5754 1673 CircleF
5591 905 CircleF
5182 930 CircleF
4202 952 CircleF
1015 1005 CircleF
2061 2906 CircleF
% End plot #1
% Begin plot #2
1.000 UP
2.000 UL
LT1
0.40 0.92 0.52 C LCb setrgbcolor
1778 2766 M
[ [(SVBasic Manual) 120.0 0.0 true true 0 (3 Solvers)]
] -40.0 MRshow
LT1
0.40 0.92 0.52 C 1862 2766 M
399 0 V
-399 31 R
0 -62 V
399 62 R
0 -62 V
6817 2325 M
0 114 V
-31 -114 R
62 0 V
-62 114 R
62 0 V
6735 2232 M
0 21 V
-31 -21 R
62 0 V
-62 21 R
62 0 V
6653 2033 M
0 167 V
-31 -167 R
62 0 V
-62 167 R
62 0 V
-112 3 R
0 10 V
-31 -10 R
62 0 V
-62 10 R
62 0 V
-685 -97 R
0 26 V
-31 -26 R
62 0 V
-62 26 R
62 0 V
-113 -18 R
0 14 V
-31 -14 R
62 0 V
-62 14 R
62 0 V
-113 -19 R
-31 0 R
62 0 V
-62 0 R
62 0 V
5591 915 M
-31 0 R
62 0 V
-62 0 R
62 0 V
-440 7 R
-31 0 R
62 0 V
-62 0 R
62 0 V
-439 25 R
-31 0 R
62 0 V
-62 0 R
62 0 V
-603 -2 R
-31 0 R
62 0 V
-62 0 R
62 0 V
3630 3084 M
-31 0 R
62 0 V
-62 0 R
62 0 V
1015 1013 M
-31 0 R
62 0 V
-62 0 R
62 0 V
6817 2387 BoxF
6735 2243 BoxF
6653 2129 BoxF
6572 2208 BoxF
5918 2129 BoxF
5836 2131 BoxF
5754 2119 BoxF
5591 915 BoxF
5182 922 BoxF
4774 947 BoxF
4202 945 BoxF
3630 3084 BoxF
1015 1013 BoxF
2061 2766 BoxF
% End plot #2
% Begin plot #3
1.000 UP
2.000 UL
LT2
0.98 0.48 0.43 C LCb setrgbcolor
1778 2626 M
[ [(SVBasic Manual) 120.0 0.0 true true 0 (6 Solvers)]
] -40.0 MRshow
LT2
0.98 0.48 0.43 C 1862 2626 M
399 0 V
-399 31 R
0 -62 V
399 62 R
0 -62 V
4392 11 R
-31 0 R
62 0 V
-62 0 R
62 0 V
6572 2344 M
0 175 V
-31 -175 R
62 0 V
-62 175 R
62 0 V
6490 903 M
-31 0 R
62 0 V
-62 0 R
62 0 V
6408 2476 M
0 113 V
-31 -113 R
62 0 V
-62 113 R
62 0 V
6326 2439 M
0 16 V
-31 -16 R
62 0 V
-62 16 R
62 0 V
-112 -11 R
-31 0 R
62 0 V
-62 0 R
62 0 V
6163 899 M
-31 0 R
62 0 V
-62 0 R
62 0 V
5918 2408 M
0 14 V
-31 -14 R
62 0 V
-62 14 R
62 0 V
-113 2 R
0 11 V
-31 -11 R
62 0 V
-62 11 R
62 0 V
-113 -10 R
-31 0 R
62 0 V
-62 0 R
62 0 V
5591 905 M
-31 0 R
62 0 V
-62 0 R
62 0 V
4120 966 M
-31 0 R
62 0 V
-62 0 R
62 0 V
-1093 3 R
-31 0 R
62 0 V
-62 0 R
62 0 V
-2074 41 R
-31 0 R
62 0 V
-62 0 R
62 0 V
6653 2606 TriUF
6572 2445 TriUF
6490 903 TriUF
6408 2538 TriUF
6326 2447 TriUF
6245 2444 TriUF
6163 899 TriUF
5918 2415 TriUF
5836 2430 TriUF
5754 2425 TriUF
5591 905 TriUF
4120 966 TriUF
3058 969 TriUF
1015 1010 TriUF
2061 2626 TriUF
% End plot #3
% Begin plot #4
1.000 UP
2.000 UL
LT3
0.98 0.79 0.43 C LCb setrgbcolor
1778 2486 M
[ [(SVBasic Manual) 120.0 0.0 true true 0 (9 Solvers)]
] -40.0 MRshow
LT3
0.98 0.79 0.43 C 1862 2486 M
399 0 V
-399 31 R
0 -62 V
399 62 R
0 -62 V
4147 251 R
-31 0 R
62 0 V
-62 0 R
62 0 V
6326 2476 M
0 155 V
-31 -155 R
62 0 V
-62 155 R
62 0 V
-194 -24 R
0 27 V
-31 -27 R
62 0 V
-62 27 R
62 0 V
-113 25 R
-31 0 R
62 0 V
-62 0 R
62 0 V
5918 2547 M
0 40 V
-31 -40 R
62 0 V
-62 40 R
62 0 V
-113 3 R
0 8 V
-31 -8 R
62 0 V
-62 8 R
62 0 V
-113 -6 R
-31 0 R
62 0 V
-62 0 R
62 0 V
5591 923 M
-31 0 R
62 0 V
-62 0 R
62 0 V
3140 964 M
-31 0 R
62 0 V
-62 0 R
62 0 V
-848 28 R
-31 0 R
62 0 V
-62 0 R
62 0 V
-1339 15 R
-31 0 R
62 0 V
-62 0 R
62 0 V
6408 2706 DiaF
6326 2564 DiaF
6163 2621 DiaF
6081 2659 DiaF
5918 2568 DiaF
5836 2594 DiaF
5754 2592 DiaF
5591 923 DiaF
3140 964 DiaF
2323 992 DiaF
1015 1007 DiaF
2061 2486 DiaF
% End plot #4
1.500 UL
LTb
0.42 0.42 0.42 C 770 3179 N
770 560 L
6537 0 V
0 2619 V
-6537 0 V
Z stroke
1.000 UP
1.500 UL
LTb
0.42 0.42 0.42 C stroke
grestore
end
showpage
%%Trailer
%%DocumentFonts: Symbol Helvetica
%%Pages: 1
