%!PS-Adobe-2.0
%%Title: aggregator.log.2013-11-01.rate.eps
%%Creator: gnuplot 4.6 patchlevel 4
%%CreationDate: Wed Sep  3 15:30:13 2014
%%DocumentFonts: (atend)
%%BoundingBox: 50 50 554 770
%%Orientation: Landscape
%%Pages: (atend)
%%EndComments
%%BeginProlog
/gnudict 256 dict def
gnudict begin
%
% The following true/false flags may be edited by hand if desired.
% The unit line width and grayscale image gamma correction may also be changed.
%
/Color false def
/Blacktext false def
/Solid false def
/Dashlength 1 def
/Landscape true def
/Level1 false def
/Rounded false def
/ClipToBoundingBox false def
/SuppressPDFMark false def
/TransparentPatterns false def
/gnulinewidth 5.000 def
/userlinewidth gnulinewidth def
/Gamma 1.0 def
/BackgroundColor {-1.000 -1.000 -1.000} def
%
/vshift -46 def
/dl1 {
  10.0 Dashlength mul mul
  Rounded { currentlinewidth 0.75 mul sub dup 0 le { pop 0.01 } if } if
} def
/dl2 {
  10.0 Dashlength mul mul
  Rounded { currentlinewidth 0.75 mul add } if
} def
/hpt_ 31.5 def
/vpt_ 31.5 def
/hpt hpt_ def
/vpt vpt_ def
/doclip {
  ClipToBoundingBox {
    newpath 50 50 moveto 554 50 lineto 554 770 lineto 50 770 lineto closepath
    clip
  } if
} def
%
% Gnuplot Prolog Version 4.6 (September 2012)
%
%/SuppressPDFMark true def
%
/M {moveto} bind def
/L {lineto} bind def
/R {rmoveto} bind def
/V {rlineto} bind def
/N {newpath moveto} bind def
/Z {closepath} bind def
/C {setrgbcolor} bind def
/f {rlineto fill} bind def
/g {setgray} bind def
/Gshow {show} def   % May be redefined later in the file to support UTF-8
/vpt2 vpt 2 mul def
/hpt2 hpt 2 mul def
/Lshow {currentpoint stroke M 0 vshift R 
	Blacktext {gsave 0 setgray show grestore} {show} ifelse} def
/Rshow {currentpoint stroke M dup stringwidth pop neg vshift R
	Blacktext {gsave 0 setgray show grestore} {show} ifelse} def
/Cshow {currentpoint stroke M dup stringwidth pop -2 div vshift R 
	Blacktext {gsave 0 setgray show grestore} {show} ifelse} def
/UP {dup vpt_ mul /vpt exch def hpt_ mul /hpt exch def
  /hpt2 hpt 2 mul def /vpt2 vpt 2 mul def} def
/DL {Color {setrgbcolor Solid {pop []} if 0 setdash}
 {pop pop pop 0 setgray Solid {pop []} if 0 setdash} ifelse} def
/BL {stroke userlinewidth 2 mul setlinewidth
	Rounded {1 setlinejoin 1 setlinecap} if} def
/AL {stroke userlinewidth 2 div setlinewidth
	Rounded {1 setlinejoin 1 setlinecap} if} def
/UL {dup gnulinewidth mul /userlinewidth exch def
	dup 1 lt {pop 1} if 10 mul /udl exch def} def
/PL {stroke userlinewidth setlinewidth
	Rounded {1 setlinejoin 1 setlinecap} if} def
3.8 setmiterlimit
% Default Line colors
/LCw {1 1 1} def
/LCb {0 0 0} def
/LCa {0 0 0} def
/LC0 {1 0 0} def
/LC1 {0 1 0} def
/LC2 {0 0 1} def
/LC3 {1 0 1} def
/LC4 {0 1 1} def
/LC5 {1 1 0} def
/LC6 {0 0 0} def
/LC7 {1 0.3 0} def
/LC8 {0.5 0.5 0.5} def
% Default Line Types
/LTw {PL [] 1 setgray} def
/LTb {BL [] LCb DL} def
/LTa {AL [1 udl mul 2 udl mul] 0 setdash LCa setrgbcolor} def
/LT0 {PL [] LC0 DL} def
/LT1 {PL [4 dl1 2 dl2] LC1 DL} def
/LT2 {PL [2 dl1 3 dl2] LC2 DL} def
/LT3 {PL [1 dl1 1.5 dl2] LC3 DL} def
/LT4 {PL [6 dl1 2 dl2 1 dl1 2 dl2] LC4 DL} def
/LT5 {PL [3 dl1 3 dl2 1 dl1 3 dl2] LC5 DL} def
/LT6 {PL [2 dl1 2 dl2 2 dl1 6 dl2] LC6 DL} def
/LT7 {PL [1 dl1 2 dl2 6 dl1 2 dl2 1 dl1 2 dl2] LC7 DL} def
/LT8 {PL [2 dl1 2 dl2 2 dl1 2 dl2 2 dl1 2 dl2 2 dl1 4 dl2] LC8 DL} def
/Pnt {stroke [] 0 setdash gsave 1 setlinecap M 0 0 V stroke grestore} def
/Dia {stroke [] 0 setdash 2 copy vpt add M
  hpt neg vpt neg V hpt vpt neg V
  hpt vpt V hpt neg vpt V closepath stroke
  Pnt} def
/Pls {stroke [] 0 setdash vpt sub M 0 vpt2 V
  currentpoint stroke M
  hpt neg vpt neg R hpt2 0 V stroke
 } def
/Box {stroke [] 0 setdash 2 copy exch hpt sub exch vpt add M
  0 vpt2 neg V hpt2 0 V 0 vpt2 V
  hpt2 neg 0 V closepath stroke
  Pnt} def
/Crs {stroke [] 0 setdash exch hpt sub exch vpt add M
  hpt2 vpt2 neg V currentpoint stroke M
  hpt2 neg 0 R hpt2 vpt2 V stroke} def
/TriU {stroke [] 0 setdash 2 copy vpt 1.12 mul add M
  hpt neg vpt -1.62 mul V
  hpt 2 mul 0 V
  hpt neg vpt 1.62 mul V closepath stroke
  Pnt} def
/Star {2 copy Pls Crs} def
/BoxF {stroke [] 0 setdash exch hpt sub exch vpt add M
  0 vpt2 neg V hpt2 0 V 0 vpt2 V
  hpt2 neg 0 V closepath fill} def
/TriUF {stroke [] 0 setdash vpt 1.12 mul add M
  hpt neg vpt -1.62 mul V
  hpt 2 mul 0 V
  hpt neg vpt 1.62 mul V closepath fill} def
/TriD {stroke [] 0 setdash 2 copy vpt 1.12 mul sub M
  hpt neg vpt 1.62 mul V
  hpt 2 mul 0 V
  hpt neg vpt -1.62 mul V closepath stroke
  Pnt} def
/TriDF {stroke [] 0 setdash vpt 1.12 mul sub M
  hpt neg vpt 1.62 mul V
  hpt 2 mul 0 V
  hpt neg vpt -1.62 mul V closepath fill} def
/DiaF {stroke [] 0 setdash vpt add M
  hpt neg vpt neg V hpt vpt neg V
  hpt vpt V hpt neg vpt V closepath fill} def
/Pent {stroke [] 0 setdash 2 copy gsave
  translate 0 hpt M 4 {72 rotate 0 hpt L} repeat
  closepath stroke grestore Pnt} def
/PentF {stroke [] 0 setdash gsave
  translate 0 hpt M 4 {72 rotate 0 hpt L} repeat
  closepath fill grestore} def
/Circle {stroke [] 0 setdash 2 copy
  hpt 0 360 arc stroke Pnt} def
/CircleF {stroke [] 0 setdash hpt 0 360 arc fill} def
/C0 {BL [] 0 setdash 2 copy moveto vpt 90 450 arc} bind def
/C1 {BL [] 0 setdash 2 copy moveto
	2 copy vpt 0 90 arc closepath fill
	vpt 0 360 arc closepath} bind def
/C2 {BL [] 0 setdash 2 copy moveto
	2 copy vpt 90 180 arc closepath fill
	vpt 0 360 arc closepath} bind def
/C3 {BL [] 0 setdash 2 copy moveto
	2 copy vpt 0 180 arc closepath fill
	vpt 0 360 arc closepath} bind def
/C4 {BL [] 0 setdash 2 copy moveto
	2 copy vpt 180 270 arc closepath fill
	vpt 0 360 arc closepath} bind def
/C5 {BL [] 0 setdash 2 copy moveto
	2 copy vpt 0 90 arc
	2 copy moveto
	2 copy vpt 180 270 arc closepath fill
	vpt 0 360 arc} bind def
/C6 {BL [] 0 setdash 2 copy moveto
	2 copy vpt 90 270 arc closepath fill
	vpt 0 360 arc closepath} bind def
/C7 {BL [] 0 setdash 2 copy moveto
	2 copy vpt 0 270 arc closepath fill
	vpt 0 360 arc closepath} bind def
/C8 {BL [] 0 setdash 2 copy moveto
	2 copy vpt 270 360 arc closepath fill
	vpt 0 360 arc closepath} bind def
/C9 {BL [] 0 setdash 2 copy moveto
	2 copy vpt 270 450 arc closepath fill
	vpt 0 360 arc closepath} bind def
/C10 {BL [] 0 setdash 2 copy 2 copy moveto vpt 270 360 arc closepath fill
	2 copy moveto
	2 copy vpt 90 180 arc closepath fill
	vpt 0 360 arc closepath} bind def
/C11 {BL [] 0 setdash 2 copy moveto
	2 copy vpt 0 180 arc closepath fill
	2 copy moveto
	2 copy vpt 270 360 arc closepath fill
	vpt 0 360 arc closepath} bind def
/C12 {BL [] 0 setdash 2 copy moveto
	2 copy vpt 180 360 arc closepath fill
	vpt 0 360 arc closepath} bind def
/C13 {BL [] 0 setdash 2 copy moveto
	2 copy vpt 0 90 arc closepath fill
	2 copy moveto
	2 copy vpt 180 360 arc closepath fill
	vpt 0 360 arc closepath} bind def
/C14 {BL [] 0 setdash 2 copy moveto
	2 copy vpt 90 360 arc closepath fill
	vpt 0 360 arc} bind def
/C15 {BL [] 0 setdash 2 copy vpt 0 360 arc closepath fill
	vpt 0 360 arc closepath} bind def
/Rec {newpath 4 2 roll moveto 1 index 0 rlineto 0 exch rlineto
	neg 0 rlineto closepath} bind def
/Square {dup Rec} bind def
/Bsquare {vpt sub exch vpt sub exch vpt2 Square} bind def
/S0 {BL [] 0 setdash 2 copy moveto 0 vpt rlineto BL Bsquare} bind def
/S1 {BL [] 0 setdash 2 copy vpt Square fill Bsquare} bind def
/S2 {BL [] 0 setdash 2 copy exch vpt sub exch vpt Square fill Bsquare} bind def
/S3 {BL [] 0 setdash 2 copy exch vpt sub exch vpt2 vpt Rec fill Bsquare} bind def
/S4 {BL [] 0 setdash 2 copy exch vpt sub exch vpt sub vpt Square fill Bsquare} bind def
/S5 {BL [] 0 setdash 2 copy 2 copy vpt Square fill
	exch vpt sub exch vpt sub vpt Square fill Bsquare} bind def
/S6 {BL [] 0 setdash 2 copy exch vpt sub exch vpt sub vpt vpt2 Rec fill Bsquare} bind def
/S7 {BL [] 0 setdash 2 copy exch vpt sub exch vpt sub vpt vpt2 Rec fill
	2 copy vpt Square fill Bsquare} bind def
/S8 {BL [] 0 setdash 2 copy vpt sub vpt Square fill Bsquare} bind def
/S9 {BL [] 0 setdash 2 copy vpt sub vpt vpt2 Rec fill Bsquare} bind def
/S10 {BL [] 0 setdash 2 copy vpt sub vpt Square fill 2 copy exch vpt sub exch vpt Square fill
	Bsquare} bind def
/S11 {BL [] 0 setdash 2 copy vpt sub vpt Square fill 2 copy exch vpt sub exch vpt2 vpt Rec fill
	Bsquare} bind def
/S12 {BL [] 0 setdash 2 copy exch vpt sub exch vpt sub vpt2 vpt Rec fill Bsquare} bind def
/S13 {BL [] 0 setdash 2 copy exch vpt sub exch vpt sub vpt2 vpt Rec fill
	2 copy vpt Square fill Bsquare} bind def
/S14 {BL [] 0 setdash 2 copy exch vpt sub exch vpt sub vpt2 vpt Rec fill
	2 copy exch vpt sub exch vpt Square fill Bsquare} bind def
/S15 {BL [] 0 setdash 2 copy Bsquare fill Bsquare} bind def
/D0 {gsave translate 45 rotate 0 0 S0 stroke grestore} bind def
/D1 {gsave translate 45 rotate 0 0 S1 stroke grestore} bind def
/D2 {gsave translate 45 rotate 0 0 S2 stroke grestore} bind def
/D3 {gsave translate 45 rotate 0 0 S3 stroke grestore} bind def
/D4 {gsave translate 45 rotate 0 0 S4 stroke grestore} bind def
/D5 {gsave translate 45 rotate 0 0 S5 stroke grestore} bind def
/D6 {gsave translate 45 rotate 0 0 S6 stroke grestore} bind def
/D7 {gsave translate 45 rotate 0 0 S7 stroke grestore} bind def
/D8 {gsave translate 45 rotate 0 0 S8 stroke grestore} bind def
/D9 {gsave translate 45 rotate 0 0 S9 stroke grestore} bind def
/D10 {gsave translate 45 rotate 0 0 S10 stroke grestore} bind def
/D11 {gsave translate 45 rotate 0 0 S11 stroke grestore} bind def
/D12 {gsave translate 45 rotate 0 0 S12 stroke grestore} bind def
/D13 {gsave translate 45 rotate 0 0 S13 stroke grestore} bind def
/D14 {gsave translate 45 rotate 0 0 S14 stroke grestore} bind def
/D15 {gsave translate 45 rotate 0 0 S15 stroke grestore} bind def
/DiaE {stroke [] 0 setdash vpt add M
  hpt neg vpt neg V hpt vpt neg V
  hpt vpt V hpt neg vpt V closepath stroke} def
/BoxE {stroke [] 0 setdash exch hpt sub exch vpt add M
  0 vpt2 neg V hpt2 0 V 0 vpt2 V
  hpt2 neg 0 V closepath stroke} def
/TriUE {stroke [] 0 setdash vpt 1.12 mul add M
  hpt neg vpt -1.62 mul V
  hpt 2 mul 0 V
  hpt neg vpt 1.62 mul V closepath stroke} def
/TriDE {stroke [] 0 setdash vpt 1.12 mul sub M
  hpt neg vpt 1.62 mul V
  hpt 2 mul 0 V
  hpt neg vpt -1.62 mul V closepath stroke} def
/PentE {stroke [] 0 setdash gsave
  translate 0 hpt M 4 {72 rotate 0 hpt L} repeat
  closepath stroke grestore} def
/CircE {stroke [] 0 setdash 
  hpt 0 360 arc stroke} def
/Opaque {gsave closepath 1 setgray fill grestore 0 setgray closepath} def
/DiaW {stroke [] 0 setdash vpt add M
  hpt neg vpt neg V hpt vpt neg V
  hpt vpt V hpt neg vpt V Opaque stroke} def
/BoxW {stroke [] 0 setdash exch hpt sub exch vpt add M
  0 vpt2 neg V hpt2 0 V 0 vpt2 V
  hpt2 neg 0 V Opaque stroke} def
/TriUW {stroke [] 0 setdash vpt 1.12 mul add M
  hpt neg vpt -1.62 mul V
  hpt 2 mul 0 V
  hpt neg vpt 1.62 mul V Opaque stroke} def
/TriDW {stroke [] 0 setdash vpt 1.12 mul sub M
  hpt neg vpt 1.62 mul V
  hpt 2 mul 0 V
  hpt neg vpt -1.62 mul V Opaque stroke} def
/PentW {stroke [] 0 setdash gsave
  translate 0 hpt M 4 {72 rotate 0 hpt L} repeat
  Opaque stroke grestore} def
/CircW {stroke [] 0 setdash 
  hpt 0 360 arc Opaque stroke} def
/BoxFill {gsave Rec 1 setgray fill grestore} def
/Density {
  /Fillden exch def
  currentrgbcolor
  /ColB exch def /ColG exch def /ColR exch def
  /ColR ColR Fillden mul Fillden sub 1 add def
  /ColG ColG Fillden mul Fillden sub 1 add def
  /ColB ColB Fillden mul Fillden sub 1 add def
  ColR ColG ColB setrgbcolor} def
/BoxColFill {gsave Rec PolyFill} def
/PolyFill {gsave Density fill grestore grestore} def
/h {rlineto rlineto rlineto gsave closepath fill grestore} bind def
%
% PostScript Level 1 Pattern Fill routine for rectangles
% Usage: x y w h s a XX PatternFill
%	x,y = lower left corner of box to be filled
%	w,h = width and height of box
%	  a = angle in degrees between lines and x-axis
%	 XX = 0/1 for no/yes cross-hatch
%
/PatternFill {gsave /PFa [ 9 2 roll ] def
  PFa 0 get PFa 2 get 2 div add PFa 1 get PFa 3 get 2 div add translate
  PFa 2 get -2 div PFa 3 get -2 div PFa 2 get PFa 3 get Rec
  TransparentPatterns {} {gsave 1 setgray fill grestore} ifelse
  clip
  currentlinewidth 0.5 mul setlinewidth
  /PFs PFa 2 get dup mul PFa 3 get dup mul add sqrt def
  0 0 M PFa 5 get rotate PFs -2 div dup translate
  0 1 PFs PFa 4 get div 1 add floor cvi
	{PFa 4 get mul 0 M 0 PFs V} for
  0 PFa 6 get ne {
	0 1 PFs PFa 4 get div 1 add floor cvi
	{PFa 4 get mul 0 2 1 roll M PFs 0 V} for
 } if
  stroke grestore} def
%
/languagelevel where
 {pop languagelevel} {1} ifelse
 2 lt
	{/InterpretLevel1 true def}
	{/InterpretLevel1 Level1 def}
 ifelse
%
% PostScript level 2 pattern fill definitions
%
/Level2PatternFill {
/Tile8x8 {/PaintType 2 /PatternType 1 /TilingType 1 /BBox [0 0 8 8] /XStep 8 /YStep 8}
	bind def
/KeepColor {currentrgbcolor [/Pattern /DeviceRGB] setcolorspace} bind def
<< Tile8x8
 /PaintProc {0.5 setlinewidth pop 0 0 M 8 8 L 0 8 M 8 0 L stroke} 
>> matrix makepattern
/Pat1 exch def
<< Tile8x8
 /PaintProc {0.5 setlinewidth pop 0 0 M 8 8 L 0 8 M 8 0 L stroke
	0 4 M 4 8 L 8 4 L 4 0 L 0 4 L stroke}
>> matrix makepattern
/Pat2 exch def
<< Tile8x8
 /PaintProc {0.5 setlinewidth pop 0 0 M 0 8 L
	8 8 L 8 0 L 0 0 L fill}
>> matrix makepattern
/Pat3 exch def
<< Tile8x8
 /PaintProc {0.5 setlinewidth pop -4 8 M 8 -4 L
	0 12 M 12 0 L stroke}
>> matrix makepattern
/Pat4 exch def
<< Tile8x8
 /PaintProc {0.5 setlinewidth pop -4 0 M 8 12 L
	0 -4 M 12 8 L stroke}
>> matrix makepattern
/Pat5 exch def
<< Tile8x8
 /PaintProc {0.5 setlinewidth pop -2 8 M 4 -4 L
	0 12 M 8 -4 L 4 12 M 10 0 L stroke}
>> matrix makepattern
/Pat6 exch def
<< Tile8x8
 /PaintProc {0.5 setlinewidth pop -2 0 M 4 12 L
	0 -4 M 8 12 L 4 -4 M 10 8 L stroke}
>> matrix makepattern
/Pat7 exch def
<< Tile8x8
 /PaintProc {0.5 setlinewidth pop 8 -2 M -4 4 L
	12 0 M -4 8 L 12 4 M 0 10 L stroke}
>> matrix makepattern
/Pat8 exch def
<< Tile8x8
 /PaintProc {0.5 setlinewidth pop 0 -2 M 12 4 L
	-4 0 M 12 8 L -4 4 M 8 10 L stroke}
>> matrix makepattern
/Pat9 exch def
/Pattern1 {PatternBgnd KeepColor Pat1 setpattern} bind def
/Pattern2 {PatternBgnd KeepColor Pat2 setpattern} bind def
/Pattern3 {PatternBgnd KeepColor Pat3 setpattern} bind def
/Pattern4 {PatternBgnd KeepColor Landscape {Pat5} {Pat4} ifelse setpattern} bind def
/Pattern5 {PatternBgnd KeepColor Landscape {Pat4} {Pat5} ifelse setpattern} bind def
/Pattern6 {PatternBgnd KeepColor Landscape {Pat9} {Pat6} ifelse setpattern} bind def
/Pattern7 {PatternBgnd KeepColor Landscape {Pat8} {Pat7} ifelse setpattern} bind def
} def
%
%
%End of PostScript Level 2 code
%
/PatternBgnd {
  TransparentPatterns {} {gsave 1 setgray fill grestore} ifelse
} def
%
% Substitute for Level 2 pattern fill codes with
% grayscale if Level 2 support is not selected.
%
/Level1PatternFill {
/Pattern1 {0.250 Density} bind def
/Pattern2 {0.500 Density} bind def
/Pattern3 {0.750 Density} bind def
/Pattern4 {0.125 Density} bind def
/Pattern5 {0.375 Density} bind def
/Pattern6 {0.625 Density} bind def
/Pattern7 {0.875 Density} bind def
} def
%
% Now test for support of Level 2 code
%
Level1 {Level1PatternFill} {Level2PatternFill} ifelse
%
/Symbol-Oblique /Symbol findfont [1 0 .167 1 0 0] makefont
dup length dict begin {1 index /FID eq {pop pop} {def} ifelse} forall
currentdict end definefont pop
/MFshow {
   { dup 5 get 3 ge
     { 5 get 3 eq {gsave} {grestore} ifelse }
     {dup dup 0 get findfont exch 1 get scalefont setfont
     [ currentpoint ] exch dup 2 get 0 exch R dup 5 get 2 ne {dup dup 6
     get exch 4 get {Gshow} {stringwidth pop 0 R} ifelse }if dup 5 get 0 eq
     {dup 3 get {2 get neg 0 exch R pop} {pop aload pop M} ifelse} {dup 5
     get 1 eq {dup 2 get exch dup 3 get exch 6 get stringwidth pop -2 div
     dup 0 R} {dup 6 get stringwidth pop -2 div 0 R 6 get
     show 2 index {aload pop M neg 3 -1 roll neg R pop pop} {pop pop pop
     pop aload pop M} ifelse }ifelse }ifelse }
     ifelse }
   forall} def
/Gswidth {dup type /stringtype eq {stringwidth} {pop (n) stringwidth} ifelse} def
/MFwidth {0 exch { dup 5 get 3 ge { 5 get 3 eq { 0 } { pop } ifelse }
 {dup 3 get{dup dup 0 get findfont exch 1 get scalefont setfont
     6 get Gswidth pop add} {pop} ifelse} ifelse} forall} def
/MLshow { currentpoint stroke M
  0 exch R
  Blacktext {gsave 0 setgray MFshow grestore} {MFshow} ifelse } bind def
/MRshow { currentpoint stroke M
  exch dup MFwidth neg 3 -1 roll R
  Blacktext {gsave 0 setgray MFshow grestore} {MFshow} ifelse } bind def
/MCshow { currentpoint stroke M
  exch dup MFwidth -2 div 3 -1 roll R
  Blacktext {gsave 0 setgray MFshow grestore} {MFshow} ifelse } bind def
/XYsave    { [( ) 1 2 true false 3 ()] } bind def
/XYrestore { [( ) 1 2 true false 4 ()] } bind def
Level1 SuppressPDFMark or 
{} {
/SDict 10 dict def
systemdict /pdfmark known not {
  userdict /pdfmark systemdict /cleartomark get put
} if
SDict begin [
  /Title (aggregator.log.2013-11-01.rate.eps)
  /Subject (gnuplot plot)
  /Creator (gnuplot 4.6 patchlevel 4)
  /Author (romoore)
%  /Producer (gnuplot)
%  /Keywords ()
  /CreationDate (Wed Sep  3 15:30:13 2014)
  /DOCINFO pdfmark
end
} ifelse
end
%%EndProlog
%%Page: 1 1
gnudict begin
gsave
doclip
50 50 translate
0.100 0.100 scale
90 rotate
0 -5040 translate
0 setgray
newpath
(Helvetica) findfont 140 scalefont setfont
BackgroundColor 0 lt 3 1 roll 0 lt exch 0 lt or or not {gsave BackgroundColor C clippath fill grestore} if
1.500 UL
LTb
0.42 0.42 0.42 C 1.000 UL
LTa
0.84 0.88 0.79 C 854 728 M
6093 0 V
stroke
1.500 UL
LTb
0.42 0.42 0.42 C 854 728 M
63 0 V
6030 0 R
-63 0 V
stroke
0.42 0.42 0.42 C 770 728 M
[ [(SVBasic Manual) 120.0 0.0 true true 0 ( 10000)]
] -40.0 MRshow
1.500 UL
LTb
0.42 0.42 0.42 C 1.000 UL
LTa
0.84 0.88 0.79 C 854 1284 M
6093 0 V
stroke
1.500 UL
LTb
0.42 0.42 0.42 C 854 1284 M
63 0 V
6030 0 R
-63 0 V
stroke
0.42 0.42 0.42 C 770 1284 M
[ [(SVBasic Manual) 120.0 0.0 true true 0 ( 10200)]
] -40.0 MRshow
1.500 UL
LTb
0.42 0.42 0.42 C 1.000 UL
LTa
0.84 0.88 0.79 C 854 1840 M
6093 0 V
stroke
1.500 UL
LTb
0.42 0.42 0.42 C 854 1840 M
63 0 V
6030 0 R
-63 0 V
stroke
0.42 0.42 0.42 C 770 1840 M
[ [(SVBasic Manual) 120.0 0.0 true true 0 ( 10400)]
] -40.0 MRshow
1.500 UL
LTb
0.42 0.42 0.42 C 1.000 UL
LTa
0.84 0.88 0.79 C 854 2396 M
6093 0 V
stroke
1.500 UL
LTb
0.42 0.42 0.42 C 854 2396 M
63 0 V
6030 0 R
-63 0 V
stroke
0.42 0.42 0.42 C 770 2396 M
[ [(SVBasic Manual) 120.0 0.0 true true 0 ( 10600)]
] -40.0 MRshow
1.500 UL
LTb
0.42 0.42 0.42 C 1.000 UL
LTa
0.84 0.88 0.79 C 854 2951 M
6093 0 V
stroke
1.500 UL
LTb
0.42 0.42 0.42 C 854 2951 M
63 0 V
6030 0 R
-63 0 V
stroke
0.42 0.42 0.42 C 770 2951 M
[ [(SVBasic Manual) 120.0 0.0 true true 0 ( 10800)]
] -40.0 MRshow
1.500 UL
LTb
0.42 0.42 0.42 C 1.000 UL
LTa
0.84 0.88 0.79 C 854 3507 M
6093 0 V
stroke
1.500 UL
LTb
0.42 0.42 0.42 C 854 3507 M
63 0 V
6030 0 R
-63 0 V
stroke
0.42 0.42 0.42 C 770 3507 M
[ [(SVBasic Manual) 120.0 0.0 true true 0 ( 11000)]
] -40.0 MRshow
1.500 UL
LTb
0.42 0.42 0.42 C 1.000 UL
LTa
0.84 0.88 0.79 C 854 4063 M
6093 0 V
stroke
1.500 UL
LTb
0.42 0.42 0.42 C 854 4063 M
63 0 V
6030 0 R
-63 0 V
stroke
0.42 0.42 0.42 C 770 4063 M
[ [(SVBasic Manual) 120.0 0.0 true true 0 ( 11200)]
] -40.0 MRshow
1.500 UL
LTb
0.42 0.42 0.42 C 1.000 UL
LTa
0.84 0.88 0.79 C 854 4619 M
6093 0 V
stroke
1.500 UL
LTb
0.42 0.42 0.42 C 854 4619 M
63 0 V
6030 0 R
-63 0 V
stroke
0.42 0.42 0.42 C 770 4619 M
[ [(SVBasic Manual) 120.0 0.0 true true 0 ( 11400)]
] -40.0 MRshow
1.500 UL
LTb
0.42 0.42 0.42 C 1.000 UL
LTa
0.84 0.88 0.79 C 854 728 M
0 3891 V
stroke
1.500 UL
LTb
0.42 0.42 0.42 C 854 728 M
0 63 V
0 3828 R
0 -63 V
stroke
0.42 0.42 0.42 C 854 644 M
currentpoint gsave translate -270 rotate 0 0 moveto
[ [(SVBasic Manual) 120.0 0.0 true true 0 ( 0)]
] -40.0 MRshow
grestore
1.500 UL
LTb
0.42 0.42 0.42 C 1.000 UL
LTa
0.84 0.88 0.79 C 1531 728 M
0 3891 V
stroke
1.500 UL
LTb
0.42 0.42 0.42 C 1531 728 M
0 63 V
0 3828 R
0 -63 V
stroke
0.42 0.42 0.42 C 1531 644 M
currentpoint gsave translate -270 rotate 0 0 moveto
[ [(SVBasic Manual) 120.0 0.0 true true 0 ( 1000)]
] -40.0 MRshow
grestore
1.500 UL
LTb
0.42 0.42 0.42 C 1.000 UL
LTa
0.84 0.88 0.79 C 2208 728 M
0 3891 V
stroke
1.500 UL
LTb
0.42 0.42 0.42 C 2208 728 M
0 63 V
0 3828 R
0 -63 V
stroke
0.42 0.42 0.42 C 2208 644 M
currentpoint gsave translate -270 rotate 0 0 moveto
[ [(SVBasic Manual) 120.0 0.0 true true 0 ( 2000)]
] -40.0 MRshow
grestore
1.500 UL
LTb
0.42 0.42 0.42 C 1.000 UL
LTa
0.84 0.88 0.79 C 2885 728 M
0 3891 V
stroke
1.500 UL
LTb
0.42 0.42 0.42 C 2885 728 M
0 63 V
0 3828 R
0 -63 V
stroke
0.42 0.42 0.42 C 2885 644 M
currentpoint gsave translate -270 rotate 0 0 moveto
[ [(SVBasic Manual) 120.0 0.0 true true 0 ( 3000)]
] -40.0 MRshow
grestore
1.500 UL
LTb
0.42 0.42 0.42 C 1.000 UL
LTa
0.84 0.88 0.79 C 3562 728 M
0 3891 V
stroke
1.500 UL
LTb
0.42 0.42 0.42 C 3562 728 M
0 63 V
0 3828 R
0 -63 V
stroke
0.42 0.42 0.42 C 3562 644 M
currentpoint gsave translate -270 rotate 0 0 moveto
[ [(SVBasic Manual) 120.0 0.0 true true 0 ( 4000)]
] -40.0 MRshow
grestore
1.500 UL
LTb
0.42 0.42 0.42 C 1.000 UL
LTa
0.84 0.88 0.79 C 4239 728 M
0 3891 V
stroke
1.500 UL
LTb
0.42 0.42 0.42 C 4239 728 M
0 63 V
0 3828 R
0 -63 V
stroke
0.42 0.42 0.42 C 4239 644 M
currentpoint gsave translate -270 rotate 0 0 moveto
[ [(SVBasic Manual) 120.0 0.0 true true 0 ( 5000)]
] -40.0 MRshow
grestore
1.500 UL
LTb
0.42 0.42 0.42 C 1.000 UL
LTa
0.84 0.88 0.79 C 4916 728 M
0 63 V
0 437 R
0 3391 V
stroke
1.500 UL
LTb
0.42 0.42 0.42 C 4916 728 M
0 63 V
0 3828 R
0 -63 V
stroke
0.42 0.42 0.42 C 4916 644 M
currentpoint gsave translate -270 rotate 0 0 moveto
[ [(SVBasic Manual) 120.0 0.0 true true 0 ( 6000)]
] -40.0 MRshow
grestore
1.500 UL
LTb
0.42 0.42 0.42 C 1.000 UL
LTa
0.84 0.88 0.79 C 5593 728 M
0 63 V
0 437 R
0 3391 V
stroke
1.500 UL
LTb
0.42 0.42 0.42 C 5593 728 M
0 63 V
0 3828 R
0 -63 V
stroke
0.42 0.42 0.42 C 5593 644 M
currentpoint gsave translate -270 rotate 0 0 moveto
[ [(SVBasic Manual) 120.0 0.0 true true 0 ( 7000)]
] -40.0 MRshow
grestore
1.500 UL
LTb
0.42 0.42 0.42 C 1.000 UL
LTa
0.84 0.88 0.79 C 6270 728 M
0 63 V
0 437 R
0 3391 V
stroke
1.500 UL
LTb
0.42 0.42 0.42 C 6270 728 M
0 63 V
0 3828 R
0 -63 V
stroke
0.42 0.42 0.42 C 6270 644 M
currentpoint gsave translate -270 rotate 0 0 moveto
[ [(SVBasic Manual) 120.0 0.0 true true 0 ( 8000)]
] -40.0 MRshow
grestore
1.500 UL
LTb
0.42 0.42 0.42 C 1.000 UL
LTa
0.84 0.88 0.79 C 6947 728 M
0 3891 V
stroke
1.500 UL
LTb
0.42 0.42 0.42 C 6947 728 M
0 63 V
0 3828 R
0 -63 V
stroke
0.42 0.42 0.42 C 6947 644 M
currentpoint gsave translate -270 rotate 0 0 moveto
[ [(SVBasic Manual) 120.0 0.0 true true 0 ( 9000)]
] -40.0 MRshow
grestore
1.500 UL
LTb
0.42 0.42 0.42 C 1.500 UL
LTb
0.42 0.42 0.42 C 854 4619 N
854 728 L
6093 0 V
0 3891 V
-6093 0 V
Z stroke
0.42 0.42 0.42 C 112 2673 M
currentpoint gsave translate -270 rotate 0 0 moveto
[ [(SVBasic Manual) 120.0 0.0 true true 0 (Samples/sec)]
] -40.0 MCshow
grestore
LTb
0.42 0.42 0.42 C 3900 98 M
[ [(SVBasic Manual) 120.0 0.0 true true 0 (Time \(seconds\))]
] -40.0 MCshow
LTb
0.42 0.42 0.42 C 3900 4829 M
[ [(SVBasic Manual) 150.0 0.0 true true 0 (Aggregator Performance: Recording Solver Then No Solver)]
] -50.0 MCshow
LTb
1.000 UP
0.42 0.42 0.42 C LTb
4510 4341 M
[ [(Anonymous Pro) 140.0 0.0 true true 0 (Solver disconnected)]
] -46.7 MLshow
1.000 UL
LTb
1.00 0.00 0.00 C 4256 4166 M
-71 -103 V
113 54 V
212 224 R
4185 4063 L
stroke
gsave [] 0 setdash
4256 4166 M
-71 -103 V
113 54 V
stroke
grestore
1.500 UL
LTb
0.42 0.42 0.42 C 1.000 UL
LTb
4616 791 N
0 437 V
2247 0 V
0 -437 V
-2247 0 V
Z stroke
% Begin plot #1
2.000 UL
LT0
0.45 0.59 0.90 C LCb setrgbcolor
6296 1010 M
[ [(SVBasic Manual) 120.0 0.0 true true 0 (10-second Sampling)]
] -40.0 MRshow
LT0
0.45 0.59 0.90 C 6380 1010 M
399 0 V
854 879 M
7 2617 V
7 273 V
6 133 V
7 -192 V
7 -43 V
7 -13 V
6 51 V
7 -7 V
7 295 V
7 -336 V
6 26 V
7 144 V
7 -308 V
7 405 V
7 -465 V
6 679 V
7 -545 V
7 262 V
7 -370 V
6 192 V
7 -312 V
7 -1973 V
7 1829 V
6 695 V
7 -283 V
7 584 V
7 -515 V
7 -236 V
6 418 V
7 -358 V
7 31 V
7 307 V
6 272 V
7 -1812 V
7 337 V
7 1189 V
6 10 V
7 -360 V
7 179 V
7 325 V
7 -240 V
6 -106 V
7 7 V
7 -41 V
7 92 V
6 -36 V
7 46 V
7 -139 V
7 -71 V
7 364 V
6 12 V
7 -113 V
7 4 V
7 -81 V
6 178 V
7 -56 V
7 -168 V
7 103 V
6 56 V
7 -61 V
7 -387 V
7 348 V
7 -133 V
6 -31 V
7 434 V
7 -281 V
7 268 V
6 -7 V
7 -395 V
7 416 V
7 -394 V
6 163 V
7 -151 V
7 151 V
7 -103 V
7 61 V
6 372 V
7 -357 V
7 -109 V
7 263 V
6 -251 V
7 644 V
7 -802 V
7 52 V
6 220 V
7 -80 V
7 130 V
7 -211 V
7 244 V
6 -13 V
7 16 V
7 -154 V
7 587 V
6 -576 V
7 -90 V
7 -181 V
7 607 V
6 -382 V
7 -405 V
7 394 V
7 302 V
7 30 V
stroke 1545 3963 M
6 -124 V
7 -344 V
7 157 V
7 368 V
6 -350 V
7 304 V
7 -64 V
7 -206 V
6 7 V
7 -24 V
7 140 V
7 -301 V
7 3 V
6 293 V
7 -250 V
7 -142 V
7 362 V
6 -28 V
7 -61 V
7 -210 V
7 646 V
6 -594 V
7 705 V
7 -674 V
7 -195 V
7 436 V
6 -111 V
7 -58 V
7 316 V
7 -41 V
6 -209 V
7 230 V
7 -10 V
7 140 V
6 -610 V
7 141 V
7 82 V
7 -19 V
7 -316 V
6 7 V
7 263 V
7 278 V
7 -176 V
6 519 V
7 -655 V
7 255 V
7 -197 V
7 -128 V
6 5 V
7 207 V
7 -42 V
7 -220 V
6 257 V
7 -491 V
7 391 V
7 -109 V
6 -61 V
7 551 V
7 -342 V
7 -16 V
7 -33 V
6 43 V
7 209 V
7 9 V
7 -324 V
6 -63 V
7 560 V
7 -352 V
7 -130 V
6 165 V
7 -448 V
7 858 V
7 -82 V
7 -205 V
6 53 V
7 -66 V
7 -578 V
7 612 V
6 -192 V
7 208 V
7 -347 V
7 157 V
6 33 V
7 -116 V
7 250 V
7 -308 V
7 -38 V
6 211 V
7 -310 V
7 363 V
7 42 V
6 -116 V
7 46 V
7 -305 V
7 574 V
6 -795 V
7 474 V
7 -156 V
7 -31 V
7 438 V
6 -299 V
7 78 V
7 -91 V
7 241 V
stroke 2249 3887 M
6 -48 V
7 -165 V
7 -224 V
7 61 V
6 107 V
7 -88 V
7 -1472 V
7 707 V
7 1140 V
6 -220 V
7 220 V
7 -228 V
7 35 V
6 -197 V
7 -31 V
7 71 V
7 224 V
6 -303 V
7 289 V
7 133 V
7 -90 V
7 -213 V
6 2 V
7 475 V
7 -432 V
7 -127 V
6 310 V
7 -224 V
7 230 V
7 29 V
6 110 V
7 -59 V
7 -689 V
7 460 V
7 83 V
6 -82 V
7 51 V
7 206 V
7 -525 V
6 97 V
7 -23 V
7 62 V
7 54 V
7 -187 V
6 536 V
7 -172 V
7 144 V
7 -330 V
6 351 V
7 -600 V
7 651 V
7 -333 V
6 -106 V
7 85 V
7 -22 V
7 -129 V
7 25 V
6 361 V
7 -81 V
7 -22 V
7 5 V
6 -17 V
7 -94 V
7 368 V
7 -587 V
6 515 V
7 -449 V
7 183 V
7 212 V
7 49 V
6 -302 V
7 38 V
7 -767 V
7 -952 V
6 1365 V
7 396 V
7 -147 V
7 -1230 V
6 306 V
7 1020 V
7 194 V
7 -335 V
7 48 V
6 -282 V
7 495 V
7 110 V
7 -88 V
6 -183 V
7 58 V
7 3 V
7 160 V
6 -1013 V
7 -1060 V
7 2259 V
7 -44 V
7 -50 V
6 154 V
7 -346 V
7 -62 V
7 -105 V
6 166 V
7 -145 V
7 75 V
7 -8 V
stroke 2953 3687 M
6 -110 V
7 292 V
7 -148 V
7 207 V
7 -245 V
6 125 V
7 89 V
7 -2135 V
7 1582 V
6 473 V
7 -145 V
7 258 V
7 -213 V
6 -166 V
7 64 V
7 107 V
7 15 V
7 -186 V
6 475 V
7 -329 V
7 184 V
7 -440 V
6 409 V
7 28 V
7 117 V
7 -167 V
6 -418 V
7 510 V
7 -193 V
7 149 V
7 -200 V
6 95 V
7 -147 V
7 553 V
7 -447 V
6 -258 V
7 62 V
7 173 V
7 204 V
7 -297 V
6 3 V
7 -220 V
7 354 V
7 -226 V
6 401 V
7 -73 V
7 -553 V
7 531 V
6 -9 V
7 -285 V
7 219 V
7 -134 V
7 -394 V
6 610 V
7 -133 V
7 129 V
7 179 V
6 -179 V
7 15 V
7 -327 V
7 -26 V
6 191 V
7 -143 V
7 458 V
7 -124 V
7 -51 V
6 169 V
7 -266 V
7 117 V
7 -449 V
6 383 V
7 -73 V
7 70 V
7 -340 V
6 524 V
7 -192 V
7 93 V
7 -499 V
7 294 V
6 201 V
7 -135 V
7 28 V
7 -293 V
6 131 V
7 53 V
7 73 V
7 -422 V
6 568 V
7 97 V
7 -58 V
7 -91 V
7 14 V
6 -483 V
7 423 V
7 47 V
7 -184 V
6 -74 V
7 206 V
7 -205 V
7 -97 V
6 276 V
7 -33 V
7 -299 V
7 408 V
stroke 3657 3809 M
7 -97 V
6 142 V
7 128 V
7 109 V
7 -264 V
6 -174 V
7 -221 V
7 333 V
7 -103 V
6 -192 V
7 640 V
7 -361 V
7 228 V
7 -295 V
6 213 V
7 -217 V
7 357 V
7 -62 V
6 -203 V
7 -136 V
7 12 V
7 81 V
6 -98 V
7 189 V
7 41 V
7 -430 V
7 141 V
6 23 V
7 278 V
7 -48 V
7 -8 V
6 -58 V
7 147 V
7 256 V
7 -575 V
7 -244 V
6 120 V
7 495 V
7 -312 V
7 148 V
6 -453 V
7 782 V
7 -314 V
7 -171 V
6 166 V
7 34 V
7 211 V
7 -155 V
7 -306 V
6 -78 V
7 92 V
7 -111 V
7 646 V
6 -293 V
7 -260 V
7 89 V
7 182 V
6 -213 V
7 142 V
7 -28 V
7 -217 V
7 164 V
6 24 V
7 -30 V
7 -174 V
7 274 V
6 42 V
7 320 V
7 -544 V
7 -1903 V
6 1111 V
7 756 V
7 50 V
7 296 V
7 122 V
6 -154 V
7 -456 V
7 250 V
7 38 V
6 27 V
7 55 V
7 -6 V
7 -439 V
6 589 V
7 -193 V
7 -411 V
7 -51 V
7 730 V
6 -264 V
7 -184 V
7 116 V
7 -369 V
6 640 V
7 -580 V
7 295 V
7 -244 V
6 613 V
7 -571 V
7 286 V
7 137 V
7 -194 V
6 -62 V
7 -1 V
7 -532 V
stroke 4361 3110 M
7 -1132 V
6 1963 V
7 -365 V
7 438 V
7 -442 V
6 215 V
7 -149 V
7 -354 V
7 444 V
7 -125 V
6 425 V
7 -849 V
7 447 V
7 86 V
6 209 V
7 -280 V
7 -9 V
7 490 V
6 -521 V
7 -59 V
7 93 V
7 463 V
7 -491 V
6 91 V
7 236 V
7 -531 V
7 285 V
6 -193 V
7 95 V
7 13 V
7 197 V
7 -353 V
6 499 V
7 -485 V
7 244 V
7 -297 V
6 128 V
7 353 V
7 90 V
7 -64 V
6 -71 V
7 159 V
7 -641 V
7 315 V
7 -283 V
6 143 V
7 452 V
7 -593 V
7 538 V
6 -298 V
7 -80 V
7 -74 V
7 241 V
6 51 V
7 96 V
7 -156 V
7 -106 V
7 391 V
6 -71 V
7 -163 V
7 93 V
7 31 V
6 -298 V
7 -467 V
7 529 V
7 304 V
6 6 V
7 -437 V
7 197 V
7 180 V
7 -71 V
6 -143 V
7 -12 V
7 77 V
7 54 V
6 -128 V
7 75 V
7 141 V
7 -167 V
6 176 V
7 -538 V
7 323 V
7 -235 V
7 581 V
6 -528 V
7 -67 V
7 217 V
7 -2 V
6 -130 V
7 -44 V
7 256 V
7 205 V
6 -116 V
7 186 V
7 -182 V
7 -219 V
7 -125 V
6 496 V
7 -31 V
7 -468 V
7 252 V
6 -177 V
7 149 V
7 102 V
stroke 5065 3810 M
7 -93 V
6 165 V
7 -89 V
7 -309 V
7 -167 V
7 761 V
6 -165 V
7 -181 V
7 64 V
7 -40 V
6 237 V
7 -205 V
7 290 V
7 -677 V
6 420 V
7 -205 V
7 -159 V
7 206 V
7 -435 V
6 563 V
7 -116 V
7 313 V
7 -253 V
6 108 V
7 -38 V
7 -208 V
7 71 V
7 275 V
6 -79 V
7 -571 V
7 432 V
7 147 V
6 -243 V
7 -60 V
7 254 V
7 33 V
6 -201 V
7 -32 V
7 -857 V
7 -245 V
7 1196 V
6 -341 V
7 68 V
7 168 V
7 360 V
6 -423 V
7 66 V
7 -182 V
7 315 V
6 186 V
7 -265 V
7 -1030 V
7 1174 V
7 -17 V
6 118 V
7 -349 V
7 -67 V
7 -13 V
6 -34 V
7 507 V
7 -368 V
7 -97 V
6 326 V
7 -32 V
7 -370 V
7 151 V
7 -1214 V
6 1184 V
7 336 V
7 0 V
7 -236 V
6 328 V
7 -119 V
7 -689 V
7 568 V
6 -231 V
7 317 V
7 -194 V
7 388 V
7 31 V
6 -508 V
7 266 V
7 203 V
7 -250 V
6 -139 V
7 21 V
7 252 V
7 -108 V
6 64 V
7 -36 V
7 -149 V
7 51 V
7 184 V
6 -118 V
7 337 V
7 -1014 V
7 455 V
6 509 V
7 -419 V
7 -68 V
7 -39 V
6 67 V
7 274 V
7 -17 V
stroke 5769 3855 M
7 -216 V
7 205 V
6 -839 V
7 495 V
7 -94 V
7 264 V
6 -191 V
7 434 V
7 -507 V
7 361 V
6 475 V
7 -730 V
7 183 V
7 121 V
7 24 V
6 -217 V
7 -118 V
7 -1710 V
7 1876 V
6 -1039 V
7 -355 V
7 1587 V
7 -17 V
7 -394 V
6 13 V
7 330 V
7 -488 V
7 25 V
6 227 V
7 213 V
7 75 V
7 59 V
6 -357 V
7 697 V
7 -751 V
7 328 V
7 -348 V
6 421 V
7 -27 V
7 216 V
7 -115 V
6 -201 V
7 30 V
7 41 V
7 -280 V
6 -212 V
7 500 V
7 -142 V
7 -100 V
7 150 V
6 -315 V
7 281 V
7 -87 V
7 185 V
6 155 V
7 -101 V
7 -220 V
7 43 V
6 -206 V
7 142 V
7 23 V
7 54 V
7 -1088 V
6 -284 V
7 1757 V
7 -520 V
7 329 V
6 -438 V
7 238 V
7 -32 V
7 -155 V
6 436 V
7 198 V
7 -685 V
7 -43 V
7 144 V
6 275 V
7 -257 V
7 -144 V
7 193 V
6 51 V
7 -10 V
7 11 V
7 210 V
6 105 V
7 -595 V
7 438 V
7 -66 V
7 83 V
6 -33 V
7 -518 V
7 447 V
7 121 V
6 -50 V
7 -246 V
% End plot #1
stroke
1.500 UL
LTb
0.42 0.42 0.42 C 854 4619 N
854 728 L
6093 0 V
0 3891 V
-6093 0 V
Z stroke
1.000 UP
1.500 UL
LTb
0.42 0.42 0.42 C stroke
grestore
end
showpage
%%Trailer
%%DocumentFonts: Helvetica
%%Pages: 1
