%!PS-Adobe-2.0
%%Title: mysql.wm.regex1.eps
%%Creator: gnuplot 4.6 patchlevel 4
%%CreationDate: Thu Aug 28 15:11:51 2014
%%DocumentFonts: (atend)
%%BoundingBox: 50 50 410 806
%%Orientation: Landscape
%%Pages: (atend)
%%EndComments
%%BeginProlog
/gnudict 256 dict def
gnudict begin
%
% The following true/false flags may be edited by hand if desired.
% The unit line width and grayscale image gamma correction may also be changed.
%
/Color true def
/Blacktext false def
/Solid false def
/Dashlength 1 def
/Landscape true def
/Level1 false def
/Rounded false def
/ClipToBoundingBox false def
/SuppressPDFMark false def
/TransparentPatterns false def
/gnulinewidth 5.000 def
/userlinewidth gnulinewidth def
/Gamma 1.0 def
/BackgroundColor {-1.000 -1.000 -1.000} def
%
/vshift -46 def
/dl1 {
  10.0 Dashlength mul mul
  Rounded { currentlinewidth 0.75 mul sub dup 0 le { pop 0.01 } if } if
} def
/dl2 {
  10.0 Dashlength mul mul
  Rounded { currentlinewidth 0.75 mul add } if
} def
/hpt_ 31.5 def
/vpt_ 31.5 def
/hpt hpt_ def
/vpt vpt_ def
/doclip {
  ClipToBoundingBox {
    newpath 50 50 moveto 410 50 lineto 410 806 lineto 50 806 lineto closepath
    clip
  } if
} def
%
% Gnuplot Prolog Version 4.6 (September 2012)
%
%/SuppressPDFMark true def
%
/M {moveto} bind def
/L {lineto} bind def
/R {rmoveto} bind def
/V {rlineto} bind def
/N {newpath moveto} bind def
/Z {closepath} bind def
/C {setrgbcolor} bind def
/f {rlineto fill} bind def
/g {setgray} bind def
/Gshow {show} def   % May be redefined later in the file to support UTF-8
/vpt2 vpt 2 mul def
/hpt2 hpt 2 mul def
/Lshow {currentpoint stroke M 0 vshift R 
	Blacktext {gsave 0 setgray show grestore} {show} ifelse} def
/Rshow {currentpoint stroke M dup stringwidth pop neg vshift R
	Blacktext {gsave 0 setgray show grestore} {show} ifelse} def
/Cshow {currentpoint stroke M dup stringwidth pop -2 div vshift R 
	Blacktext {gsave 0 setgray show grestore} {show} ifelse} def
/UP {dup vpt_ mul /vpt exch def hpt_ mul /hpt exch def
  /hpt2 hpt 2 mul def /vpt2 vpt 2 mul def} def
/DL {Color {setrgbcolor Solid {pop []} if 0 setdash}
 {pop pop pop 0 setgray Solid {pop []} if 0 setdash} ifelse} def
/BL {stroke userlinewidth 2 mul setlinewidth
	Rounded {1 setlinejoin 1 setlinecap} if} def
/AL {stroke userlinewidth 2 div setlinewidth
	Rounded {1 setlinejoin 1 setlinecap} if} def
/UL {dup gnulinewidth mul /userlinewidth exch def
	dup 1 lt {pop 1} if 10 mul /udl exch def} def
/PL {stroke userlinewidth setlinewidth
	Rounded {1 setlinejoin 1 setlinecap} if} def
3.8 setmiterlimit
% Default Line colors
/LCw {1 1 1} def
/LCb {0 0 0} def
/LCa {0 0 0} def
/LC0 {1 0 0} def
/LC1 {0 1 0} def
/LC2 {0 0 1} def
/LC3 {1 0 1} def
/LC4 {0 1 1} def
/LC5 {1 1 0} def
/LC6 {0 0 0} def
/LC7 {1 0.3 0} def
/LC8 {0.5 0.5 0.5} def
% Default Line Types
/LTw {PL [] 1 setgray} def
/LTb {BL [] LCb DL} def
/LTa {AL [1 udl mul 2 udl mul] 0 setdash LCa setrgbcolor} def
/LT0 {PL [] LC0 DL} def
/LT1 {PL [4 dl1 2 dl2] LC1 DL} def
/LT2 {PL [2 dl1 3 dl2] LC2 DL} def
/LT3 {PL [1 dl1 1.5 dl2] LC3 DL} def
/LT4 {PL [6 dl1 2 dl2 1 dl1 2 dl2] LC4 DL} def
/LT5 {PL [3 dl1 3 dl2 1 dl1 3 dl2] LC5 DL} def
/LT6 {PL [2 dl1 2 dl2 2 dl1 6 dl2] LC6 DL} def
/LT7 {PL [1 dl1 2 dl2 6 dl1 2 dl2 1 dl1 2 dl2] LC7 DL} def
/LT8 {PL [2 dl1 2 dl2 2 dl1 2 dl2 2 dl1 2 dl2 2 dl1 4 dl2] LC8 DL} def
/Pnt {stroke [] 0 setdash gsave 1 setlinecap M 0 0 V stroke grestore} def
/Dia {stroke [] 0 setdash 2 copy vpt add M
  hpt neg vpt neg V hpt vpt neg V
  hpt vpt V hpt neg vpt V closepath stroke
  Pnt} def
/Pls {stroke [] 0 setdash vpt sub M 0 vpt2 V
  currentpoint stroke M
  hpt neg vpt neg R hpt2 0 V stroke
 } def
/Box {stroke [] 0 setdash 2 copy exch hpt sub exch vpt add M
  0 vpt2 neg V hpt2 0 V 0 vpt2 V
  hpt2 neg 0 V closepath stroke
  Pnt} def
/Crs {stroke [] 0 setdash exch hpt sub exch vpt add M
  hpt2 vpt2 neg V currentpoint stroke M
  hpt2 neg 0 R hpt2 vpt2 V stroke} def
/TriU {stroke [] 0 setdash 2 copy vpt 1.12 mul add M
  hpt neg vpt -1.62 mul V
  hpt 2 mul 0 V
  hpt neg vpt 1.62 mul V closepath stroke
  Pnt} def
/Star {2 copy Pls Crs} def
/BoxF {stroke [] 0 setdash exch hpt sub exch vpt add M
  0 vpt2 neg V hpt2 0 V 0 vpt2 V
  hpt2 neg 0 V closepath fill} def
/TriUF {stroke [] 0 setdash vpt 1.12 mul add M
  hpt neg vpt -1.62 mul V
  hpt 2 mul 0 V
  hpt neg vpt 1.62 mul V closepath fill} def
/TriD {stroke [] 0 setdash 2 copy vpt 1.12 mul sub M
  hpt neg vpt 1.62 mul V
  hpt 2 mul 0 V
  hpt neg vpt -1.62 mul V closepath stroke
  Pnt} def
/TriDF {stroke [] 0 setdash vpt 1.12 mul sub M
  hpt neg vpt 1.62 mul V
  hpt 2 mul 0 V
  hpt neg vpt -1.62 mul V closepath fill} def
/DiaF {stroke [] 0 setdash vpt add M
  hpt neg vpt neg V hpt vpt neg V
  hpt vpt V hpt neg vpt V closepath fill} def
/Pent {stroke [] 0 setdash 2 copy gsave
  translate 0 hpt M 4 {72 rotate 0 hpt L} repeat
  closepath stroke grestore Pnt} def
/PentF {stroke [] 0 setdash gsave
  translate 0 hpt M 4 {72 rotate 0 hpt L} repeat
  closepath fill grestore} def
/Circle {stroke [] 0 setdash 2 copy
  hpt 0 360 arc stroke Pnt} def
/CircleF {stroke [] 0 setdash hpt 0 360 arc fill} def
/C0 {BL [] 0 setdash 2 copy moveto vpt 90 450 arc} bind def
/C1 {BL [] 0 setdash 2 copy moveto
	2 copy vpt 0 90 arc closepath fill
	vpt 0 360 arc closepath} bind def
/C2 {BL [] 0 setdash 2 copy moveto
	2 copy vpt 90 180 arc closepath fill
	vpt 0 360 arc closepath} bind def
/C3 {BL [] 0 setdash 2 copy moveto
	2 copy vpt 0 180 arc closepath fill
	vpt 0 360 arc closepath} bind def
/C4 {BL [] 0 setdash 2 copy moveto
	2 copy vpt 180 270 arc closepath fill
	vpt 0 360 arc closepath} bind def
/C5 {BL [] 0 setdash 2 copy moveto
	2 copy vpt 0 90 arc
	2 copy moveto
	2 copy vpt 180 270 arc closepath fill
	vpt 0 360 arc} bind def
/C6 {BL [] 0 setdash 2 copy moveto
	2 copy vpt 90 270 arc closepath fill
	vpt 0 360 arc closepath} bind def
/C7 {BL [] 0 setdash 2 copy moveto
	2 copy vpt 0 270 arc closepath fill
	vpt 0 360 arc closepath} bind def
/C8 {BL [] 0 setdash 2 copy moveto
	2 copy vpt 270 360 arc closepath fill
	vpt 0 360 arc closepath} bind def
/C9 {BL [] 0 setdash 2 copy moveto
	2 copy vpt 270 450 arc closepath fill
	vpt 0 360 arc closepath} bind def
/C10 {BL [] 0 setdash 2 copy 2 copy moveto vpt 270 360 arc closepath fill
	2 copy moveto
	2 copy vpt 90 180 arc closepath fill
	vpt 0 360 arc closepath} bind def
/C11 {BL [] 0 setdash 2 copy moveto
	2 copy vpt 0 180 arc closepath fill
	2 copy moveto
	2 copy vpt 270 360 arc closepath fill
	vpt 0 360 arc closepath} bind def
/C12 {BL [] 0 setdash 2 copy moveto
	2 copy vpt 180 360 arc closepath fill
	vpt 0 360 arc closepath} bind def
/C13 {BL [] 0 setdash 2 copy moveto
	2 copy vpt 0 90 arc closepath fill
	2 copy moveto
	2 copy vpt 180 360 arc closepath fill
	vpt 0 360 arc closepath} bind def
/C14 {BL [] 0 setdash 2 copy moveto
	2 copy vpt 90 360 arc closepath fill
	vpt 0 360 arc} bind def
/C15 {BL [] 0 setdash 2 copy vpt 0 360 arc closepath fill
	vpt 0 360 arc closepath} bind def
/Rec {newpath 4 2 roll moveto 1 index 0 rlineto 0 exch rlineto
	neg 0 rlineto closepath} bind def
/Square {dup Rec} bind def
/Bsquare {vpt sub exch vpt sub exch vpt2 Square} bind def
/S0 {BL [] 0 setdash 2 copy moveto 0 vpt rlineto BL Bsquare} bind def
/S1 {BL [] 0 setdash 2 copy vpt Square fill Bsquare} bind def
/S2 {BL [] 0 setdash 2 copy exch vpt sub exch vpt Square fill Bsquare} bind def
/S3 {BL [] 0 setdash 2 copy exch vpt sub exch vpt2 vpt Rec fill Bsquare} bind def
/S4 {BL [] 0 setdash 2 copy exch vpt sub exch vpt sub vpt Square fill Bsquare} bind def
/S5 {BL [] 0 setdash 2 copy 2 copy vpt Square fill
	exch vpt sub exch vpt sub vpt Square fill Bsquare} bind def
/S6 {BL [] 0 setdash 2 copy exch vpt sub exch vpt sub vpt vpt2 Rec fill Bsquare} bind def
/S7 {BL [] 0 setdash 2 copy exch vpt sub exch vpt sub vpt vpt2 Rec fill
	2 copy vpt Square fill Bsquare} bind def
/S8 {BL [] 0 setdash 2 copy vpt sub vpt Square fill Bsquare} bind def
/S9 {BL [] 0 setdash 2 copy vpt sub vpt vpt2 Rec fill Bsquare} bind def
/S10 {BL [] 0 setdash 2 copy vpt sub vpt Square fill 2 copy exch vpt sub exch vpt Square fill
	Bsquare} bind def
/S11 {BL [] 0 setdash 2 copy vpt sub vpt Square fill 2 copy exch vpt sub exch vpt2 vpt Rec fill
	Bsquare} bind def
/S12 {BL [] 0 setdash 2 copy exch vpt sub exch vpt sub vpt2 vpt Rec fill Bsquare} bind def
/S13 {BL [] 0 setdash 2 copy exch vpt sub exch vpt sub vpt2 vpt Rec fill
	2 copy vpt Square fill Bsquare} bind def
/S14 {BL [] 0 setdash 2 copy exch vpt sub exch vpt sub vpt2 vpt Rec fill
	2 copy exch vpt sub exch vpt Square fill Bsquare} bind def
/S15 {BL [] 0 setdash 2 copy Bsquare fill Bsquare} bind def
/D0 {gsave translate 45 rotate 0 0 S0 stroke grestore} bind def
/D1 {gsave translate 45 rotate 0 0 S1 stroke grestore} bind def
/D2 {gsave translate 45 rotate 0 0 S2 stroke grestore} bind def
/D3 {gsave translate 45 rotate 0 0 S3 stroke grestore} bind def
/D4 {gsave translate 45 rotate 0 0 S4 stroke grestore} bind def
/D5 {gsave translate 45 rotate 0 0 S5 stroke grestore} bind def
/D6 {gsave translate 45 rotate 0 0 S6 stroke grestore} bind def
/D7 {gsave translate 45 rotate 0 0 S7 stroke grestore} bind def
/D8 {gsave translate 45 rotate 0 0 S8 stroke grestore} bind def
/D9 {gsave translate 45 rotate 0 0 S9 stroke grestore} bind def
/D10 {gsave translate 45 rotate 0 0 S10 stroke grestore} bind def
/D11 {gsave translate 45 rotate 0 0 S11 stroke grestore} bind def
/D12 {gsave translate 45 rotate 0 0 S12 stroke grestore} bind def
/D13 {gsave translate 45 rotate 0 0 S13 stroke grestore} bind def
/D14 {gsave translate 45 rotate 0 0 S14 stroke grestore} bind def
/D15 {gsave translate 45 rotate 0 0 S15 stroke grestore} bind def
/DiaE {stroke [] 0 setdash vpt add M
  hpt neg vpt neg V hpt vpt neg V
  hpt vpt V hpt neg vpt V closepath stroke} def
/BoxE {stroke [] 0 setdash exch hpt sub exch vpt add M
  0 vpt2 neg V hpt2 0 V 0 vpt2 V
  hpt2 neg 0 V closepath stroke} def
/TriUE {stroke [] 0 setdash vpt 1.12 mul add M
  hpt neg vpt -1.62 mul V
  hpt 2 mul 0 V
  hpt neg vpt 1.62 mul V closepath stroke} def
/TriDE {stroke [] 0 setdash vpt 1.12 mul sub M
  hpt neg vpt 1.62 mul V
  hpt 2 mul 0 V
  hpt neg vpt -1.62 mul V closepath stroke} def
/PentE {stroke [] 0 setdash gsave
  translate 0 hpt M 4 {72 rotate 0 hpt L} repeat
  closepath stroke grestore} def
/CircE {stroke [] 0 setdash 
  hpt 0 360 arc stroke} def
/Opaque {gsave closepath 1 setgray fill grestore 0 setgray closepath} def
/DiaW {stroke [] 0 setdash vpt add M
  hpt neg vpt neg V hpt vpt neg V
  hpt vpt V hpt neg vpt V Opaque stroke} def
/BoxW {stroke [] 0 setdash exch hpt sub exch vpt add M
  0 vpt2 neg V hpt2 0 V 0 vpt2 V
  hpt2 neg 0 V Opaque stroke} def
/TriUW {stroke [] 0 setdash vpt 1.12 mul add M
  hpt neg vpt -1.62 mul V
  hpt 2 mul 0 V
  hpt neg vpt 1.62 mul V Opaque stroke} def
/TriDW {stroke [] 0 setdash vpt 1.12 mul sub M
  hpt neg vpt 1.62 mul V
  hpt 2 mul 0 V
  hpt neg vpt -1.62 mul V Opaque stroke} def
/PentW {stroke [] 0 setdash gsave
  translate 0 hpt M 4 {72 rotate 0 hpt L} repeat
  Opaque stroke grestore} def
/CircW {stroke [] 0 setdash 
  hpt 0 360 arc Opaque stroke} def
/BoxFill {gsave Rec 1 setgray fill grestore} def
/Density {
  /Fillden exch def
  currentrgbcolor
  /ColB exch def /ColG exch def /ColR exch def
  /ColR ColR Fillden mul Fillden sub 1 add def
  /ColG ColG Fillden mul Fillden sub 1 add def
  /ColB ColB Fillden mul Fillden sub 1 add def
  ColR ColG ColB setrgbcolor} def
/BoxColFill {gsave Rec PolyFill} def
/PolyFill {gsave Density fill grestore grestore} def
/h {rlineto rlineto rlineto gsave closepath fill grestore} bind def
%
% PostScript Level 1 Pattern Fill routine for rectangles
% Usage: x y w h s a XX PatternFill
%	x,y = lower left corner of box to be filled
%	w,h = width and height of box
%	  a = angle in degrees between lines and x-axis
%	 XX = 0/1 for no/yes cross-hatch
%
/PatternFill {gsave /PFa [ 9 2 roll ] def
  PFa 0 get PFa 2 get 2 div add PFa 1 get PFa 3 get 2 div add translate
  PFa 2 get -2 div PFa 3 get -2 div PFa 2 get PFa 3 get Rec
  TransparentPatterns {} {gsave 1 setgray fill grestore} ifelse
  clip
  currentlinewidth 0.5 mul setlinewidth
  /PFs PFa 2 get dup mul PFa 3 get dup mul add sqrt def
  0 0 M PFa 5 get rotate PFs -2 div dup translate
  0 1 PFs PFa 4 get div 1 add floor cvi
	{PFa 4 get mul 0 M 0 PFs V} for
  0 PFa 6 get ne {
	0 1 PFs PFa 4 get div 1 add floor cvi
	{PFa 4 get mul 0 2 1 roll M PFs 0 V} for
 } if
  stroke grestore} def
%
/languagelevel where
 {pop languagelevel} {1} ifelse
 2 lt
	{/InterpretLevel1 true def}
	{/InterpretLevel1 Level1 def}
 ifelse
%
% PostScript level 2 pattern fill definitions
%
/Level2PatternFill {
/Tile8x8 {/PaintType 2 /PatternType 1 /TilingType 1 /BBox [0 0 8 8] /XStep 8 /YStep 8}
	bind def
/KeepColor {currentrgbcolor [/Pattern /DeviceRGB] setcolorspace} bind def
<< Tile8x8
 /PaintProc {0.5 setlinewidth pop 0 0 M 8 8 L 0 8 M 8 0 L stroke} 
>> matrix makepattern
/Pat1 exch def
<< Tile8x8
 /PaintProc {0.5 setlinewidth pop 0 0 M 8 8 L 0 8 M 8 0 L stroke
	0 4 M 4 8 L 8 4 L 4 0 L 0 4 L stroke}
>> matrix makepattern
/Pat2 exch def
<< Tile8x8
 /PaintProc {0.5 setlinewidth pop 0 0 M 0 8 L
	8 8 L 8 0 L 0 0 L fill}
>> matrix makepattern
/Pat3 exch def
<< Tile8x8
 /PaintProc {0.5 setlinewidth pop -4 8 M 8 -4 L
	0 12 M 12 0 L stroke}
>> matrix makepattern
/Pat4 exch def
<< Tile8x8
 /PaintProc {0.5 setlinewidth pop -4 0 M 8 12 L
	0 -4 M 12 8 L stroke}
>> matrix makepattern
/Pat5 exch def
<< Tile8x8
 /PaintProc {0.5 setlinewidth pop -2 8 M 4 -4 L
	0 12 M 8 -4 L 4 12 M 10 0 L stroke}
>> matrix makepattern
/Pat6 exch def
<< Tile8x8
 /PaintProc {0.5 setlinewidth pop -2 0 M 4 12 L
	0 -4 M 8 12 L 4 -4 M 10 8 L stroke}
>> matrix makepattern
/Pat7 exch def
<< Tile8x8
 /PaintProc {0.5 setlinewidth pop 8 -2 M -4 4 L
	12 0 M -4 8 L 12 4 M 0 10 L stroke}
>> matrix makepattern
/Pat8 exch def
<< Tile8x8
 /PaintProc {0.5 setlinewidth pop 0 -2 M 12 4 L
	-4 0 M 12 8 L -4 4 M 8 10 L stroke}
>> matrix makepattern
/Pat9 exch def
/Pattern1 {PatternBgnd KeepColor Pat1 setpattern} bind def
/Pattern2 {PatternBgnd KeepColor Pat2 setpattern} bind def
/Pattern3 {PatternBgnd KeepColor Pat3 setpattern} bind def
/Pattern4 {PatternBgnd KeepColor Landscape {Pat5} {Pat4} ifelse setpattern} bind def
/Pattern5 {PatternBgnd KeepColor Landscape {Pat4} {Pat5} ifelse setpattern} bind def
/Pattern6 {PatternBgnd KeepColor Landscape {Pat9} {Pat6} ifelse setpattern} bind def
/Pattern7 {PatternBgnd KeepColor Landscape {Pat8} {Pat7} ifelse setpattern} bind def
} def
%
%
%End of PostScript Level 2 code
%
/PatternBgnd {
  TransparentPatterns {} {gsave 1 setgray fill grestore} ifelse
} def
%
% Substitute for Level 2 pattern fill codes with
% grayscale if Level 2 support is not selected.
%
/Level1PatternFill {
/Pattern1 {0.250 Density} bind def
/Pattern2 {0.500 Density} bind def
/Pattern3 {0.750 Density} bind def
/Pattern4 {0.125 Density} bind def
/Pattern5 {0.375 Density} bind def
/Pattern6 {0.625 Density} bind def
/Pattern7 {0.875 Density} bind def
} def
%
% Now test for support of Level 2 code
%
Level1 {Level1PatternFill} {Level2PatternFill} ifelse
%
/Symbol-Oblique /Symbol findfont [1 0 .167 1 0 0] makefont
dup length dict begin {1 index /FID eq {pop pop} {def} ifelse} forall
currentdict end definefont pop
/MFshow {
   { dup 5 get 3 ge
     { 5 get 3 eq {gsave} {grestore} ifelse }
     {dup dup 0 get findfont exch 1 get scalefont setfont
     [ currentpoint ] exch dup 2 get 0 exch R dup 5 get 2 ne {dup dup 6
     get exch 4 get {Gshow} {stringwidth pop 0 R} ifelse }if dup 5 get 0 eq
     {dup 3 get {2 get neg 0 exch R pop} {pop aload pop M} ifelse} {dup 5
     get 1 eq {dup 2 get exch dup 3 get exch 6 get stringwidth pop -2 div
     dup 0 R} {dup 6 get stringwidth pop -2 div 0 R 6 get
     show 2 index {aload pop M neg 3 -1 roll neg R pop pop} {pop pop pop
     pop aload pop M} ifelse }ifelse }ifelse }
     ifelse }
   forall} def
/Gswidth {dup type /stringtype eq {stringwidth} {pop (n) stringwidth} ifelse} def
/MFwidth {0 exch { dup 5 get 3 ge { 5 get 3 eq { 0 } { pop } ifelse }
 {dup 3 get{dup dup 0 get findfont exch 1 get scalefont setfont
     6 get Gswidth pop add} {pop} ifelse} ifelse} forall} def
/MLshow { currentpoint stroke M
  0 exch R
  Blacktext {gsave 0 setgray MFshow grestore} {MFshow} ifelse } bind def
/MRshow { currentpoint stroke M
  exch dup MFwidth neg 3 -1 roll R
  Blacktext {gsave 0 setgray MFshow grestore} {MFshow} ifelse } bind def
/MCshow { currentpoint stroke M
  exch dup MFwidth -2 div 3 -1 roll R
  Blacktext {gsave 0 setgray MFshow grestore} {MFshow} ifelse } bind def
/XYsave    { [( ) 1 2 true false 3 ()] } bind def
/XYrestore { [( ) 1 2 true false 4 ()] } bind def
Level1 SuppressPDFMark or 
{} {
/SDict 10 dict def
systemdict /pdfmark known not {
  userdict /pdfmark systemdict /cleartomark get put
} if
SDict begin [
  /Title (mysql.wm.regex1.eps)
  /Subject (gnuplot plot)
  /Creator (gnuplot 4.6 patchlevel 4)
  /Author (romoore)
%  /Producer (gnuplot)
%  /Keywords ()
  /CreationDate (Thu Aug 28 15:11:51 2014)
  /DOCINFO pdfmark
end
} ifelse
end
%%EndProlog
%%Page: 1 1
gnudict begin
gsave
doclip
50 50 translate
0.100 0.100 scale
90 rotate
0 -3600 translate
0 setgray
newpath
(Helvetica) findfont 140 scalefont setfont
BackgroundColor 0 lt 3 1 roll 0 lt exch 0 lt or or not {gsave BackgroundColor C clippath fill grestore} if
1.500 UL
LTb
0.42 0.42 0.42 C 854 448 M
31 0 V
6422 0 R
-31 0 V
854 596 M
31 0 V
6422 0 R
-31 0 V
854 711 M
31 0 V
6422 0 R
-31 0 V
854 805 M
31 0 V
6422 0 R
-31 0 V
854 885 M
31 0 V
6422 0 R
-31 0 V
854 954 M
31 0 V
6422 0 R
-31 0 V
854 1014 M
31 0 V
6422 0 R
-31 0 V
stroke
1.000 UL
LTa
0.84 0.88 0.79 C 854 1069 M
4206 0 V
2163 0 R
84 0 V
stroke
1.500 UL
LTb
0.42 0.42 0.42 C 854 1069 M
63 0 V
6390 0 R
-63 0 V
stroke
0.42 0.42 0.42 C 770 1069 M
[ [(SVBasic Manual) 120.0 0.0 true true 0 ( 1000)]
] -40.0 MRshow
1.500 UL
LTb
0.42 0.42 0.42 C 854 1426 M
31 0 V
6422 0 R
-31 0 V
854 1635 M
31 0 V
6422 0 R
-31 0 V
854 1783 M
31 0 V
6422 0 R
-31 0 V
854 1898 M
31 0 V
6422 0 R
-31 0 V
854 1992 M
31 0 V
6422 0 R
-31 0 V
854 2072 M
31 0 V
6422 0 R
-31 0 V
854 2140 M
31 0 V
6422 0 R
-31 0 V
854 2201 M
31 0 V
6422 0 R
-31 0 V
stroke
1.000 UL
LTa
0.84 0.88 0.79 C 854 2255 M
6453 0 V
stroke
1.500 UL
LTb
0.42 0.42 0.42 C 854 2255 M
63 0 V
6390 0 R
-63 0 V
stroke
0.42 0.42 0.42 C 770 2255 M
[ [(SVBasic Manual) 120.0 0.0 true true 0 ( 10000)]
] -40.0 MRshow
1.500 UL
LTb
0.42 0.42 0.42 C 854 2613 M
31 0 V
6422 0 R
-31 0 V
854 2822 M
31 0 V
6422 0 R
-31 0 V
854 2970 M
31 0 V
6422 0 R
-31 0 V
854 3085 M
31 0 V
6422 0 R
-31 0 V
854 3179 M
31 0 V
6422 0 R
-31 0 V
854 448 M
0 31 V
0 2700 R
0 -31 V
stroke
1.000 UL
LTa
0.84 0.88 0.79 C 995 448 M
0 2731 V
stroke
1.500 UL
LTb
0.42 0.42 0.42 C 995 448 M
0 63 V
0 2668 R
0 -63 V
stroke
0.42 0.42 0.42 C 995 308 M
[ [(SVBasic Manual) 120.0 0.0 true true 0 ( 1000)]
] -40.0 MCshow
1.500 UL
LTb
0.42 0.42 0.42 C 1926 448 M
0 31 V
0 2700 R
0 -31 V
2471 448 M
0 31 V
0 2700 R
0 -31 V
2857 448 M
0 31 V
0 2700 R
0 -31 V
3157 448 M
0 31 V
0 2700 R
0 -31 V
3401 448 M
0 31 V
0 2700 R
0 -31 V
3608 448 M
0 31 V
0 2700 R
0 -31 V
3788 448 M
0 31 V
0 2700 R
0 -31 V
3946 448 M
0 31 V
0 2700 R
0 -31 V
stroke
1.000 UL
LTa
0.84 0.88 0.79 C 4087 448 M
0 2731 V
stroke
1.500 UL
LTb
0.42 0.42 0.42 C 4087 448 M
0 63 V
0 2668 R
0 -63 V
stroke
0.42 0.42 0.42 C 4087 308 M
[ [(SVBasic Manual) 120.0 0.0 true true 0 ( 10000)]
] -40.0 MCshow
1.500 UL
LTb
0.42 0.42 0.42 C 5018 448 M
0 31 V
0 2700 R
0 -31 V
5562 448 M
0 31 V
0 2700 R
0 -31 V
5949 448 M
0 31 V
0 2700 R
0 -31 V
6248 448 M
0 31 V
0 2700 R
0 -31 V
6493 448 M
0 31 V
0 2700 R
0 -31 V
6700 448 M
0 31 V
0 2700 R
0 -31 V
6879 448 M
0 31 V
0 2700 R
0 -31 V
7038 448 M
0 31 V
0 2700 R
0 -31 V
stroke
1.000 UL
LTa
0.84 0.88 0.79 C 7179 448 M
0 63 V
0 840 R
0 1828 V
stroke
1.500 UL
LTb
0.42 0.42 0.42 C 7179 448 M
0 63 V
0 2668 R
0 -63 V
stroke
0.42 0.42 0.42 C 7179 308 M
[ [(SVBasic Manual) 120.0 0.0 true true 0 ( 100000)]
] -40.0 MCshow
1.500 UL
LTb
0.42 0.42 0.42 C 1.500 UL
LTb
0.42 0.42 0.42 C 854 3179 N
854 448 L
6453 0 V
0 2731 V
-6453 0 V
Z stroke
0.42 0.42 0.42 C 112 1813 M
currentpoint gsave translate -270 rotate 0 0 moveto
[ [(SVBasic Manual) 120.0 0.0 true true 0 (Time \()]
[(Symbol) 120.0 0.0 true true 0 (m)]
[(SVBasic Manual) 120.0 0.0 true true 0 (s\))]
] -40.0 MCshow
grestore
LTb
0.42 0.42 0.42 C 4080 98 M
[ [(SVBasic Manual) 120.0 0.0 true true 0 (World Model Size \(No. of Attributes\))]
] -40.0 MCshow
LTb
0.42 0.42 0.42 C 4080 3389 M
[ [(SVBasic Manual) 150.0 0.0 true true 0 (MySQL World Model Performance: Regex Search 1)]
] -50.0 MCshow
LTb
1.000 UP
0.42 0.42 0.42 C 1.500 UL
LTb
0.42 0.42 0.42 C 1.000 UL
LTb
LCb setrgbcolor
5060 511 N
0 840 V
2163 0 V
0 -840 V
-2163 0 V
Z stroke
% Begin plot #1
2.000 UL
LT0
LC0 setrgbcolor
LCb setrgbcolor
6656 1141 M
[ [(SVBasic Manual) 120.0 0.0 true true 0 (1-Minute Expirations)]
] -40.0 MRshow
LT0
LC0 setrgbcolor
0.500 6740 1106 399 70 BoxColFill
6740 1106 N
399 0 V
0 70 V
-399 0 V
0 -70 V
Z stroke
LT0
LC0 setrgbcolor
0.500 980 550 30 28 BoxColFill
995 516 M
0 34 V
0 28 R
0 30 V
stroke
980 578 N
30 0 V
0 -28 V
-30 0 V
0 28 V
Z stroke
980 608 M
30 0 V
980 516 M
30 0 V
stroke
0.500 1911 929 30 26 BoxColFill
1926 895 M
0 34 V
0 26 R
0 31 V
stroke
1911 955 N
30 0 V
0 -26 V
-30 0 V
0 26 V
Z stroke
1911 986 M
30 0 V
-30 -91 R
30 0 V
stroke
0.500 2456 1111 30 26 BoxColFill
2471 1077 M
0 34 V
0 26 R
0 30 V
stroke
2456 1137 N
30 0 V
0 -26 V
-30 0 V
0 26 V
Z stroke
2456 1167 M
30 0 V
-30 -90 R
30 0 V
stroke
0.500 2842 1233 30 24 BoxColFill
2857 1202 M
0 31 V
0 24 R
0 27 V
stroke
2842 1257 N
30 0 V
0 -24 V
-30 0 V
0 24 V
Z stroke
2842 1284 M
30 0 V
-30 -82 R
30 0 V
stroke
0.500 3142 1410 30 28 BoxColFill
3157 1376 M
0 34 V
0 28 R
0 30 V
stroke
3142 1438 N
30 0 V
0 -28 V
-30 0 V
0 28 V
Z stroke
3142 1468 M
30 0 V
-30 -92 R
30 0 V
stroke
0.500 4072 1733 30 24 BoxColFill
4087 1703 M
0 30 V
0 24 R
0 27 V
stroke
4072 1757 N
30 0 V
0 -24 V
-30 0 V
0 24 V
Z stroke
4072 1784 M
30 0 V
-30 -81 R
30 0 V
stroke
0.500 5003 2091 30 14 BoxColFill
5018 2075 M
0 16 V
0 14 R
0 16 V
stroke
5003 2105 N
30 0 V
0 -14 V
-30 0 V
0 14 V
Z stroke
5003 2121 M
30 0 V
-30 -46 R
30 0 V
stroke
0.500 5547 2356 30 12 BoxColFill
5562 2341 M
0 15 V
0 12 R
0 13 V
stroke
5547 2368 N
30 0 V
0 -12 V
-30 0 V
0 12 V
Z stroke
5547 2381 M
30 0 V
-30 -40 R
30 0 V
stroke
0.500 5934 2442 30 17 BoxColFill
5949 2422 M
0 20 V
0 17 R
0 19 V
stroke
5934 2459 N
30 0 V
0 -17 V
-30 0 V
0 17 V
Z stroke
5934 2478 M
30 0 V
-30 -56 R
30 0 V
stroke
0.500 6233 2618 30 17 BoxColFill
6248 2597 M
0 21 V
0 17 R
0 19 V
stroke
6233 2635 N
30 0 V
0 -17 V
-30 0 V
0 17 V
Z stroke
6233 2654 M
30 0 V
-30 -57 R
30 0 V
stroke
0.500 7164 2928 30 25 BoxColFill
7179 2897 M
0 31 V
0 25 R
0 27 V
stroke
7164 2953 N
30 0 V
0 -25 V
-30 0 V
0 25 V
Z stroke
7164 2980 M
30 0 V
-30 -83 R
30 0 V
% End plot #1
% Begin plot #2
1.000 UP
stroke
LT1
LC0 setrgbcolor
LCb setrgbcolor
6656 1001 M
[ [(SVBasic Manual) 120.0 0.0 true true 0 (99 Percentile)]
] -40.0 MRshow
LT1
LC0 setrgbcolor
6740 1001 M
399 0 V
995 667 M
931 359 V
545 200 V
386 100 V
300 165 V
930 344 V
931 300 V
544 266 V
387 103 V
299 176 V
931 351 V
995 667 BoxF
1926 1026 BoxF
2471 1226 BoxF
2857 1326 BoxF
3157 1491 BoxF
4087 1835 BoxF
5018 2135 BoxF
5562 2401 BoxF
5949 2504 BoxF
6248 2680 BoxF
7179 3031 BoxF
6939 1001 BoxF
% End plot #2
% Begin plot #3
2.000 UL
LT2
LC1 setrgbcolor
LCb setrgbcolor
6656 861 M
[ [(SVBasic Manual) 120.0 0.0 true true 0 (No Expirations)]
] -40.0 MRshow
LT2
LC1 setrgbcolor
0.500 6740 826 399 70 BoxColFill
6740 826 N
399 0 V
0 70 V
-399 0 V
0 -70 V
Z stroke
LT2
LC1 setrgbcolor
0.500 980 566 30 24 BoxColFill
995 533 M
0 33 V
0 24 R
0 30 V
stroke
980 590 N
30 0 V
0 -24 V
-30 0 V
0 24 V
Z stroke
980 620 M
30 0 V
980 533 M
30 0 V
stroke
0.500 1911 881 30 23 BoxColFill
1926 851 M
0 30 V
0 23 R
0 27 V
stroke
1911 904 N
30 0 V
0 -23 V
-30 0 V
0 23 V
Z stroke
1911 931 M
30 0 V
-30 -80 R
30 0 V
stroke
0.500 2456 1063 30 27 BoxColFill
2471 1028 M
0 35 V
0 27 R
0 31 V
stroke
2456 1090 N
30 0 V
0 -27 V
-30 0 V
0 27 V
Z stroke
2456 1121 M
30 0 V
-30 -93 R
30 0 V
stroke
0.500 2842 1204 30 34 BoxColFill
2857 1161 M
0 43 V
0 34 R
0 37 V
stroke
2842 1238 N
30 0 V
0 -34 V
-30 0 V
0 34 V
Z stroke
2842 1275 M
30 0 V
-30 -114 R
30 0 V
stroke
0.500 3142 1315 30 31 BoxColFill
3157 1277 M
0 38 V
0 31 R
0 33 V
stroke
3142 1346 N
30 0 V
0 -31 V
-30 0 V
0 31 V
Z stroke
3142 1379 M
30 0 V
-30 -102 R
30 0 V
stroke
0.500 4072 1675 30 28 BoxColFill
4087 1642 M
0 33 V
0 28 R
0 30 V
stroke
4072 1703 N
30 0 V
0 -28 V
-30 0 V
0 28 V
Z stroke
4072 1733 M
30 0 V
-30 -91 R
30 0 V
stroke
0.500 5003 2091 30 18 BoxColFill
5018 2068 M
0 23 V
0 18 R
0 20 V
stroke
5003 2109 N
30 0 V
0 -18 V
-30 0 V
0 18 V
Z stroke
5003 2129 M
30 0 V
-30 -61 R
30 0 V
stroke
0.500 5547 2300 30 19 BoxColFill
5562 2276 M
0 24 V
0 19 R
0 22 V
stroke
5547 2319 N
30 0 V
0 -19 V
-30 0 V
0 19 V
Z stroke
5547 2341 M
30 0 V
-30 -65 R
30 0 V
stroke
0.500 5934 2439 30 28 BoxColFill
5949 2406 M
0 33 V
0 28 R
0 30 V
stroke
5934 2467 N
30 0 V
0 -28 V
-30 0 V
0 28 V
Z stroke
5934 2497 M
30 0 V
-30 -91 R
30 0 V
stroke
0.500 6233 2578 30 31 BoxColFill
6248 2539 M
0 39 V
0 31 R
0 33 V
stroke
6233 2609 N
30 0 V
0 -31 V
-30 0 V
0 31 V
Z stroke
6233 2642 M
30 0 V
-30 -103 R
30 0 V
stroke
0.500 7164 2921 30 31 BoxColFill
7179 2882 M
0 39 V
0 31 R
0 34 V
stroke
7164 2952 N
30 0 V
0 -31 V
-30 0 V
0 31 V
Z stroke
7164 2986 M
30 0 V
-30 -104 R
30 0 V
% End plot #3
% Begin plot #4
1.000 UP
stroke
LT3
LC1 setrgbcolor
LCb setrgbcolor
6656 721 M
[ [(SVBasic Manual) 120.0 0.0 true true 0 (99 Percentile)]
] -40.0 MRshow
LT3
LC1 setrgbcolor
6740 721 M
399 0 V
995 686 M
931 305 V
545 195 V
386 167 V
300 93 V
930 351 V
931 368 V
544 220 V
387 180 V
299 156 V
931 341 V
995 686 DiaF
1926 991 DiaF
2471 1186 DiaF
2857 1353 DiaF
3157 1446 DiaF
4087 1797 DiaF
5018 2165 DiaF
5562 2385 DiaF
5949 2565 DiaF
6248 2721 DiaF
7179 3062 DiaF
6939 721 DiaF
% End plot #4
1.500 UL
LTb
0.42 0.42 0.42 C 854 3179 N
854 448 L
6453 0 V
0 2731 V
-6453 0 V
Z stroke
1.000 UP
1.500 UL
LTb
0.42 0.42 0.42 C stroke
grestore
end
showpage
%%Trailer
%%DocumentFonts: Symbol Helvetica
%%Pages: 1
