%!PS-Adobe-2.0
%%Title: mysql.wm.range10.eps
%%Creator: gnuplot 4.6 patchlevel 4
%%CreationDate: Thu Aug 28 15:11:51 2014
%%DocumentFonts: (atend)
%%BoundingBox: 50 50 410 806
%%Orientation: Landscape
%%Pages: (atend)
%%EndComments
%%BeginProlog
/gnudict 256 dict def
gnudict begin
%
% The following true/false flags may be edited by hand if desired.
% The unit line width and grayscale image gamma correction may also be changed.
%
/Color true def
/Blacktext false def
/Solid false def
/Dashlength 1 def
/Landscape true def
/Level1 false def
/Rounded false def
/ClipToBoundingBox false def
/SuppressPDFMark false def
/TransparentPatterns false def
/gnulinewidth 5.000 def
/userlinewidth gnulinewidth def
/Gamma 1.0 def
/BackgroundColor {-1.000 -1.000 -1.000} def
%
/vshift -46 def
/dl1 {
  10.0 Dashlength mul mul
  Rounded { currentlinewidth 0.75 mul sub dup 0 le { pop 0.01 } if } if
} def
/dl2 {
  10.0 Dashlength mul mul
  Rounded { currentlinewidth 0.75 mul add } if
} def
/hpt_ 31.5 def
/vpt_ 31.5 def
/hpt hpt_ def
/vpt vpt_ def
/doclip {
  ClipToBoundingBox {
    newpath 50 50 moveto 410 50 lineto 410 806 lineto 50 806 lineto closepath
    clip
  } if
} def
%
% Gnuplot Prolog Version 4.6 (September 2012)
%
%/SuppressPDFMark true def
%
/M {moveto} bind def
/L {lineto} bind def
/R {rmoveto} bind def
/V {rlineto} bind def
/N {newpath moveto} bind def
/Z {closepath} bind def
/C {setrgbcolor} bind def
/f {rlineto fill} bind def
/g {setgray} bind def
/Gshow {show} def   % May be redefined later in the file to support UTF-8
/vpt2 vpt 2 mul def
/hpt2 hpt 2 mul def
/Lshow {currentpoint stroke M 0 vshift R 
	Blacktext {gsave 0 setgray show grestore} {show} ifelse} def
/Rshow {currentpoint stroke M dup stringwidth pop neg vshift R
	Blacktext {gsave 0 setgray show grestore} {show} ifelse} def
/Cshow {currentpoint stroke M dup stringwidth pop -2 div vshift R 
	Blacktext {gsave 0 setgray show grestore} {show} ifelse} def
/UP {dup vpt_ mul /vpt exch def hpt_ mul /hpt exch def
  /hpt2 hpt 2 mul def /vpt2 vpt 2 mul def} def
/DL {Color {setrgbcolor Solid {pop []} if 0 setdash}
 {pop pop pop 0 setgray Solid {pop []} if 0 setdash} ifelse} def
/BL {stroke userlinewidth 2 mul setlinewidth
	Rounded {1 setlinejoin 1 setlinecap} if} def
/AL {stroke userlinewidth 2 div setlinewidth
	Rounded {1 setlinejoin 1 setlinecap} if} def
/UL {dup gnulinewidth mul /userlinewidth exch def
	dup 1 lt {pop 1} if 10 mul /udl exch def} def
/PL {stroke userlinewidth setlinewidth
	Rounded {1 setlinejoin 1 setlinecap} if} def
3.8 setmiterlimit
% Default Line colors
/LCw {1 1 1} def
/LCb {0 0 0} def
/LCa {0 0 0} def
/LC0 {1 0 0} def
/LC1 {0 1 0} def
/LC2 {0 0 1} def
/LC3 {1 0 1} def
/LC4 {0 1 1} def
/LC5 {1 1 0} def
/LC6 {0 0 0} def
/LC7 {1 0.3 0} def
/LC8 {0.5 0.5 0.5} def
% Default Line Types
/LTw {PL [] 1 setgray} def
/LTb {BL [] LCb DL} def
/LTa {AL [1 udl mul 2 udl mul] 0 setdash LCa setrgbcolor} def
/LT0 {PL [] LC0 DL} def
/LT1 {PL [4 dl1 2 dl2] LC1 DL} def
/LT2 {PL [2 dl1 3 dl2] LC2 DL} def
/LT3 {PL [1 dl1 1.5 dl2] LC3 DL} def
/LT4 {PL [6 dl1 2 dl2 1 dl1 2 dl2] LC4 DL} def
/LT5 {PL [3 dl1 3 dl2 1 dl1 3 dl2] LC5 DL} def
/LT6 {PL [2 dl1 2 dl2 2 dl1 6 dl2] LC6 DL} def
/LT7 {PL [1 dl1 2 dl2 6 dl1 2 dl2 1 dl1 2 dl2] LC7 DL} def
/LT8 {PL [2 dl1 2 dl2 2 dl1 2 dl2 2 dl1 2 dl2 2 dl1 4 dl2] LC8 DL} def
/Pnt {stroke [] 0 setdash gsave 1 setlinecap M 0 0 V stroke grestore} def
/Dia {stroke [] 0 setdash 2 copy vpt add M
  hpt neg vpt neg V hpt vpt neg V
  hpt vpt V hpt neg vpt V closepath stroke
  Pnt} def
/Pls {stroke [] 0 setdash vpt sub M 0 vpt2 V
  currentpoint stroke M
  hpt neg vpt neg R hpt2 0 V stroke
 } def
/Box {stroke [] 0 setdash 2 copy exch hpt sub exch vpt add M
  0 vpt2 neg V hpt2 0 V 0 vpt2 V
  hpt2 neg 0 V closepath stroke
  Pnt} def
/Crs {stroke [] 0 setdash exch hpt sub exch vpt add M
  hpt2 vpt2 neg V currentpoint stroke M
  hpt2 neg 0 R hpt2 vpt2 V stroke} def
/TriU {stroke [] 0 setdash 2 copy vpt 1.12 mul add M
  hpt neg vpt -1.62 mul V
  hpt 2 mul 0 V
  hpt neg vpt 1.62 mul V closepath stroke
  Pnt} def
/Star {2 copy Pls Crs} def
/BoxF {stroke [] 0 setdash exch hpt sub exch vpt add M
  0 vpt2 neg V hpt2 0 V 0 vpt2 V
  hpt2 neg 0 V closepath fill} def
/TriUF {stroke [] 0 setdash vpt 1.12 mul add M
  hpt neg vpt -1.62 mul V
  hpt 2 mul 0 V
  hpt neg vpt 1.62 mul V closepath fill} def
/TriD {stroke [] 0 setdash 2 copy vpt 1.12 mul sub M
  hpt neg vpt 1.62 mul V
  hpt 2 mul 0 V
  hpt neg vpt -1.62 mul V closepath stroke
  Pnt} def
/TriDF {stroke [] 0 setdash vpt 1.12 mul sub M
  hpt neg vpt 1.62 mul V
  hpt 2 mul 0 V
  hpt neg vpt -1.62 mul V closepath fill} def
/DiaF {stroke [] 0 setdash vpt add M
  hpt neg vpt neg V hpt vpt neg V
  hpt vpt V hpt neg vpt V closepath fill} def
/Pent {stroke [] 0 setdash 2 copy gsave
  translate 0 hpt M 4 {72 rotate 0 hpt L} repeat
  closepath stroke grestore Pnt} def
/PentF {stroke [] 0 setdash gsave
  translate 0 hpt M 4 {72 rotate 0 hpt L} repeat
  closepath fill grestore} def
/Circle {stroke [] 0 setdash 2 copy
  hpt 0 360 arc stroke Pnt} def
/CircleF {stroke [] 0 setdash hpt 0 360 arc fill} def
/C0 {BL [] 0 setdash 2 copy moveto vpt 90 450 arc} bind def
/C1 {BL [] 0 setdash 2 copy moveto
	2 copy vpt 0 90 arc closepath fill
	vpt 0 360 arc closepath} bind def
/C2 {BL [] 0 setdash 2 copy moveto
	2 copy vpt 90 180 arc closepath fill
	vpt 0 360 arc closepath} bind def
/C3 {BL [] 0 setdash 2 copy moveto
	2 copy vpt 0 180 arc closepath fill
	vpt 0 360 arc closepath} bind def
/C4 {BL [] 0 setdash 2 copy moveto
	2 copy vpt 180 270 arc closepath fill
	vpt 0 360 arc closepath} bind def
/C5 {BL [] 0 setdash 2 copy moveto
	2 copy vpt 0 90 arc
	2 copy moveto
	2 copy vpt 180 270 arc closepath fill
	vpt 0 360 arc} bind def
/C6 {BL [] 0 setdash 2 copy moveto
	2 copy vpt 90 270 arc closepath fill
	vpt 0 360 arc closepath} bind def
/C7 {BL [] 0 setdash 2 copy moveto
	2 copy vpt 0 270 arc closepath fill
	vpt 0 360 arc closepath} bind def
/C8 {BL [] 0 setdash 2 copy moveto
	2 copy vpt 270 360 arc closepath fill
	vpt 0 360 arc closepath} bind def
/C9 {BL [] 0 setdash 2 copy moveto
	2 copy vpt 270 450 arc closepath fill
	vpt 0 360 arc closepath} bind def
/C10 {BL [] 0 setdash 2 copy 2 copy moveto vpt 270 360 arc closepath fill
	2 copy moveto
	2 copy vpt 90 180 arc closepath fill
	vpt 0 360 arc closepath} bind def
/C11 {BL [] 0 setdash 2 copy moveto
	2 copy vpt 0 180 arc closepath fill
	2 copy moveto
	2 copy vpt 270 360 arc closepath fill
	vpt 0 360 arc closepath} bind def
/C12 {BL [] 0 setdash 2 copy moveto
	2 copy vpt 180 360 arc closepath fill
	vpt 0 360 arc closepath} bind def
/C13 {BL [] 0 setdash 2 copy moveto
	2 copy vpt 0 90 arc closepath fill
	2 copy moveto
	2 copy vpt 180 360 arc closepath fill
	vpt 0 360 arc closepath} bind def
/C14 {BL [] 0 setdash 2 copy moveto
	2 copy vpt 90 360 arc closepath fill
	vpt 0 360 arc} bind def
/C15 {BL [] 0 setdash 2 copy vpt 0 360 arc closepath fill
	vpt 0 360 arc closepath} bind def
/Rec {newpath 4 2 roll moveto 1 index 0 rlineto 0 exch rlineto
	neg 0 rlineto closepath} bind def
/Square {dup Rec} bind def
/Bsquare {vpt sub exch vpt sub exch vpt2 Square} bind def
/S0 {BL [] 0 setdash 2 copy moveto 0 vpt rlineto BL Bsquare} bind def
/S1 {BL [] 0 setdash 2 copy vpt Square fill Bsquare} bind def
/S2 {BL [] 0 setdash 2 copy exch vpt sub exch vpt Square fill Bsquare} bind def
/S3 {BL [] 0 setdash 2 copy exch vpt sub exch vpt2 vpt Rec fill Bsquare} bind def
/S4 {BL [] 0 setdash 2 copy exch vpt sub exch vpt sub vpt Square fill Bsquare} bind def
/S5 {BL [] 0 setdash 2 copy 2 copy vpt Square fill
	exch vpt sub exch vpt sub vpt Square fill Bsquare} bind def
/S6 {BL [] 0 setdash 2 copy exch vpt sub exch vpt sub vpt vpt2 Rec fill Bsquare} bind def
/S7 {BL [] 0 setdash 2 copy exch vpt sub exch vpt sub vpt vpt2 Rec fill
	2 copy vpt Square fill Bsquare} bind def
/S8 {BL [] 0 setdash 2 copy vpt sub vpt Square fill Bsquare} bind def
/S9 {BL [] 0 setdash 2 copy vpt sub vpt vpt2 Rec fill Bsquare} bind def
/S10 {BL [] 0 setdash 2 copy vpt sub vpt Square fill 2 copy exch vpt sub exch vpt Square fill
	Bsquare} bind def
/S11 {BL [] 0 setdash 2 copy vpt sub vpt Square fill 2 copy exch vpt sub exch vpt2 vpt Rec fill
	Bsquare} bind def
/S12 {BL [] 0 setdash 2 copy exch vpt sub exch vpt sub vpt2 vpt Rec fill Bsquare} bind def
/S13 {BL [] 0 setdash 2 copy exch vpt sub exch vpt sub vpt2 vpt Rec fill
	2 copy vpt Square fill Bsquare} bind def
/S14 {BL [] 0 setdash 2 copy exch vpt sub exch vpt sub vpt2 vpt Rec fill
	2 copy exch vpt sub exch vpt Square fill Bsquare} bind def
/S15 {BL [] 0 setdash 2 copy Bsquare fill Bsquare} bind def
/D0 {gsave translate 45 rotate 0 0 S0 stroke grestore} bind def
/D1 {gsave translate 45 rotate 0 0 S1 stroke grestore} bind def
/D2 {gsave translate 45 rotate 0 0 S2 stroke grestore} bind def
/D3 {gsave translate 45 rotate 0 0 S3 stroke grestore} bind def
/D4 {gsave translate 45 rotate 0 0 S4 stroke grestore} bind def
/D5 {gsave translate 45 rotate 0 0 S5 stroke grestore} bind def
/D6 {gsave translate 45 rotate 0 0 S6 stroke grestore} bind def
/D7 {gsave translate 45 rotate 0 0 S7 stroke grestore} bind def
/D8 {gsave translate 45 rotate 0 0 S8 stroke grestore} bind def
/D9 {gsave translate 45 rotate 0 0 S9 stroke grestore} bind def
/D10 {gsave translate 45 rotate 0 0 S10 stroke grestore} bind def
/D11 {gsave translate 45 rotate 0 0 S11 stroke grestore} bind def
/D12 {gsave translate 45 rotate 0 0 S12 stroke grestore} bind def
/D13 {gsave translate 45 rotate 0 0 S13 stroke grestore} bind def
/D14 {gsave translate 45 rotate 0 0 S14 stroke grestore} bind def
/D15 {gsave translate 45 rotate 0 0 S15 stroke grestore} bind def
/DiaE {stroke [] 0 setdash vpt add M
  hpt neg vpt neg V hpt vpt neg V
  hpt vpt V hpt neg vpt V closepath stroke} def
/BoxE {stroke [] 0 setdash exch hpt sub exch vpt add M
  0 vpt2 neg V hpt2 0 V 0 vpt2 V
  hpt2 neg 0 V closepath stroke} def
/TriUE {stroke [] 0 setdash vpt 1.12 mul add M
  hpt neg vpt -1.62 mul V
  hpt 2 mul 0 V
  hpt neg vpt 1.62 mul V closepath stroke} def
/TriDE {stroke [] 0 setdash vpt 1.12 mul sub M
  hpt neg vpt 1.62 mul V
  hpt 2 mul 0 V
  hpt neg vpt -1.62 mul V closepath stroke} def
/PentE {stroke [] 0 setdash gsave
  translate 0 hpt M 4 {72 rotate 0 hpt L} repeat
  closepath stroke grestore} def
/CircE {stroke [] 0 setdash 
  hpt 0 360 arc stroke} def
/Opaque {gsave closepath 1 setgray fill grestore 0 setgray closepath} def
/DiaW {stroke [] 0 setdash vpt add M
  hpt neg vpt neg V hpt vpt neg V
  hpt vpt V hpt neg vpt V Opaque stroke} def
/BoxW {stroke [] 0 setdash exch hpt sub exch vpt add M
  0 vpt2 neg V hpt2 0 V 0 vpt2 V
  hpt2 neg 0 V Opaque stroke} def
/TriUW {stroke [] 0 setdash vpt 1.12 mul add M
  hpt neg vpt -1.62 mul V
  hpt 2 mul 0 V
  hpt neg vpt 1.62 mul V Opaque stroke} def
/TriDW {stroke [] 0 setdash vpt 1.12 mul sub M
  hpt neg vpt 1.62 mul V
  hpt 2 mul 0 V
  hpt neg vpt -1.62 mul V Opaque stroke} def
/PentW {stroke [] 0 setdash gsave
  translate 0 hpt M 4 {72 rotate 0 hpt L} repeat
  Opaque stroke grestore} def
/CircW {stroke [] 0 setdash 
  hpt 0 360 arc Opaque stroke} def
/BoxFill {gsave Rec 1 setgray fill grestore} def
/Density {
  /Fillden exch def
  currentrgbcolor
  /ColB exch def /ColG exch def /ColR exch def
  /ColR ColR Fillden mul Fillden sub 1 add def
  /ColG ColG Fillden mul Fillden sub 1 add def
  /ColB ColB Fillden mul Fillden sub 1 add def
  ColR ColG ColB setrgbcolor} def
/BoxColFill {gsave Rec PolyFill} def
/PolyFill {gsave Density fill grestore grestore} def
/h {rlineto rlineto rlineto gsave closepath fill grestore} bind def
%
% PostScript Level 1 Pattern Fill routine for rectangles
% Usage: x y w h s a XX PatternFill
%	x,y = lower left corner of box to be filled
%	w,h = width and height of box
%	  a = angle in degrees between lines and x-axis
%	 XX = 0/1 for no/yes cross-hatch
%
/PatternFill {gsave /PFa [ 9 2 roll ] def
  PFa 0 get PFa 2 get 2 div add PFa 1 get PFa 3 get 2 div add translate
  PFa 2 get -2 div PFa 3 get -2 div PFa 2 get PFa 3 get Rec
  TransparentPatterns {} {gsave 1 setgray fill grestore} ifelse
  clip
  currentlinewidth 0.5 mul setlinewidth
  /PFs PFa 2 get dup mul PFa 3 get dup mul add sqrt def
  0 0 M PFa 5 get rotate PFs -2 div dup translate
  0 1 PFs PFa 4 get div 1 add floor cvi
	{PFa 4 get mul 0 M 0 PFs V} for
  0 PFa 6 get ne {
	0 1 PFs PFa 4 get div 1 add floor cvi
	{PFa 4 get mul 0 2 1 roll M PFs 0 V} for
 } if
  stroke grestore} def
%
/languagelevel where
 {pop languagelevel} {1} ifelse
 2 lt
	{/InterpretLevel1 true def}
	{/InterpretLevel1 Level1 def}
 ifelse
%
% PostScript level 2 pattern fill definitions
%
/Level2PatternFill {
/Tile8x8 {/PaintType 2 /PatternType 1 /TilingType 1 /BBox [0 0 8 8] /XStep 8 /YStep 8}
	bind def
/KeepColor {currentrgbcolor [/Pattern /DeviceRGB] setcolorspace} bind def
<< Tile8x8
 /PaintProc {0.5 setlinewidth pop 0 0 M 8 8 L 0 8 M 8 0 L stroke} 
>> matrix makepattern
/Pat1 exch def
<< Tile8x8
 /PaintProc {0.5 setlinewidth pop 0 0 M 8 8 L 0 8 M 8 0 L stroke
	0 4 M 4 8 L 8 4 L 4 0 L 0 4 L stroke}
>> matrix makepattern
/Pat2 exch def
<< Tile8x8
 /PaintProc {0.5 setlinewidth pop 0 0 M 0 8 L
	8 8 L 8 0 L 0 0 L fill}
>> matrix makepattern
/Pat3 exch def
<< Tile8x8
 /PaintProc {0.5 setlinewidth pop -4 8 M 8 -4 L
	0 12 M 12 0 L stroke}
>> matrix makepattern
/Pat4 exch def
<< Tile8x8
 /PaintProc {0.5 setlinewidth pop -4 0 M 8 12 L
	0 -4 M 12 8 L stroke}
>> matrix makepattern
/Pat5 exch def
<< Tile8x8
 /PaintProc {0.5 setlinewidth pop -2 8 M 4 -4 L
	0 12 M 8 -4 L 4 12 M 10 0 L stroke}
>> matrix makepattern
/Pat6 exch def
<< Tile8x8
 /PaintProc {0.5 setlinewidth pop -2 0 M 4 12 L
	0 -4 M 8 12 L 4 -4 M 10 8 L stroke}
>> matrix makepattern
/Pat7 exch def
<< Tile8x8
 /PaintProc {0.5 setlinewidth pop 8 -2 M -4 4 L
	12 0 M -4 8 L 12 4 M 0 10 L stroke}
>> matrix makepattern
/Pat8 exch def
<< Tile8x8
 /PaintProc {0.5 setlinewidth pop 0 -2 M 12 4 L
	-4 0 M 12 8 L -4 4 M 8 10 L stroke}
>> matrix makepattern
/Pat9 exch def
/Pattern1 {PatternBgnd KeepColor Pat1 setpattern} bind def
/Pattern2 {PatternBgnd KeepColor Pat2 setpattern} bind def
/Pattern3 {PatternBgnd KeepColor Pat3 setpattern} bind def
/Pattern4 {PatternBgnd KeepColor Landscape {Pat5} {Pat4} ifelse setpattern} bind def
/Pattern5 {PatternBgnd KeepColor Landscape {Pat4} {Pat5} ifelse setpattern} bind def
/Pattern6 {PatternBgnd KeepColor Landscape {Pat9} {Pat6} ifelse setpattern} bind def
/Pattern7 {PatternBgnd KeepColor Landscape {Pat8} {Pat7} ifelse setpattern} bind def
} def
%
%
%End of PostScript Level 2 code
%
/PatternBgnd {
  TransparentPatterns {} {gsave 1 setgray fill grestore} ifelse
} def
%
% Substitute for Level 2 pattern fill codes with
% grayscale if Level 2 support is not selected.
%
/Level1PatternFill {
/Pattern1 {0.250 Density} bind def
/Pattern2 {0.500 Density} bind def
/Pattern3 {0.750 Density} bind def
/Pattern4 {0.125 Density} bind def
/Pattern5 {0.375 Density} bind def
/Pattern6 {0.625 Density} bind def
/Pattern7 {0.875 Density} bind def
} def
%
% Now test for support of Level 2 code
%
Level1 {Level1PatternFill} {Level2PatternFill} ifelse
%
/Symbol-Oblique /Symbol findfont [1 0 .167 1 0 0] makefont
dup length dict begin {1 index /FID eq {pop pop} {def} ifelse} forall
currentdict end definefont pop
/MFshow {
   { dup 5 get 3 ge
     { 5 get 3 eq {gsave} {grestore} ifelse }
     {dup dup 0 get findfont exch 1 get scalefont setfont
     [ currentpoint ] exch dup 2 get 0 exch R dup 5 get 2 ne {dup dup 6
     get exch 4 get {Gshow} {stringwidth pop 0 R} ifelse }if dup 5 get 0 eq
     {dup 3 get {2 get neg 0 exch R pop} {pop aload pop M} ifelse} {dup 5
     get 1 eq {dup 2 get exch dup 3 get exch 6 get stringwidth pop -2 div
     dup 0 R} {dup 6 get stringwidth pop -2 div 0 R 6 get
     show 2 index {aload pop M neg 3 -1 roll neg R pop pop} {pop pop pop
     pop aload pop M} ifelse }ifelse }ifelse }
     ifelse }
   forall} def
/Gswidth {dup type /stringtype eq {stringwidth} {pop (n) stringwidth} ifelse} def
/MFwidth {0 exch { dup 5 get 3 ge { 5 get 3 eq { 0 } { pop } ifelse }
 {dup 3 get{dup dup 0 get findfont exch 1 get scalefont setfont
     6 get Gswidth pop add} {pop} ifelse} ifelse} forall} def
/MLshow { currentpoint stroke M
  0 exch R
  Blacktext {gsave 0 setgray MFshow grestore} {MFshow} ifelse } bind def
/MRshow { currentpoint stroke M
  exch dup MFwidth neg 3 -1 roll R
  Blacktext {gsave 0 setgray MFshow grestore} {MFshow} ifelse } bind def
/MCshow { currentpoint stroke M
  exch dup MFwidth -2 div 3 -1 roll R
  Blacktext {gsave 0 setgray MFshow grestore} {MFshow} ifelse } bind def
/XYsave    { [( ) 1 2 true false 3 ()] } bind def
/XYrestore { [( ) 1 2 true false 4 ()] } bind def
Level1 SuppressPDFMark or 
{} {
/SDict 10 dict def
systemdict /pdfmark known not {
  userdict /pdfmark systemdict /cleartomark get put
} if
SDict begin [
  /Title (mysql.wm.range10.eps)
  /Subject (gnuplot plot)
  /Creator (gnuplot 4.6 patchlevel 4)
  /Author (romoore)
%  /Producer (gnuplot)
%  /Keywords ()
  /CreationDate (Thu Aug 28 15:11:51 2014)
  /DOCINFO pdfmark
end
} ifelse
end
%%EndProlog
%%Page: 1 1
gnudict begin
gsave
doclip
50 50 translate
0.100 0.100 scale
90 rotate
0 -3600 translate
0 setgray
newpath
(Helvetica) findfont 140 scalefont setfont
BackgroundColor 0 lt 3 1 roll 0 lt exch 0 lt or or not {gsave BackgroundColor C clippath fill grestore} if
1.500 UL
LTb
0.42 0.42 0.42 C 1.000 UL
LTa
0.84 0.88 0.79 C 938 448 M
6369 0 V
stroke
1.500 UL
LTb
0.42 0.42 0.42 C 938 448 M
63 0 V
6306 0 R
-63 0 V
stroke
0.42 0.42 0.42 C 854 448 M
[ [(SVBasic Manual) 120.0 0.0 true true 0 ( 1000)]
] -40.0 MRshow
1.500 UL
LTb
0.42 0.42 0.42 C 938 771 M
31 0 V
6338 0 R
-31 0 V
938 960 M
31 0 V
6338 0 R
-31 0 V
938 1094 M
31 0 V
6338 0 R
-31 0 V
938 1198 M
31 0 V
6338 0 R
-31 0 V
938 1283 M
31 0 V
6338 0 R
-31 0 V
938 1355 M
31 0 V
6338 0 R
-31 0 V
938 1417 M
31 0 V
6338 0 R
-31 0 V
938 1472 M
31 0 V
6338 0 R
-31 0 V
stroke
1.000 UL
LTa
0.84 0.88 0.79 C 938 1521 M
6369 0 V
stroke
1.500 UL
LTb
0.42 0.42 0.42 C 938 1521 M
63 0 V
6306 0 R
-63 0 V
stroke
0.42 0.42 0.42 C 854 1521 M
[ [(SVBasic Manual) 120.0 0.0 true true 0 ( 10000)]
] -40.0 MRshow
1.500 UL
LTb
0.42 0.42 0.42 C 938 1845 M
31 0 V
6338 0 R
-31 0 V
938 2034 M
31 0 V
6338 0 R
-31 0 V
938 2168 M
31 0 V
6338 0 R
-31 0 V
938 2272 M
31 0 V
6338 0 R
-31 0 V
938 2357 M
31 0 V
6338 0 R
-31 0 V
938 2429 M
31 0 V
6338 0 R
-31 0 V
938 2491 M
31 0 V
6338 0 R
-31 0 V
938 2546 M
31 0 V
6338 0 R
-31 0 V
stroke
1.000 UL
LTa
0.84 0.88 0.79 C 938 2595 M
6369 0 V
stroke
1.500 UL
LTb
0.42 0.42 0.42 C 938 2595 M
63 0 V
6306 0 R
-63 0 V
stroke
0.42 0.42 0.42 C 854 2595 M
[ [(SVBasic Manual) 120.0 0.0 true true 0 ( 100000)]
] -40.0 MRshow
1.500 UL
LTb
0.42 0.42 0.42 C 938 2918 M
31 0 V
6338 0 R
-31 0 V
938 3107 M
31 0 V
6338 0 R
-31 0 V
938 448 M
0 31 V
0 2700 R
0 -31 V
stroke
1.000 UL
LTa
0.84 0.88 0.79 C 1078 448 M
0 2731 V
stroke
1.500 UL
LTb
0.42 0.42 0.42 C 1078 448 M
0 63 V
0 2668 R
0 -63 V
stroke
0.42 0.42 0.42 C 1078 308 M
[ [(SVBasic Manual) 120.0 0.0 true true 0 ( 1000)]
] -40.0 MCshow
1.500 UL
LTb
0.42 0.42 0.42 C 1996 448 M
0 31 V
0 2700 R
0 -31 V
2534 448 M
0 31 V
0 2700 R
0 -31 V
2915 448 M
0 31 V
0 2700 R
0 -31 V
3211 448 M
0 31 V
0 2700 R
0 -31 V
3452 448 M
0 31 V
0 2700 R
0 -31 V
3656 448 M
0 31 V
0 2700 R
0 -31 V
3833 448 M
0 31 V
0 2700 R
0 -31 V
3990 448 M
0 31 V
0 2700 R
0 -31 V
stroke
1.000 UL
LTa
0.84 0.88 0.79 C 4129 448 M
0 2731 V
stroke
1.500 UL
LTb
0.42 0.42 0.42 C 4129 448 M
0 63 V
0 2668 R
0 -63 V
stroke
0.42 0.42 0.42 C 4129 308 M
[ [(SVBasic Manual) 120.0 0.0 true true 0 ( 10000)]
] -40.0 MCshow
1.500 UL
LTb
0.42 0.42 0.42 C 5048 448 M
0 31 V
0 2700 R
0 -31 V
5585 448 M
0 31 V
0 2700 R
0 -31 V
5966 448 M
0 31 V
0 2700 R
0 -31 V
6262 448 M
0 31 V
0 2700 R
0 -31 V
6504 448 M
0 31 V
0 2700 R
0 -31 V
6708 448 M
0 31 V
0 2700 R
0 -31 V
6885 448 M
0 31 V
0 2700 R
0 -31 V
7041 448 M
0 31 V
0 2700 R
0 -31 V
stroke
1.000 UL
LTa
0.84 0.88 0.79 C 7181 448 M
0 63 V
0 840 R
0 1828 V
stroke
1.500 UL
LTb
0.42 0.42 0.42 C 7181 448 M
0 63 V
0 2668 R
0 -63 V
stroke
0.42 0.42 0.42 C 7181 308 M
[ [(SVBasic Manual) 120.0 0.0 true true 0 ( 100000)]
] -40.0 MCshow
1.500 UL
LTb
0.42 0.42 0.42 C 1.500 UL
LTb
0.42 0.42 0.42 C 938 3179 N
938 448 L
6369 0 V
0 2731 V
-6369 0 V
Z stroke
0.42 0.42 0.42 C 112 1813 M
currentpoint gsave translate -270 rotate 0 0 moveto
[ [(SVBasic Manual) 120.0 0.0 true true 0 (Time \()]
[(Symbol) 120.0 0.0 true true 0 (m)]
[(SVBasic Manual) 120.0 0.0 true true 0 (s\))]
] -40.0 MCshow
grestore
LTb
0.42 0.42 0.42 C 4122 98 M
[ [(SVBasic Manual) 120.0 0.0 true true 0 (World Model Size \(No. of Attributes\))]
] -40.0 MCshow
LTb
0.42 0.42 0.42 C 4122 3389 M
[ [(SVBasic Manual) 150.0 0.0 true true 0 (MySQL World Model Performance: 10% Range Request)]
] -50.0 MCshow
LTb
1.000 UP
0.42 0.42 0.42 C 1.500 UL
LTb
0.42 0.42 0.42 C 1.000 UL
LTb
LCb setrgbcolor
5060 511 N
0 840 V
2163 0 V
0 -840 V
-2163 0 V
Z stroke
% Begin plot #1
2.000 UL
LT0
LC0 setrgbcolor
LCb setrgbcolor
6656 1141 M
[ [(SVBasic Manual) 120.0 0.0 true true 0 (1-Minute Expirations)]
] -40.0 MRshow
LT0
LC0 setrgbcolor
0.500 6740 1106 399 70 BoxColFill
6740 1106 N
399 0 V
0 70 V
-399 0 V
0 -70 V
Z stroke
LT0
LC0 setrgbcolor
0.500 1063 819 30 22 BoxColFill
1078 792 M
0 27 V
0 22 R
0 24 V
stroke
1063 841 N
30 0 V
0 -22 V
-30 0 V
0 22 V
Z stroke
1063 865 M
30 0 V
-30 -73 R
30 0 V
stroke
0.500 1981 1099 30 28 BoxColFill
1996 1066 M
0 33 V
0 28 R
0 29 V
stroke
1981 1127 N
30 0 V
0 -28 V
-30 0 V
0 28 V
Z stroke
1981 1156 M
30 0 V
-30 -90 R
30 0 V
stroke
0.500 2519 1246 30 25 BoxColFill
2534 1218 M
0 28 V
0 25 R
0 26 V
stroke
2519 1271 N
30 0 V
0 -25 V
-30 0 V
0 25 V
Z stroke
2519 1297 M
30 0 V
-30 -79 R
30 0 V
stroke
0.500 2900 1357 30 17 BoxColFill
2915 1338 M
0 19 V
0 17 R
0 18 V
stroke
2900 1374 N
30 0 V
0 -17 V
-30 0 V
0 17 V
Z stroke
2900 1392 M
30 0 V
-30 -54 R
30 0 V
stroke
0.500 3196 1459 30 29 BoxColFill
3211 1424 M
0 35 V
0 29 R
0 30 V
stroke
3196 1488 N
30 0 V
0 -29 V
-30 0 V
0 29 V
Z stroke
3196 1518 M
30 0 V
-30 -94 R
30 0 V
stroke
0.500 4114 1762 30 22 BoxColFill
4129 1738 M
0 24 V
0 22 R
0 22 V
stroke
4114 1784 N
30 0 V
0 -22 V
-30 0 V
0 22 V
Z stroke
4114 1806 M
30 0 V
-30 -68 R
30 0 V
stroke
0.500 5033 2108 30 21 BoxColFill
5048 2084 M
0 24 V
0 21 R
0 22 V
stroke
5033 2129 N
30 0 V
0 -21 V
-30 0 V
0 21 V
Z stroke
5033 2151 M
30 0 V
-30 -67 R
30 0 V
stroke
0.500 5570 2299 30 25 BoxColFill
5585 2270 M
0 29 V
0 25 R
0 26 V
stroke
5570 2324 N
30 0 V
0 -25 V
-30 0 V
0 25 V
Z stroke
5570 2350 M
30 0 V
-30 -80 R
30 0 V
stroke
0.500 5951 2433 30 30 BoxColFill
5966 2397 M
0 36 V
0 30 R
0 31 V
stroke
5951 2463 N
30 0 V
0 -30 V
-30 0 V
0 30 V
Z stroke
5951 2494 M
30 0 V
-30 -97 R
30 0 V
stroke
0.500 6247 2640 30 41 BoxColFill
6262 2591 M
0 49 V
0 41 R
0 41 V
stroke
6247 2681 N
30 0 V
0 -41 V
-30 0 V
0 41 V
Z stroke
6247 2722 M
30 0 V
-30 -131 R
30 0 V
stroke
0.500 7166 3020 30 15 BoxColFill
7181 3003 M
0 17 V
0 15 R
0 16 V
stroke
7166 3035 N
30 0 V
0 -15 V
-30 0 V
0 15 V
Z stroke
7166 3051 M
30 0 V
-30 -48 R
30 0 V
% End plot #1
% Begin plot #2
1.000 UP
stroke
LT1
LC0 setrgbcolor
LCb setrgbcolor
6656 1001 M
[ [(SVBasic Manual) 120.0 0.0 true true 0 (99 Percentile)]
] -40.0 MRshow
LT1
LC0 setrgbcolor
6740 1001 M
399 0 V
1078 916 M
918 289 V
538 144 V
381 81 V
296 149 V
918 273 V
919 331 V
537 213 V
381 135 V
296 276 V
919 270 V
1078 916 BoxF
1996 1205 BoxF
2534 1349 BoxF
2915 1430 BoxF
3211 1579 BoxF
4129 1852 BoxF
5048 2183 BoxF
5585 2396 BoxF
5966 2531 BoxF
6262 2807 BoxF
7181 3077 BoxF
6939 1001 BoxF
% End plot #2
% Begin plot #3
2.000 UL
LT2
LC1 setrgbcolor
LCb setrgbcolor
6656 861 M
[ [(SVBasic Manual) 120.0 0.0 true true 0 (No Expirations)]
] -40.0 MRshow
LT2
LC1 setrgbcolor
0.500 6740 826 399 70 BoxColFill
6740 826 N
399 0 V
0 70 V
-399 0 V
0 -70 V
Z stroke
LT2
LC1 setrgbcolor
0.500 1063 825 30 18 BoxColFill
1078 804 M
0 21 V
0 18 R
0 20 V
stroke
1063 843 N
30 0 V
0 -18 V
-30 0 V
0 18 V
Z stroke
1063 863 M
30 0 V
-30 -59 R
30 0 V
stroke
0.500 1981 1088 30 26 BoxColFill
1996 1059 M
0 29 V
0 26 R
0 26 V
stroke
1981 1114 N
30 0 V
0 -26 V
-30 0 V
0 26 V
Z stroke
1981 1140 M
30 0 V
-30 -81 R
30 0 V
stroke
0.500 2519 1244 30 17 BoxColFill
2534 1226 M
0 18 V
0 17 R
0 17 V
stroke
2519 1261 N
30 0 V
0 -17 V
-30 0 V
0 17 V
Z stroke
2519 1278 M
30 0 V
-30 -52 R
30 0 V
stroke
0.500 2900 1362 30 29 BoxColFill
2915 1329 M
0 33 V
0 29 R
0 30 V
stroke
2900 1391 N
30 0 V
0 -29 V
-30 0 V
0 29 V
Z stroke
2900 1421 M
30 0 V
-30 -92 R
30 0 V
stroke
0.500 3196 1454 30 18 BoxColFill
3211 1434 M
0 20 V
0 18 R
0 19 V
stroke
3196 1472 N
30 0 V
0 -18 V
-30 0 V
0 18 V
Z stroke
3196 1491 M
30 0 V
-30 -57 R
30 0 V
stroke
0.500 4114 1775 30 42 BoxColFill
4129 1724 M
0 51 V
0 42 R
0 42 V
stroke
4114 1817 N
30 0 V
0 -42 V
-30 0 V
0 42 V
Z stroke
4114 1859 M
30 0 V
-30 -135 R
30 0 V
stroke
0.500 5033 2136 30 24 BoxColFill
5048 2108 M
0 28 V
0 24 R
0 26 V
stroke
5033 2160 N
30 0 V
0 -24 V
-30 0 V
0 24 V
Z stroke
5033 2186 M
30 0 V
-30 -78 R
30 0 V
stroke
0.500 5570 2307 30 29 BoxColFill
5585 2274 M
0 33 V
0 29 R
0 29 V
stroke
5570 2336 N
30 0 V
0 -29 V
-30 0 V
0 29 V
Z stroke
5570 2365 M
30 0 V
-30 -91 R
30 0 V
stroke
0.500 5951 2474 30 30 BoxColFill
5966 2439 M
0 35 V
0 30 R
0 31 V
stroke
5951 2504 N
30 0 V
0 -30 V
-30 0 V
0 30 V
Z stroke
5951 2535 M
30 0 V
-30 -96 R
30 0 V
stroke
0.500 6247 2678 30 23 BoxColFill
6262 2651 M
0 27 V
0 23 R
0 25 V
stroke
6247 2701 N
30 0 V
0 -23 V
-30 0 V
0 23 V
Z stroke
6247 2726 M
30 0 V
-30 -75 R
30 0 V
stroke
0.500 7166 2982 30 17 BoxColFill
7181 2964 M
0 18 V
0 17 R
0 17 V
stroke
7166 2999 N
30 0 V
0 -17 V
-30 0 V
0 17 V
Z stroke
7166 3016 M
30 0 V
-30 -52 R
30 0 V
% End plot #3
% Begin plot #4
1.000 UP
stroke
LT3
LC1 setrgbcolor
LCb setrgbcolor
6656 721 M
[ [(SVBasic Manual) 120.0 0.0 true true 0 (99 Percentile)]
] -40.0 MRshow
LT3
LC1 setrgbcolor
6740 721 M
399 0 V
1078 899 M
918 265 V
538 151 V
381 174 V
296 36 V
918 424 V
919 275 V
537 200 V
381 155 V
296 173 V
919 292 V
1078 899 DiaF
1996 1164 DiaF
2534 1315 DiaF
2915 1489 DiaF
3211 1525 DiaF
4129 1949 DiaF
5048 2224 DiaF
5585 2424 DiaF
5966 2579 DiaF
6262 2752 DiaF
7181 3044 DiaF
6939 721 DiaF
% End plot #4
1.500 UL
LTb
0.42 0.42 0.42 C 938 3179 N
938 448 L
6369 0 V
0 2731 V
-6369 0 V
Z stroke
1.000 UP
1.500 UL
LTb
0.42 0.42 0.42 C stroke
grestore
end
showpage
%%Trailer
%%DocumentFonts: Symbol Helvetica
%%Pages: 1
