%!PS-Adobe-2.0
%%Title: sqlite3.wm.range01.eps
%%Creator: gnuplot 4.6 patchlevel 4
%%CreationDate: Thu Aug 28 19:25:59 2014
%%DocumentFonts: (atend)
%%BoundingBox: 50 50 410 806
%%Orientation: Landscape
%%Pages: (atend)
%%EndComments
%%BeginProlog
/gnudict 256 dict def
gnudict begin
%
% The following true/false flags may be edited by hand if desired.
% The unit line width and grayscale image gamma correction may also be changed.
%
/Color true def
/Blacktext false def
/Solid false def
/Dashlength 1 def
/Landscape true def
/Level1 false def
/Rounded false def
/ClipToBoundingBox false def
/SuppressPDFMark false def
/TransparentPatterns false def
/gnulinewidth 5.000 def
/userlinewidth gnulinewidth def
/Gamma 1.0 def
/BackgroundColor {-1.000 -1.000 -1.000} def
%
/vshift -46 def
/dl1 {
  10.0 Dashlength mul mul
  Rounded { currentlinewidth 0.75 mul sub dup 0 le { pop 0.01 } if } if
} def
/dl2 {
  10.0 Dashlength mul mul
  Rounded { currentlinewidth 0.75 mul add } if
} def
/hpt_ 31.5 def
/vpt_ 31.5 def
/hpt hpt_ def
/vpt vpt_ def
/doclip {
  ClipToBoundingBox {
    newpath 50 50 moveto 410 50 lineto 410 806 lineto 50 806 lineto closepath
    clip
  } if
} def
%
% Gnuplot Prolog Version 4.6 (September 2012)
%
%/SuppressPDFMark true def
%
/M {moveto} bind def
/L {lineto} bind def
/R {rmoveto} bind def
/V {rlineto} bind def
/N {newpath moveto} bind def
/Z {closepath} bind def
/C {setrgbcolor} bind def
/f {rlineto fill} bind def
/g {setgray} bind def
/Gshow {show} def   % May be redefined later in the file to support UTF-8
/vpt2 vpt 2 mul def
/hpt2 hpt 2 mul def
/Lshow {currentpoint stroke M 0 vshift R 
	Blacktext {gsave 0 setgray show grestore} {show} ifelse} def
/Rshow {currentpoint stroke M dup stringwidth pop neg vshift R
	Blacktext {gsave 0 setgray show grestore} {show} ifelse} def
/Cshow {currentpoint stroke M dup stringwidth pop -2 div vshift R 
	Blacktext {gsave 0 setgray show grestore} {show} ifelse} def
/UP {dup vpt_ mul /vpt exch def hpt_ mul /hpt exch def
  /hpt2 hpt 2 mul def /vpt2 vpt 2 mul def} def
/DL {Color {setrgbcolor Solid {pop []} if 0 setdash}
 {pop pop pop 0 setgray Solid {pop []} if 0 setdash} ifelse} def
/BL {stroke userlinewidth 2 mul setlinewidth
	Rounded {1 setlinejoin 1 setlinecap} if} def
/AL {stroke userlinewidth 2 div setlinewidth
	Rounded {1 setlinejoin 1 setlinecap} if} def
/UL {dup gnulinewidth mul /userlinewidth exch def
	dup 1 lt {pop 1} if 10 mul /udl exch def} def
/PL {stroke userlinewidth setlinewidth
	Rounded {1 setlinejoin 1 setlinecap} if} def
3.8 setmiterlimit
% Default Line colors
/LCw {1 1 1} def
/LCb {0 0 0} def
/LCa {0 0 0} def
/LC0 {1 0 0} def
/LC1 {0 1 0} def
/LC2 {0 0 1} def
/LC3 {1 0 1} def
/LC4 {0 1 1} def
/LC5 {1 1 0} def
/LC6 {0 0 0} def
/LC7 {1 0.3 0} def
/LC8 {0.5 0.5 0.5} def
% Default Line Types
/LTw {PL [] 1 setgray} def
/LTb {BL [] LCb DL} def
/LTa {AL [1 udl mul 2 udl mul] 0 setdash LCa setrgbcolor} def
/LT0 {PL [] LC0 DL} def
/LT1 {PL [4 dl1 2 dl2] LC1 DL} def
/LT2 {PL [2 dl1 3 dl2] LC2 DL} def
/LT3 {PL [1 dl1 1.5 dl2] LC3 DL} def
/LT4 {PL [6 dl1 2 dl2 1 dl1 2 dl2] LC4 DL} def
/LT5 {PL [3 dl1 3 dl2 1 dl1 3 dl2] LC5 DL} def
/LT6 {PL [2 dl1 2 dl2 2 dl1 6 dl2] LC6 DL} def
/LT7 {PL [1 dl1 2 dl2 6 dl1 2 dl2 1 dl1 2 dl2] LC7 DL} def
/LT8 {PL [2 dl1 2 dl2 2 dl1 2 dl2 2 dl1 2 dl2 2 dl1 4 dl2] LC8 DL} def
/Pnt {stroke [] 0 setdash gsave 1 setlinecap M 0 0 V stroke grestore} def
/Dia {stroke [] 0 setdash 2 copy vpt add M
  hpt neg vpt neg V hpt vpt neg V
  hpt vpt V hpt neg vpt V closepath stroke
  Pnt} def
/Pls {stroke [] 0 setdash vpt sub M 0 vpt2 V
  currentpoint stroke M
  hpt neg vpt neg R hpt2 0 V stroke
 } def
/Box {stroke [] 0 setdash 2 copy exch hpt sub exch vpt add M
  0 vpt2 neg V hpt2 0 V 0 vpt2 V
  hpt2 neg 0 V closepath stroke
  Pnt} def
/Crs {stroke [] 0 setdash exch hpt sub exch vpt add M
  hpt2 vpt2 neg V currentpoint stroke M
  hpt2 neg 0 R hpt2 vpt2 V stroke} def
/TriU {stroke [] 0 setdash 2 copy vpt 1.12 mul add M
  hpt neg vpt -1.62 mul V
  hpt 2 mul 0 V
  hpt neg vpt 1.62 mul V closepath stroke
  Pnt} def
/Star {2 copy Pls Crs} def
/BoxF {stroke [] 0 setdash exch hpt sub exch vpt add M
  0 vpt2 neg V hpt2 0 V 0 vpt2 V
  hpt2 neg 0 V closepath fill} def
/TriUF {stroke [] 0 setdash vpt 1.12 mul add M
  hpt neg vpt -1.62 mul V
  hpt 2 mul 0 V
  hpt neg vpt 1.62 mul V closepath fill} def
/TriD {stroke [] 0 setdash 2 copy vpt 1.12 mul sub M
  hpt neg vpt 1.62 mul V
  hpt 2 mul 0 V
  hpt neg vpt -1.62 mul V closepath stroke
  Pnt} def
/TriDF {stroke [] 0 setdash vpt 1.12 mul sub M
  hpt neg vpt 1.62 mul V
  hpt 2 mul 0 V
  hpt neg vpt -1.62 mul V closepath fill} def
/DiaF {stroke [] 0 setdash vpt add M
  hpt neg vpt neg V hpt vpt neg V
  hpt vpt V hpt neg vpt V closepath fill} def
/Pent {stroke [] 0 setdash 2 copy gsave
  translate 0 hpt M 4 {72 rotate 0 hpt L} repeat
  closepath stroke grestore Pnt} def
/PentF {stroke [] 0 setdash gsave
  translate 0 hpt M 4 {72 rotate 0 hpt L} repeat
  closepath fill grestore} def
/Circle {stroke [] 0 setdash 2 copy
  hpt 0 360 arc stroke Pnt} def
/CircleF {stroke [] 0 setdash hpt 0 360 arc fill} def
/C0 {BL [] 0 setdash 2 copy moveto vpt 90 450 arc} bind def
/C1 {BL [] 0 setdash 2 copy moveto
	2 copy vpt 0 90 arc closepath fill
	vpt 0 360 arc closepath} bind def
/C2 {BL [] 0 setdash 2 copy moveto
	2 copy vpt 90 180 arc closepath fill
	vpt 0 360 arc closepath} bind def
/C3 {BL [] 0 setdash 2 copy moveto
	2 copy vpt 0 180 arc closepath fill
	vpt 0 360 arc closepath} bind def
/C4 {BL [] 0 setdash 2 copy moveto
	2 copy vpt 180 270 arc closepath fill
	vpt 0 360 arc closepath} bind def
/C5 {BL [] 0 setdash 2 copy moveto
	2 copy vpt 0 90 arc
	2 copy moveto
	2 copy vpt 180 270 arc closepath fill
	vpt 0 360 arc} bind def
/C6 {BL [] 0 setdash 2 copy moveto
	2 copy vpt 90 270 arc closepath fill
	vpt 0 360 arc closepath} bind def
/C7 {BL [] 0 setdash 2 copy moveto
	2 copy vpt 0 270 arc closepath fill
	vpt 0 360 arc closepath} bind def
/C8 {BL [] 0 setdash 2 copy moveto
	2 copy vpt 270 360 arc closepath fill
	vpt 0 360 arc closepath} bind def
/C9 {BL [] 0 setdash 2 copy moveto
	2 copy vpt 270 450 arc closepath fill
	vpt 0 360 arc closepath} bind def
/C10 {BL [] 0 setdash 2 copy 2 copy moveto vpt 270 360 arc closepath fill
	2 copy moveto
	2 copy vpt 90 180 arc closepath fill
	vpt 0 360 arc closepath} bind def
/C11 {BL [] 0 setdash 2 copy moveto
	2 copy vpt 0 180 arc closepath fill
	2 copy moveto
	2 copy vpt 270 360 arc closepath fill
	vpt 0 360 arc closepath} bind def
/C12 {BL [] 0 setdash 2 copy moveto
	2 copy vpt 180 360 arc closepath fill
	vpt 0 360 arc closepath} bind def
/C13 {BL [] 0 setdash 2 copy moveto
	2 copy vpt 0 90 arc closepath fill
	2 copy moveto
	2 copy vpt 180 360 arc closepath fill
	vpt 0 360 arc closepath} bind def
/C14 {BL [] 0 setdash 2 copy moveto
	2 copy vpt 90 360 arc closepath fill
	vpt 0 360 arc} bind def
/C15 {BL [] 0 setdash 2 copy vpt 0 360 arc closepath fill
	vpt 0 360 arc closepath} bind def
/Rec {newpath 4 2 roll moveto 1 index 0 rlineto 0 exch rlineto
	neg 0 rlineto closepath} bind def
/Square {dup Rec} bind def
/Bsquare {vpt sub exch vpt sub exch vpt2 Square} bind def
/S0 {BL [] 0 setdash 2 copy moveto 0 vpt rlineto BL Bsquare} bind def
/S1 {BL [] 0 setdash 2 copy vpt Square fill Bsquare} bind def
/S2 {BL [] 0 setdash 2 copy exch vpt sub exch vpt Square fill Bsquare} bind def
/S3 {BL [] 0 setdash 2 copy exch vpt sub exch vpt2 vpt Rec fill Bsquare} bind def
/S4 {BL [] 0 setdash 2 copy exch vpt sub exch vpt sub vpt Square fill Bsquare} bind def
/S5 {BL [] 0 setdash 2 copy 2 copy vpt Square fill
	exch vpt sub exch vpt sub vpt Square fill Bsquare} bind def
/S6 {BL [] 0 setdash 2 copy exch vpt sub exch vpt sub vpt vpt2 Rec fill Bsquare} bind def
/S7 {BL [] 0 setdash 2 copy exch vpt sub exch vpt sub vpt vpt2 Rec fill
	2 copy vpt Square fill Bsquare} bind def
/S8 {BL [] 0 setdash 2 copy vpt sub vpt Square fill Bsquare} bind def
/S9 {BL [] 0 setdash 2 copy vpt sub vpt vpt2 Rec fill Bsquare} bind def
/S10 {BL [] 0 setdash 2 copy vpt sub vpt Square fill 2 copy exch vpt sub exch vpt Square fill
	Bsquare} bind def
/S11 {BL [] 0 setdash 2 copy vpt sub vpt Square fill 2 copy exch vpt sub exch vpt2 vpt Rec fill
	Bsquare} bind def
/S12 {BL [] 0 setdash 2 copy exch vpt sub exch vpt sub vpt2 vpt Rec fill Bsquare} bind def
/S13 {BL [] 0 setdash 2 copy exch vpt sub exch vpt sub vpt2 vpt Rec fill
	2 copy vpt Square fill Bsquare} bind def
/S14 {BL [] 0 setdash 2 copy exch vpt sub exch vpt sub vpt2 vpt Rec fill
	2 copy exch vpt sub exch vpt Square fill Bsquare} bind def
/S15 {BL [] 0 setdash 2 copy Bsquare fill Bsquare} bind def
/D0 {gsave translate 45 rotate 0 0 S0 stroke grestore} bind def
/D1 {gsave translate 45 rotate 0 0 S1 stroke grestore} bind def
/D2 {gsave translate 45 rotate 0 0 S2 stroke grestore} bind def
/D3 {gsave translate 45 rotate 0 0 S3 stroke grestore} bind def
/D4 {gsave translate 45 rotate 0 0 S4 stroke grestore} bind def
/D5 {gsave translate 45 rotate 0 0 S5 stroke grestore} bind def
/D6 {gsave translate 45 rotate 0 0 S6 stroke grestore} bind def
/D7 {gsave translate 45 rotate 0 0 S7 stroke grestore} bind def
/D8 {gsave translate 45 rotate 0 0 S8 stroke grestore} bind def
/D9 {gsave translate 45 rotate 0 0 S9 stroke grestore} bind def
/D10 {gsave translate 45 rotate 0 0 S10 stroke grestore} bind def
/D11 {gsave translate 45 rotate 0 0 S11 stroke grestore} bind def
/D12 {gsave translate 45 rotate 0 0 S12 stroke grestore} bind def
/D13 {gsave translate 45 rotate 0 0 S13 stroke grestore} bind def
/D14 {gsave translate 45 rotate 0 0 S14 stroke grestore} bind def
/D15 {gsave translate 45 rotate 0 0 S15 stroke grestore} bind def
/DiaE {stroke [] 0 setdash vpt add M
  hpt neg vpt neg V hpt vpt neg V
  hpt vpt V hpt neg vpt V closepath stroke} def
/BoxE {stroke [] 0 setdash exch hpt sub exch vpt add M
  0 vpt2 neg V hpt2 0 V 0 vpt2 V
  hpt2 neg 0 V closepath stroke} def
/TriUE {stroke [] 0 setdash vpt 1.12 mul add M
  hpt neg vpt -1.62 mul V
  hpt 2 mul 0 V
  hpt neg vpt 1.62 mul V closepath stroke} def
/TriDE {stroke [] 0 setdash vpt 1.12 mul sub M
  hpt neg vpt 1.62 mul V
  hpt 2 mul 0 V
  hpt neg vpt -1.62 mul V closepath stroke} def
/PentE {stroke [] 0 setdash gsave
  translate 0 hpt M 4 {72 rotate 0 hpt L} repeat
  closepath stroke grestore} def
/CircE {stroke [] 0 setdash 
  hpt 0 360 arc stroke} def
/Opaque {gsave closepath 1 setgray fill grestore 0 setgray closepath} def
/DiaW {stroke [] 0 setdash vpt add M
  hpt neg vpt neg V hpt vpt neg V
  hpt vpt V hpt neg vpt V Opaque stroke} def
/BoxW {stroke [] 0 setdash exch hpt sub exch vpt add M
  0 vpt2 neg V hpt2 0 V 0 vpt2 V
  hpt2 neg 0 V Opaque stroke} def
/TriUW {stroke [] 0 setdash vpt 1.12 mul add M
  hpt neg vpt -1.62 mul V
  hpt 2 mul 0 V
  hpt neg vpt 1.62 mul V Opaque stroke} def
/TriDW {stroke [] 0 setdash vpt 1.12 mul sub M
  hpt neg vpt 1.62 mul V
  hpt 2 mul 0 V
  hpt neg vpt -1.62 mul V Opaque stroke} def
/PentW {stroke [] 0 setdash gsave
  translate 0 hpt M 4 {72 rotate 0 hpt L} repeat
  Opaque stroke grestore} def
/CircW {stroke [] 0 setdash 
  hpt 0 360 arc Opaque stroke} def
/BoxFill {gsave Rec 1 setgray fill grestore} def
/Density {
  /Fillden exch def
  currentrgbcolor
  /ColB exch def /ColG exch def /ColR exch def
  /ColR ColR Fillden mul Fillden sub 1 add def
  /ColG ColG Fillden mul Fillden sub 1 add def
  /ColB ColB Fillden mul Fillden sub 1 add def
  ColR ColG ColB setrgbcolor} def
/BoxColFill {gsave Rec PolyFill} def
/PolyFill {gsave Density fill grestore grestore} def
/h {rlineto rlineto rlineto gsave closepath fill grestore} bind def
%
% PostScript Level 1 Pattern Fill routine for rectangles
% Usage: x y w h s a XX PatternFill
%	x,y = lower left corner of box to be filled
%	w,h = width and height of box
%	  a = angle in degrees between lines and x-axis
%	 XX = 0/1 for no/yes cross-hatch
%
/PatternFill {gsave /PFa [ 9 2 roll ] def
  PFa 0 get PFa 2 get 2 div add PFa 1 get PFa 3 get 2 div add translate
  PFa 2 get -2 div PFa 3 get -2 div PFa 2 get PFa 3 get Rec
  TransparentPatterns {} {gsave 1 setgray fill grestore} ifelse
  clip
  currentlinewidth 0.5 mul setlinewidth
  /PFs PFa 2 get dup mul PFa 3 get dup mul add sqrt def
  0 0 M PFa 5 get rotate PFs -2 div dup translate
  0 1 PFs PFa 4 get div 1 add floor cvi
	{PFa 4 get mul 0 M 0 PFs V} for
  0 PFa 6 get ne {
	0 1 PFs PFa 4 get div 1 add floor cvi
	{PFa 4 get mul 0 2 1 roll M PFs 0 V} for
 } if
  stroke grestore} def
%
/languagelevel where
 {pop languagelevel} {1} ifelse
 2 lt
	{/InterpretLevel1 true def}
	{/InterpretLevel1 Level1 def}
 ifelse
%
% PostScript level 2 pattern fill definitions
%
/Level2PatternFill {
/Tile8x8 {/PaintType 2 /PatternType 1 /TilingType 1 /BBox [0 0 8 8] /XStep 8 /YStep 8}
	bind def
/KeepColor {currentrgbcolor [/Pattern /DeviceRGB] setcolorspace} bind def
<< Tile8x8
 /PaintProc {0.5 setlinewidth pop 0 0 M 8 8 L 0 8 M 8 0 L stroke} 
>> matrix makepattern
/Pat1 exch def
<< Tile8x8
 /PaintProc {0.5 setlinewidth pop 0 0 M 8 8 L 0 8 M 8 0 L stroke
	0 4 M 4 8 L 8 4 L 4 0 L 0 4 L stroke}
>> matrix makepattern
/Pat2 exch def
<< Tile8x8
 /PaintProc {0.5 setlinewidth pop 0 0 M 0 8 L
	8 8 L 8 0 L 0 0 L fill}
>> matrix makepattern
/Pat3 exch def
<< Tile8x8
 /PaintProc {0.5 setlinewidth pop -4 8 M 8 -4 L
	0 12 M 12 0 L stroke}
>> matrix makepattern
/Pat4 exch def
<< Tile8x8
 /PaintProc {0.5 setlinewidth pop -4 0 M 8 12 L
	0 -4 M 12 8 L stroke}
>> matrix makepattern
/Pat5 exch def
<< Tile8x8
 /PaintProc {0.5 setlinewidth pop -2 8 M 4 -4 L
	0 12 M 8 -4 L 4 12 M 10 0 L stroke}
>> matrix makepattern
/Pat6 exch def
<< Tile8x8
 /PaintProc {0.5 setlinewidth pop -2 0 M 4 12 L
	0 -4 M 8 12 L 4 -4 M 10 8 L stroke}
>> matrix makepattern
/Pat7 exch def
<< Tile8x8
 /PaintProc {0.5 setlinewidth pop 8 -2 M -4 4 L
	12 0 M -4 8 L 12 4 M 0 10 L stroke}
>> matrix makepattern
/Pat8 exch def
<< Tile8x8
 /PaintProc {0.5 setlinewidth pop 0 -2 M 12 4 L
	-4 0 M 12 8 L -4 4 M 8 10 L stroke}
>> matrix makepattern
/Pat9 exch def
/Pattern1 {PatternBgnd KeepColor Pat1 setpattern} bind def
/Pattern2 {PatternBgnd KeepColor Pat2 setpattern} bind def
/Pattern3 {PatternBgnd KeepColor Pat3 setpattern} bind def
/Pattern4 {PatternBgnd KeepColor Landscape {Pat5} {Pat4} ifelse setpattern} bind def
/Pattern5 {PatternBgnd KeepColor Landscape {Pat4} {Pat5} ifelse setpattern} bind def
/Pattern6 {PatternBgnd KeepColor Landscape {Pat9} {Pat6} ifelse setpattern} bind def
/Pattern7 {PatternBgnd KeepColor Landscape {Pat8} {Pat7} ifelse setpattern} bind def
} def
%
%
%End of PostScript Level 2 code
%
/PatternBgnd {
  TransparentPatterns {} {gsave 1 setgray fill grestore} ifelse
} def
%
% Substitute for Level 2 pattern fill codes with
% grayscale if Level 2 support is not selected.
%
/Level1PatternFill {
/Pattern1 {0.250 Density} bind def
/Pattern2 {0.500 Density} bind def
/Pattern3 {0.750 Density} bind def
/Pattern4 {0.125 Density} bind def
/Pattern5 {0.375 Density} bind def
/Pattern6 {0.625 Density} bind def
/Pattern7 {0.875 Density} bind def
} def
%
% Now test for support of Level 2 code
%
Level1 {Level1PatternFill} {Level2PatternFill} ifelse
%
/Symbol-Oblique /Symbol findfont [1 0 .167 1 0 0] makefont
dup length dict begin {1 index /FID eq {pop pop} {def} ifelse} forall
currentdict end definefont pop
/MFshow {
   { dup 5 get 3 ge
     { 5 get 3 eq {gsave} {grestore} ifelse }
     {dup dup 0 get findfont exch 1 get scalefont setfont
     [ currentpoint ] exch dup 2 get 0 exch R dup 5 get 2 ne {dup dup 6
     get exch 4 get {Gshow} {stringwidth pop 0 R} ifelse }if dup 5 get 0 eq
     {dup 3 get {2 get neg 0 exch R pop} {pop aload pop M} ifelse} {dup 5
     get 1 eq {dup 2 get exch dup 3 get exch 6 get stringwidth pop -2 div
     dup 0 R} {dup 6 get stringwidth pop -2 div 0 R 6 get
     show 2 index {aload pop M neg 3 -1 roll neg R pop pop} {pop pop pop
     pop aload pop M} ifelse }ifelse }ifelse }
     ifelse }
   forall} def
/Gswidth {dup type /stringtype eq {stringwidth} {pop (n) stringwidth} ifelse} def
/MFwidth {0 exch { dup 5 get 3 ge { 5 get 3 eq { 0 } { pop } ifelse }
 {dup 3 get{dup dup 0 get findfont exch 1 get scalefont setfont
     6 get Gswidth pop add} {pop} ifelse} ifelse} forall} def
/MLshow { currentpoint stroke M
  0 exch R
  Blacktext {gsave 0 setgray MFshow grestore} {MFshow} ifelse } bind def
/MRshow { currentpoint stroke M
  exch dup MFwidth neg 3 -1 roll R
  Blacktext {gsave 0 setgray MFshow grestore} {MFshow} ifelse } bind def
/MCshow { currentpoint stroke M
  exch dup MFwidth -2 div 3 -1 roll R
  Blacktext {gsave 0 setgray MFshow grestore} {MFshow} ifelse } bind def
/XYsave    { [( ) 1 2 true false 3 ()] } bind def
/XYrestore { [( ) 1 2 true false 4 ()] } bind def
Level1 SuppressPDFMark or 
{} {
/SDict 10 dict def
systemdict /pdfmark known not {
  userdict /pdfmark systemdict /cleartomark get put
} if
SDict begin [
  /Title (sqlite3.wm.range01.eps)
  /Subject (gnuplot plot)
  /Creator (gnuplot 4.6 patchlevel 4)
  /Author (romoore)
%  /Producer (gnuplot)
%  /Keywords ()
  /CreationDate (Thu Aug 28 19:25:59 2014)
  /DOCINFO pdfmark
end
} ifelse
end
%%EndProlog
%%Page: 1 1
gnudict begin
gsave
doclip
50 50 translate
0.100 0.100 scale
90 rotate
0 -3600 translate
0 setgray
newpath
(Helvetica) findfont 140 scalefont setfont
BackgroundColor 0 lt 3 1 roll 0 lt exch 0 lt or or not {gsave BackgroundColor C clippath fill grestore} if
1.500 UL
LTb
0.42 0.42 0.42 C 938 448 M
31 0 V
6338 0 R
-31 0 V
stroke
1.000 UL
LTa
0.84 0.88 0.79 C 938 498 M
6369 0 V
stroke
1.500 UL
LTb
0.42 0.42 0.42 C 938 498 M
63 0 V
6306 0 R
-63 0 V
stroke
0.42 0.42 0.42 C 854 498 M
[ [(SVBasic Manual) 120.0 0.0 true true 0 ( 1000)]
] -40.0 MRshow
1.500 UL
LTb
0.42 0.42 0.42 C 938 823 M
31 0 V
6338 0 R
-31 0 V
938 1014 M
31 0 V
6338 0 R
-31 0 V
938 1149 M
31 0 V
6338 0 R
-31 0 V
938 1254 M
31 0 V
6338 0 R
-31 0 V
938 1340 M
31 0 V
6338 0 R
-31 0 V
938 1412 M
31 0 V
6338 0 R
-31 0 V
938 1475 M
31 0 V
6338 0 R
-31 0 V
938 1530 M
31 0 V
6338 0 R
-31 0 V
stroke
1.000 UL
LTa
0.84 0.88 0.79 C 938 1580 M
6369 0 V
stroke
1.500 UL
LTb
0.42 0.42 0.42 C 938 1580 M
63 0 V
6306 0 R
-63 0 V
stroke
0.42 0.42 0.42 C 854 1580 M
[ [(SVBasic Manual) 120.0 0.0 true true 0 ( 10000)]
] -40.0 MRshow
1.500 UL
LTb
0.42 0.42 0.42 C 938 1906 M
31 0 V
6338 0 R
-31 0 V
938 2097 M
31 0 V
6338 0 R
-31 0 V
938 2232 M
31 0 V
6338 0 R
-31 0 V
938 2337 M
31 0 V
6338 0 R
-31 0 V
938 2422 M
31 0 V
6338 0 R
-31 0 V
938 2495 M
31 0 V
6338 0 R
-31 0 V
938 2558 M
31 0 V
6338 0 R
-31 0 V
938 2613 M
31 0 V
6338 0 R
-31 0 V
stroke
1.000 UL
LTa
0.84 0.88 0.79 C 938 2663 M
6369 0 V
stroke
1.500 UL
LTb
0.42 0.42 0.42 C 938 2663 M
63 0 V
6306 0 R
-63 0 V
stroke
0.42 0.42 0.42 C 854 2663 M
[ [(SVBasic Manual) 120.0 0.0 true true 0 ( 100000)]
] -40.0 MRshow
1.500 UL
LTb
0.42 0.42 0.42 C 938 2988 M
31 0 V
6338 0 R
-31 0 V
938 3179 M
31 0 V
6338 0 R
-31 0 V
938 448 M
0 31 V
0 2700 R
0 -31 V
stroke
1.000 UL
LTa
0.84 0.88 0.79 C 1060 448 M
0 2731 V
stroke
1.500 UL
LTb
0.42 0.42 0.42 C 1060 448 M
0 63 V
0 2668 R
0 -63 V
stroke
0.42 0.42 0.42 C 1060 308 M
[ [(SVBasic Manual) 120.0 0.0 true true 0 ( 10000)]
] -40.0 MCshow
1.500 UL
LTb
0.42 0.42 0.42 C 1863 448 M
0 31 V
0 2700 R
0 -31 V
2332 448 M
0 31 V
0 2700 R
0 -31 V
2666 448 M
0 31 V
0 2700 R
0 -31 V
2924 448 M
0 31 V
0 2700 R
0 -31 V
3135 448 M
0 31 V
0 2700 R
0 -31 V
3314 448 M
0 31 V
0 2700 R
0 -31 V
3468 448 M
0 31 V
0 2700 R
0 -31 V
3605 448 M
0 31 V
0 2700 R
0 -31 V
stroke
1.000 UL
LTa
0.84 0.88 0.79 C 3727 448 M
0 2731 V
stroke
1.500 UL
LTb
0.42 0.42 0.42 C 3727 448 M
0 63 V
0 2668 R
0 -63 V
stroke
0.42 0.42 0.42 C 3727 308 M
[ [(SVBasic Manual) 120.0 0.0 true true 0 ( 100000)]
] -40.0 MCshow
1.500 UL
LTb
0.42 0.42 0.42 C 4530 448 M
0 31 V
0 2700 R
0 -31 V
4999 448 M
0 31 V
0 2700 R
0 -31 V
5333 448 M
0 31 V
0 2700 R
0 -31 V
5591 448 M
0 31 V
0 2700 R
0 -31 V
5802 448 M
0 31 V
0 2700 R
0 -31 V
5981 448 M
0 31 V
0 2700 R
0 -31 V
6135 448 M
0 31 V
0 2700 R
0 -31 V
6272 448 M
0 31 V
0 2700 R
0 -31 V
stroke
1.000 UL
LTa
0.84 0.88 0.79 C 6394 448 M
0 63 V
0 840 R
0 1828 V
stroke
1.500 UL
LTb
0.42 0.42 0.42 C 6394 448 M
0 63 V
0 2668 R
0 -63 V
stroke
0.42 0.42 0.42 C 6394 308 M
[ [(SVBasic Manual) 120.0 0.0 true true 0 ( 1e+06)]
] -40.0 MCshow
1.500 UL
LTb
0.42 0.42 0.42 C 7197 448 M
0 31 V
0 2700 R
0 -31 V
stroke
LTb
0.42 0.42 0.42 C 938 3179 N
938 448 L
6369 0 V
0 2731 V
-6369 0 V
Z stroke
0.42 0.42 0.42 C 112 1813 M
currentpoint gsave translate -270 rotate 0 0 moveto
[ [(SVBasic Manual) 120.0 0.0 true true 0 (Time \()]
[(Symbol) 120.0 0.0 true true 0 (m)]
[(SVBasic Manual) 120.0 0.0 true true 0 (s\))]
] -40.0 MCshow
grestore
LTb
0.42 0.42 0.42 C 4122 98 M
[ [(SVBasic Manual) 120.0 0.0 true true 0 (World Model Size \(No. of Attributes\))]
] -40.0 MCshow
LTb
0.42 0.42 0.42 C 4122 3389 M
[ [(SVBasic Manual) 150.0 0.0 true true 0 (SQLite World Model Performance: 1% Range Request)]
] -50.0 MCshow
LTb
1.000 UP
0.42 0.42 0.42 C 1.500 UL
LTb
0.42 0.42 0.42 C 1.000 UL
LTb
LCb setrgbcolor
5060 511 N
0 840 V
2163 0 V
0 -840 V
-2163 0 V
Z stroke
% Begin plot #1
2.000 UL
LT0
LC0 setrgbcolor
LCb setrgbcolor
6656 1141 M
[ [(SVBasic Manual) 120.0 0.0 true true 0 (1-Minute Expirations)]
] -40.0 MRshow
LT0
LC0 setrgbcolor
0.500 6740 1106 399 70 BoxColFill
6740 1106 N
399 0 V
0 70 V
-399 0 V
0 -70 V
Z stroke
LT0
LC0 setrgbcolor
0.500 1045 478 30 2 BoxColFill
1060 468 M
0 10 V
0 2 R
0 10 V
stroke
1045 480 N
30 0 V
0 -2 V
-30 0 V
0 2 V
Z stroke
1045 490 M
30 0 V
-30 -22 R
30 0 V
stroke
0.500 1848 766 30 0 BoxColFill
1863 761 M
0 5 V
0 5 V
stroke
1848 766 N
30 0 V
-30 0 V
Z stroke
1848 771 M
30 0 V
-30 -10 R
30 0 V
stroke
0.500 2317 1040 30 4 BoxColFill
2332 1023 M
0 17 V
0 4 R
0 17 V
stroke
2317 1044 N
30 0 V
0 -4 V
-30 0 V
0 4 V
Z stroke
2317 1061 M
30 0 V
-30 -38 R
30 0 V
stroke
0.500 2651 1149 30 5 BoxColFill
2666 1129 M
0 20 V
0 5 R
0 20 V
stroke
2651 1154 N
30 0 V
0 -5 V
-30 0 V
0 5 V
Z stroke
2651 1174 M
30 0 V
-30 -45 R
30 0 V
stroke
0.500 2909 1237 30 1 BoxColFill
2924 1235 M
0 2 V
0 1 R
0 2 V
stroke
2909 1238 N
30 0 V
0 -1 V
-30 0 V
0 1 V
Z stroke
2909 1240 M
30 0 V
-30 -5 R
30 0 V
stroke
0.500 3712 1550 30 0 BoxColFill
3727 1547 M
0 3 V
0 3 V
stroke
3712 1550 N
30 0 V
-30 0 V
Z stroke
3712 1553 M
30 0 V
-30 -6 R
30 0 V
stroke
0.500 4515 1864 30 1 BoxColFill
4530 1861 M
0 3 V
0 1 R
0 2 V
stroke
4515 1865 N
30 0 V
0 -1 V
-30 0 V
0 1 V
Z stroke
4515 1867 M
30 0 V
-30 -6 R
30 0 V
stroke
0.500 4984 2120 30 2 BoxColFill
4999 2109 M
0 11 V
0 2 R
0 10 V
stroke
4984 2122 N
30 0 V
0 -2 V
-30 0 V
0 2 V
Z stroke
4984 2132 M
30 0 V
-30 -23 R
30 0 V
stroke
0.500 5318 2189 30 2 BoxColFill
5333 2179 M
0 10 V
0 2 R
0 8 V
stroke
5318 2191 N
30 0 V
0 -2 V
-30 0 V
0 2 V
Z stroke
5318 2199 M
30 0 V
-30 -20 R
30 0 V
stroke
0.500 5576 2355 30 3 BoxColFill
5591 2343 M
0 12 V
0 3 R
0 11 V
stroke
5576 2358 N
30 0 V
0 -3 V
-30 0 V
0 3 V
Z stroke
5576 2369 M
30 0 V
-30 -26 R
30 0 V
stroke
0.500 6379 2645 30 3 BoxColFill
6394 2633 M
0 12 V
0 3 R
0 11 V
stroke
6379 2648 N
30 0 V
0 -3 V
-30 0 V
0 3 V
Z stroke
6379 2659 M
30 0 V
-30 -26 R
30 0 V
stroke
0.500 7182 2993 30 5 BoxColFill
7197 2969 M
0 24 V
0 5 R
0 23 V
stroke
7182 2998 N
30 0 V
0 -5 V
-30 0 V
0 5 V
Z stroke
7182 3021 M
30 0 V
-30 -52 R
30 0 V
% End plot #1
% Begin plot #2
1.000 UP
stroke
LT1
LC0 setrgbcolor
LCb setrgbcolor
6656 1001 M
[ [(SVBasic Manual) 120.0 0.0 true true 0 (99 Percentile)]
] -40.0 MRshow
LT1
LC0 setrgbcolor
6740 1001 M
399 0 V
1060 496 M
803 284 V
469 278 V
334 123 V
258 61 V
803 314 V
803 314 V
469 290 V
334 74 V
258 128 V
803 338 V
803 340 V
1060 496 BoxF
1863 780 BoxF
2332 1058 BoxF
2666 1181 BoxF
2924 1242 BoxF
3727 1556 BoxF
4530 1870 BoxF
4999 2160 BoxF
5333 2234 BoxF
5591 2362 BoxF
6394 2700 BoxF
7197 3040 BoxF
6939 1001 BoxF
% End plot #2
% Begin plot #3
2.000 UL
LT2
LC1 setrgbcolor
LCb setrgbcolor
6656 861 M
[ [(SVBasic Manual) 120.0 0.0 true true 0 (No Expirations)]
] -40.0 MRshow
LT2
LC1 setrgbcolor
0.500 6740 826 399 70 BoxColFill
6740 826 N
399 0 V
0 70 V
-399 0 V
0 -70 V
Z stroke
LT2
LC1 setrgbcolor
0.500 1045 498 30 0 BoxColFill
1060 493 M
0 5 V
0 4 V
stroke
1045 498 N
30 0 V
-30 0 V
Z stroke
1045 502 M
30 0 V
-30 -9 R
30 0 V
stroke
0.500 1848 776 30 0 BoxColFill
1863 773 M
0 3 V
0 4 V
stroke
1848 776 N
30 0 V
-30 0 V
Z stroke
1848 780 M
30 0 V
-30 -7 R
30 0 V
stroke
0.500 2317 960 30 3 BoxColFill
2332 944 M
0 16 V
0 3 R
0 16 V
stroke
2317 963 N
30 0 V
0 -3 V
-30 0 V
0 3 V
Z stroke
2317 979 M
30 0 V
-30 -35 R
30 0 V
stroke
0.500 2651 1148 30 3 BoxColFill
2666 1135 M
0 13 V
0 3 R
0 12 V
stroke
2651 1151 N
30 0 V
0 -3 V
-30 0 V
0 3 V
Z stroke
2651 1163 M
30 0 V
-30 -28 R
30 0 V
stroke
0.500 2909 1200 30 2 BoxColFill
2924 1191 M
0 9 V
0 2 R
0 9 V
stroke
2909 1202 N
30 0 V
0 -2 V
-30 0 V
0 2 V
Z stroke
2909 1211 M
30 0 V
-30 -20 R
30 0 V
stroke
0.500 3712 1529 30 1 BoxColFill
3727 1524 M
0 5 V
0 1 R
0 5 V
stroke
3712 1530 N
30 0 V
0 -1 V
-30 0 V
0 1 V
Z stroke
3712 1535 M
30 0 V
-30 -11 R
30 0 V
stroke
0.500 4515 1858 30 2 BoxColFill
4530 1845 M
0 13 V
0 2 R
0 13 V
stroke
4515 1860 N
30 0 V
0 -2 V
-30 0 V
0 2 V
Z stroke
4515 1873 M
30 0 V
-30 -28 R
30 0 V
% End plot #3
% Begin plot #4
1.000 UP
stroke
LT3
LC1 setrgbcolor
LCb setrgbcolor
6656 721 M
[ [(SVBasic Manual) 120.0 0.0 true true 0 (99 Percentile)]
] -40.0 MRshow
LT3
LC1 setrgbcolor
6740 721 M
399 0 V
1060 507 M
803 277 V
469 203 V
334 200 V
258 45 V
803 329 V
803 354 V
1060 507 DiaF
1863 784 DiaF
2332 987 DiaF
2666 1187 DiaF
2924 1232 DiaF
3727 1561 DiaF
4530 1915 DiaF
6939 721 DiaF
% End plot #4
1.500 UL
LTb
0.42 0.42 0.42 C 938 3179 N
938 448 L
6369 0 V
0 2731 V
-6369 0 V
Z stroke
1.000 UP
1.500 UL
LTb
0.42 0.42 0.42 C stroke
grestore
end
showpage
%%Trailer
%%DocumentFonts: Symbol Helvetica
%%Pages: 1
