%!PS-Adobe-2.0
%%Title: sqlite3.wm.snapshot.noexp.eps
%%Creator: gnuplot 4.6 patchlevel 4
%%CreationDate: Thu Aug 28 19:25:59 2014
%%DocumentFonts: (atend)
%%BoundingBox: 50 50 410 806
%%Orientation: Landscape
%%Pages: (atend)
%%EndComments
%%BeginProlog
/gnudict 256 dict def
gnudict begin
%
% The following true/false flags may be edited by hand if desired.
% The unit line width and grayscale image gamma correction may also be changed.
%
/Color true def
/Blacktext false def
/Solid false def
/Dashlength 1 def
/Landscape true def
/Level1 false def
/Rounded false def
/ClipToBoundingBox false def
/SuppressPDFMark false def
/TransparentPatterns false def
/gnulinewidth 5.000 def
/userlinewidth gnulinewidth def
/Gamma 1.0 def
/BackgroundColor {-1.000 -1.000 -1.000} def
%
/vshift -46 def
/dl1 {
  10.0 Dashlength mul mul
  Rounded { currentlinewidth 0.75 mul sub dup 0 le { pop 0.01 } if } if
} def
/dl2 {
  10.0 Dashlength mul mul
  Rounded { currentlinewidth 0.75 mul add } if
} def
/hpt_ 31.5 def
/vpt_ 31.5 def
/hpt hpt_ def
/vpt vpt_ def
/doclip {
  ClipToBoundingBox {
    newpath 50 50 moveto 410 50 lineto 410 806 lineto 50 806 lineto closepath
    clip
  } if
} def
%
% Gnuplot Prolog Version 4.6 (September 2012)
%
%/SuppressPDFMark true def
%
/M {moveto} bind def
/L {lineto} bind def
/R {rmoveto} bind def
/V {rlineto} bind def
/N {newpath moveto} bind def
/Z {closepath} bind def
/C {setrgbcolor} bind def
/f {rlineto fill} bind def
/g {setgray} bind def
/Gshow {show} def   % May be redefined later in the file to support UTF-8
/vpt2 vpt 2 mul def
/hpt2 hpt 2 mul def
/Lshow {currentpoint stroke M 0 vshift R 
	Blacktext {gsave 0 setgray show grestore} {show} ifelse} def
/Rshow {currentpoint stroke M dup stringwidth pop neg vshift R
	Blacktext {gsave 0 setgray show grestore} {show} ifelse} def
/Cshow {currentpoint stroke M dup stringwidth pop -2 div vshift R 
	Blacktext {gsave 0 setgray show grestore} {show} ifelse} def
/UP {dup vpt_ mul /vpt exch def hpt_ mul /hpt exch def
  /hpt2 hpt 2 mul def /vpt2 vpt 2 mul def} def
/DL {Color {setrgbcolor Solid {pop []} if 0 setdash}
 {pop pop pop 0 setgray Solid {pop []} if 0 setdash} ifelse} def
/BL {stroke userlinewidth 2 mul setlinewidth
	Rounded {1 setlinejoin 1 setlinecap} if} def
/AL {stroke userlinewidth 2 div setlinewidth
	Rounded {1 setlinejoin 1 setlinecap} if} def
/UL {dup gnulinewidth mul /userlinewidth exch def
	dup 1 lt {pop 1} if 10 mul /udl exch def} def
/PL {stroke userlinewidth setlinewidth
	Rounded {1 setlinejoin 1 setlinecap} if} def
3.8 setmiterlimit
% Default Line colors
/LCw {1 1 1} def
/LCb {0 0 0} def
/LCa {0 0 0} def
/LC0 {1 0 0} def
/LC1 {0 1 0} def
/LC2 {0 0 1} def
/LC3 {1 0 1} def
/LC4 {0 1 1} def
/LC5 {1 1 0} def
/LC6 {0 0 0} def
/LC7 {1 0.3 0} def
/LC8 {0.5 0.5 0.5} def
% Default Line Types
/LTw {PL [] 1 setgray} def
/LTb {BL [] LCb DL} def
/LTa {AL [1 udl mul 2 udl mul] 0 setdash LCa setrgbcolor} def
/LT0 {PL [] LC0 DL} def
/LT1 {PL [4 dl1 2 dl2] LC1 DL} def
/LT2 {PL [2 dl1 3 dl2] LC2 DL} def
/LT3 {PL [1 dl1 1.5 dl2] LC3 DL} def
/LT4 {PL [6 dl1 2 dl2 1 dl1 2 dl2] LC4 DL} def
/LT5 {PL [3 dl1 3 dl2 1 dl1 3 dl2] LC5 DL} def
/LT6 {PL [2 dl1 2 dl2 2 dl1 6 dl2] LC6 DL} def
/LT7 {PL [1 dl1 2 dl2 6 dl1 2 dl2 1 dl1 2 dl2] LC7 DL} def
/LT8 {PL [2 dl1 2 dl2 2 dl1 2 dl2 2 dl1 2 dl2 2 dl1 4 dl2] LC8 DL} def
/Pnt {stroke [] 0 setdash gsave 1 setlinecap M 0 0 V stroke grestore} def
/Dia {stroke [] 0 setdash 2 copy vpt add M
  hpt neg vpt neg V hpt vpt neg V
  hpt vpt V hpt neg vpt V closepath stroke
  Pnt} def
/Pls {stroke [] 0 setdash vpt sub M 0 vpt2 V
  currentpoint stroke M
  hpt neg vpt neg R hpt2 0 V stroke
 } def
/Box {stroke [] 0 setdash 2 copy exch hpt sub exch vpt add M
  0 vpt2 neg V hpt2 0 V 0 vpt2 V
  hpt2 neg 0 V closepath stroke
  Pnt} def
/Crs {stroke [] 0 setdash exch hpt sub exch vpt add M
  hpt2 vpt2 neg V currentpoint stroke M
  hpt2 neg 0 R hpt2 vpt2 V stroke} def
/TriU {stroke [] 0 setdash 2 copy vpt 1.12 mul add M
  hpt neg vpt -1.62 mul V
  hpt 2 mul 0 V
  hpt neg vpt 1.62 mul V closepath stroke
  Pnt} def
/Star {2 copy Pls Crs} def
/BoxF {stroke [] 0 setdash exch hpt sub exch vpt add M
  0 vpt2 neg V hpt2 0 V 0 vpt2 V
  hpt2 neg 0 V closepath fill} def
/TriUF {stroke [] 0 setdash vpt 1.12 mul add M
  hpt neg vpt -1.62 mul V
  hpt 2 mul 0 V
  hpt neg vpt 1.62 mul V closepath fill} def
/TriD {stroke [] 0 setdash 2 copy vpt 1.12 mul sub M
  hpt neg vpt 1.62 mul V
  hpt 2 mul 0 V
  hpt neg vpt -1.62 mul V closepath stroke
  Pnt} def
/TriDF {stroke [] 0 setdash vpt 1.12 mul sub M
  hpt neg vpt 1.62 mul V
  hpt 2 mul 0 V
  hpt neg vpt -1.62 mul V closepath fill} def
/DiaF {stroke [] 0 setdash vpt add M
  hpt neg vpt neg V hpt vpt neg V
  hpt vpt V hpt neg vpt V closepath fill} def
/Pent {stroke [] 0 setdash 2 copy gsave
  translate 0 hpt M 4 {72 rotate 0 hpt L} repeat
  closepath stroke grestore Pnt} def
/PentF {stroke [] 0 setdash gsave
  translate 0 hpt M 4 {72 rotate 0 hpt L} repeat
  closepath fill grestore} def
/Circle {stroke [] 0 setdash 2 copy
  hpt 0 360 arc stroke Pnt} def
/CircleF {stroke [] 0 setdash hpt 0 360 arc fill} def
/C0 {BL [] 0 setdash 2 copy moveto vpt 90 450 arc} bind def
/C1 {BL [] 0 setdash 2 copy moveto
	2 copy vpt 0 90 arc closepath fill
	vpt 0 360 arc closepath} bind def
/C2 {BL [] 0 setdash 2 copy moveto
	2 copy vpt 90 180 arc closepath fill
	vpt 0 360 arc closepath} bind def
/C3 {BL [] 0 setdash 2 copy moveto
	2 copy vpt 0 180 arc closepath fill
	vpt 0 360 arc closepath} bind def
/C4 {BL [] 0 setdash 2 copy moveto
	2 copy vpt 180 270 arc closepath fill
	vpt 0 360 arc closepath} bind def
/C5 {BL [] 0 setdash 2 copy moveto
	2 copy vpt 0 90 arc
	2 copy moveto
	2 copy vpt 180 270 arc closepath fill
	vpt 0 360 arc} bind def
/C6 {BL [] 0 setdash 2 copy moveto
	2 copy vpt 90 270 arc closepath fill
	vpt 0 360 arc closepath} bind def
/C7 {BL [] 0 setdash 2 copy moveto
	2 copy vpt 0 270 arc closepath fill
	vpt 0 360 arc closepath} bind def
/C8 {BL [] 0 setdash 2 copy moveto
	2 copy vpt 270 360 arc closepath fill
	vpt 0 360 arc closepath} bind def
/C9 {BL [] 0 setdash 2 copy moveto
	2 copy vpt 270 450 arc closepath fill
	vpt 0 360 arc closepath} bind def
/C10 {BL [] 0 setdash 2 copy 2 copy moveto vpt 270 360 arc closepath fill
	2 copy moveto
	2 copy vpt 90 180 arc closepath fill
	vpt 0 360 arc closepath} bind def
/C11 {BL [] 0 setdash 2 copy moveto
	2 copy vpt 0 180 arc closepath fill
	2 copy moveto
	2 copy vpt 270 360 arc closepath fill
	vpt 0 360 arc closepath} bind def
/C12 {BL [] 0 setdash 2 copy moveto
	2 copy vpt 180 360 arc closepath fill
	vpt 0 360 arc closepath} bind def
/C13 {BL [] 0 setdash 2 copy moveto
	2 copy vpt 0 90 arc closepath fill
	2 copy moveto
	2 copy vpt 180 360 arc closepath fill
	vpt 0 360 arc closepath} bind def
/C14 {BL [] 0 setdash 2 copy moveto
	2 copy vpt 90 360 arc closepath fill
	vpt 0 360 arc} bind def
/C15 {BL [] 0 setdash 2 copy vpt 0 360 arc closepath fill
	vpt 0 360 arc closepath} bind def
/Rec {newpath 4 2 roll moveto 1 index 0 rlineto 0 exch rlineto
	neg 0 rlineto closepath} bind def
/Square {dup Rec} bind def
/Bsquare {vpt sub exch vpt sub exch vpt2 Square} bind def
/S0 {BL [] 0 setdash 2 copy moveto 0 vpt rlineto BL Bsquare} bind def
/S1 {BL [] 0 setdash 2 copy vpt Square fill Bsquare} bind def
/S2 {BL [] 0 setdash 2 copy exch vpt sub exch vpt Square fill Bsquare} bind def
/S3 {BL [] 0 setdash 2 copy exch vpt sub exch vpt2 vpt Rec fill Bsquare} bind def
/S4 {BL [] 0 setdash 2 copy exch vpt sub exch vpt sub vpt Square fill Bsquare} bind def
/S5 {BL [] 0 setdash 2 copy 2 copy vpt Square fill
	exch vpt sub exch vpt sub vpt Square fill Bsquare} bind def
/S6 {BL [] 0 setdash 2 copy exch vpt sub exch vpt sub vpt vpt2 Rec fill Bsquare} bind def
/S7 {BL [] 0 setdash 2 copy exch vpt sub exch vpt sub vpt vpt2 Rec fill
	2 copy vpt Square fill Bsquare} bind def
/S8 {BL [] 0 setdash 2 copy vpt sub vpt Square fill Bsquare} bind def
/S9 {BL [] 0 setdash 2 copy vpt sub vpt vpt2 Rec fill Bsquare} bind def
/S10 {BL [] 0 setdash 2 copy vpt sub vpt Square fill 2 copy exch vpt sub exch vpt Square fill
	Bsquare} bind def
/S11 {BL [] 0 setdash 2 copy vpt sub vpt Square fill 2 copy exch vpt sub exch vpt2 vpt Rec fill
	Bsquare} bind def
/S12 {BL [] 0 setdash 2 copy exch vpt sub exch vpt sub vpt2 vpt Rec fill Bsquare} bind def
/S13 {BL [] 0 setdash 2 copy exch vpt sub exch vpt sub vpt2 vpt Rec fill
	2 copy vpt Square fill Bsquare} bind def
/S14 {BL [] 0 setdash 2 copy exch vpt sub exch vpt sub vpt2 vpt Rec fill
	2 copy exch vpt sub exch vpt Square fill Bsquare} bind def
/S15 {BL [] 0 setdash 2 copy Bsquare fill Bsquare} bind def
/D0 {gsave translate 45 rotate 0 0 S0 stroke grestore} bind def
/D1 {gsave translate 45 rotate 0 0 S1 stroke grestore} bind def
/D2 {gsave translate 45 rotate 0 0 S2 stroke grestore} bind def
/D3 {gsave translate 45 rotate 0 0 S3 stroke grestore} bind def
/D4 {gsave translate 45 rotate 0 0 S4 stroke grestore} bind def
/D5 {gsave translate 45 rotate 0 0 S5 stroke grestore} bind def
/D6 {gsave translate 45 rotate 0 0 S6 stroke grestore} bind def
/D7 {gsave translate 45 rotate 0 0 S7 stroke grestore} bind def
/D8 {gsave translate 45 rotate 0 0 S8 stroke grestore} bind def
/D9 {gsave translate 45 rotate 0 0 S9 stroke grestore} bind def
/D10 {gsave translate 45 rotate 0 0 S10 stroke grestore} bind def
/D11 {gsave translate 45 rotate 0 0 S11 stroke grestore} bind def
/D12 {gsave translate 45 rotate 0 0 S12 stroke grestore} bind def
/D13 {gsave translate 45 rotate 0 0 S13 stroke grestore} bind def
/D14 {gsave translate 45 rotate 0 0 S14 stroke grestore} bind def
/D15 {gsave translate 45 rotate 0 0 S15 stroke grestore} bind def
/DiaE {stroke [] 0 setdash vpt add M
  hpt neg vpt neg V hpt vpt neg V
  hpt vpt V hpt neg vpt V closepath stroke} def
/BoxE {stroke [] 0 setdash exch hpt sub exch vpt add M
  0 vpt2 neg V hpt2 0 V 0 vpt2 V
  hpt2 neg 0 V closepath stroke} def
/TriUE {stroke [] 0 setdash vpt 1.12 mul add M
  hpt neg vpt -1.62 mul V
  hpt 2 mul 0 V
  hpt neg vpt 1.62 mul V closepath stroke} def
/TriDE {stroke [] 0 setdash vpt 1.12 mul sub M
  hpt neg vpt 1.62 mul V
  hpt 2 mul 0 V
  hpt neg vpt -1.62 mul V closepath stroke} def
/PentE {stroke [] 0 setdash gsave
  translate 0 hpt M 4 {72 rotate 0 hpt L} repeat
  closepath stroke grestore} def
/CircE {stroke [] 0 setdash 
  hpt 0 360 arc stroke} def
/Opaque {gsave closepath 1 setgray fill grestore 0 setgray closepath} def
/DiaW {stroke [] 0 setdash vpt add M
  hpt neg vpt neg V hpt vpt neg V
  hpt vpt V hpt neg vpt V Opaque stroke} def
/BoxW {stroke [] 0 setdash exch hpt sub exch vpt add M
  0 vpt2 neg V hpt2 0 V 0 vpt2 V
  hpt2 neg 0 V Opaque stroke} def
/TriUW {stroke [] 0 setdash vpt 1.12 mul add M
  hpt neg vpt -1.62 mul V
  hpt 2 mul 0 V
  hpt neg vpt 1.62 mul V Opaque stroke} def
/TriDW {stroke [] 0 setdash vpt 1.12 mul sub M
  hpt neg vpt 1.62 mul V
  hpt 2 mul 0 V
  hpt neg vpt -1.62 mul V Opaque stroke} def
/PentW {stroke [] 0 setdash gsave
  translate 0 hpt M 4 {72 rotate 0 hpt L} repeat
  Opaque stroke grestore} def
/CircW {stroke [] 0 setdash 
  hpt 0 360 arc Opaque stroke} def
/BoxFill {gsave Rec 1 setgray fill grestore} def
/Density {
  /Fillden exch def
  currentrgbcolor
  /ColB exch def /ColG exch def /ColR exch def
  /ColR ColR Fillden mul Fillden sub 1 add def
  /ColG ColG Fillden mul Fillden sub 1 add def
  /ColB ColB Fillden mul Fillden sub 1 add def
  ColR ColG ColB setrgbcolor} def
/BoxColFill {gsave Rec PolyFill} def
/PolyFill {gsave Density fill grestore grestore} def
/h {rlineto rlineto rlineto gsave closepath fill grestore} bind def
%
% PostScript Level 1 Pattern Fill routine for rectangles
% Usage: x y w h s a XX PatternFill
%	x,y = lower left corner of box to be filled
%	w,h = width and height of box
%	  a = angle in degrees between lines and x-axis
%	 XX = 0/1 for no/yes cross-hatch
%
/PatternFill {gsave /PFa [ 9 2 roll ] def
  PFa 0 get PFa 2 get 2 div add PFa 1 get PFa 3 get 2 div add translate
  PFa 2 get -2 div PFa 3 get -2 div PFa 2 get PFa 3 get Rec
  TransparentPatterns {} {gsave 1 setgray fill grestore} ifelse
  clip
  currentlinewidth 0.5 mul setlinewidth
  /PFs PFa 2 get dup mul PFa 3 get dup mul add sqrt def
  0 0 M PFa 5 get rotate PFs -2 div dup translate
  0 1 PFs PFa 4 get div 1 add floor cvi
	{PFa 4 get mul 0 M 0 PFs V} for
  0 PFa 6 get ne {
	0 1 PFs PFa 4 get div 1 add floor cvi
	{PFa 4 get mul 0 2 1 roll M PFs 0 V} for
 } if
  stroke grestore} def
%
/languagelevel where
 {pop languagelevel} {1} ifelse
 2 lt
	{/InterpretLevel1 true def}
	{/InterpretLevel1 Level1 def}
 ifelse
%
% PostScript level 2 pattern fill definitions
%
/Level2PatternFill {
/Tile8x8 {/PaintType 2 /PatternType 1 /TilingType 1 /BBox [0 0 8 8] /XStep 8 /YStep 8}
	bind def
/KeepColor {currentrgbcolor [/Pattern /DeviceRGB] setcolorspace} bind def
<< Tile8x8
 /PaintProc {0.5 setlinewidth pop 0 0 M 8 8 L 0 8 M 8 0 L stroke} 
>> matrix makepattern
/Pat1 exch def
<< Tile8x8
 /PaintProc {0.5 setlinewidth pop 0 0 M 8 8 L 0 8 M 8 0 L stroke
	0 4 M 4 8 L 8 4 L 4 0 L 0 4 L stroke}
>> matrix makepattern
/Pat2 exch def
<< Tile8x8
 /PaintProc {0.5 setlinewidth pop 0 0 M 0 8 L
	8 8 L 8 0 L 0 0 L fill}
>> matrix makepattern
/Pat3 exch def
<< Tile8x8
 /PaintProc {0.5 setlinewidth pop -4 8 M 8 -4 L
	0 12 M 12 0 L stroke}
>> matrix makepattern
/Pat4 exch def
<< Tile8x8
 /PaintProc {0.5 setlinewidth pop -4 0 M 8 12 L
	0 -4 M 12 8 L stroke}
>> matrix makepattern
/Pat5 exch def
<< Tile8x8
 /PaintProc {0.5 setlinewidth pop -2 8 M 4 -4 L
	0 12 M 8 -4 L 4 12 M 10 0 L stroke}
>> matrix makepattern
/Pat6 exch def
<< Tile8x8
 /PaintProc {0.5 setlinewidth pop -2 0 M 4 12 L
	0 -4 M 8 12 L 4 -4 M 10 8 L stroke}
>> matrix makepattern
/Pat7 exch def
<< Tile8x8
 /PaintProc {0.5 setlinewidth pop 8 -2 M -4 4 L
	12 0 M -4 8 L 12 4 M 0 10 L stroke}
>> matrix makepattern
/Pat8 exch def
<< Tile8x8
 /PaintProc {0.5 setlinewidth pop 0 -2 M 12 4 L
	-4 0 M 12 8 L -4 4 M 8 10 L stroke}
>> matrix makepattern
/Pat9 exch def
/Pattern1 {PatternBgnd KeepColor Pat1 setpattern} bind def
/Pattern2 {PatternBgnd KeepColor Pat2 setpattern} bind def
/Pattern3 {PatternBgnd KeepColor Pat3 setpattern} bind def
/Pattern4 {PatternBgnd KeepColor Landscape {Pat5} {Pat4} ifelse setpattern} bind def
/Pattern5 {PatternBgnd KeepColor Landscape {Pat4} {Pat5} ifelse setpattern} bind def
/Pattern6 {PatternBgnd KeepColor Landscape {Pat9} {Pat6} ifelse setpattern} bind def
/Pattern7 {PatternBgnd KeepColor Landscape {Pat8} {Pat7} ifelse setpattern} bind def
} def
%
%
%End of PostScript Level 2 code
%
/PatternBgnd {
  TransparentPatterns {} {gsave 1 setgray fill grestore} ifelse
} def
%
% Substitute for Level 2 pattern fill codes with
% grayscale if Level 2 support is not selected.
%
/Level1PatternFill {
/Pattern1 {0.250 Density} bind def
/Pattern2 {0.500 Density} bind def
/Pattern3 {0.750 Density} bind def
/Pattern4 {0.125 Density} bind def
/Pattern5 {0.375 Density} bind def
/Pattern6 {0.625 Density} bind def
/Pattern7 {0.875 Density} bind def
} def
%
% Now test for support of Level 2 code
%
Level1 {Level1PatternFill} {Level2PatternFill} ifelse
%
/Symbol-Oblique /Symbol findfont [1 0 .167 1 0 0] makefont
dup length dict begin {1 index /FID eq {pop pop} {def} ifelse} forall
currentdict end definefont pop
/MFshow {
   { dup 5 get 3 ge
     { 5 get 3 eq {gsave} {grestore} ifelse }
     {dup dup 0 get findfont exch 1 get scalefont setfont
     [ currentpoint ] exch dup 2 get 0 exch R dup 5 get 2 ne {dup dup 6
     get exch 4 get {Gshow} {stringwidth pop 0 R} ifelse }if dup 5 get 0 eq
     {dup 3 get {2 get neg 0 exch R pop} {pop aload pop M} ifelse} {dup 5
     get 1 eq {dup 2 get exch dup 3 get exch 6 get stringwidth pop -2 div
     dup 0 R} {dup 6 get stringwidth pop -2 div 0 R 6 get
     show 2 index {aload pop M neg 3 -1 roll neg R pop pop} {pop pop pop
     pop aload pop M} ifelse }ifelse }ifelse }
     ifelse }
   forall} def
/Gswidth {dup type /stringtype eq {stringwidth} {pop (n) stringwidth} ifelse} def
/MFwidth {0 exch { dup 5 get 3 ge { 5 get 3 eq { 0 } { pop } ifelse }
 {dup 3 get{dup dup 0 get findfont exch 1 get scalefont setfont
     6 get Gswidth pop add} {pop} ifelse} ifelse} forall} def
/MLshow { currentpoint stroke M
  0 exch R
  Blacktext {gsave 0 setgray MFshow grestore} {MFshow} ifelse } bind def
/MRshow { currentpoint stroke M
  exch dup MFwidth neg 3 -1 roll R
  Blacktext {gsave 0 setgray MFshow grestore} {MFshow} ifelse } bind def
/MCshow { currentpoint stroke M
  exch dup MFwidth -2 div 3 -1 roll R
  Blacktext {gsave 0 setgray MFshow grestore} {MFshow} ifelse } bind def
/XYsave    { [( ) 1 2 true false 3 ()] } bind def
/XYrestore { [( ) 1 2 true false 4 ()] } bind def
Level1 SuppressPDFMark or 
{} {
/SDict 10 dict def
systemdict /pdfmark known not {
  userdict /pdfmark systemdict /cleartomark get put
} if
SDict begin [
  /Title (sqlite3.wm.snapshot.noexp.eps)
  /Subject (gnuplot plot)
  /Creator (gnuplot 4.6 patchlevel 4)
  /Author (romoore)
%  /Producer (gnuplot)
%  /Keywords ()
  /CreationDate (Thu Aug 28 19:25:59 2014)
  /DOCINFO pdfmark
end
} ifelse
end
%%EndProlog
%%Page: 1 1
gnudict begin
gsave
doclip
50 50 translate
0.100 0.100 scale
90 rotate
0 -3600 translate
0 setgray
newpath
(Helvetica) findfont 140 scalefont setfont
BackgroundColor 0 lt 3 1 roll 0 lt exch 0 lt or or not {gsave BackgroundColor C clippath fill grestore} if
1.500 UL
LTb
0.42 0.42 0.42 C 938 448 M
31 0 V
5267 0 R
-31 0 V
938 520 M
31 0 V
5267 0 R
-31 0 V
938 581 M
31 0 V
5267 0 R
-31 0 V
938 634 M
31 0 V
5267 0 R
-31 0 V
938 680 M
31 0 V
5267 0 R
-31 0 V
stroke
1.000 UL
LTa
0.84 0.88 0.79 C 938 722 M
5298 0 V
stroke
1.500 UL
LTb
0.42 0.42 0.42 C 938 722 M
63 0 V
5235 0 R
-63 0 V
stroke
0.42 0.42 0.42 C 854 722 M
[ [(SVBasic Manual) 120.0 0.0 true true 0 ( 10000)]
] -40.0 MRshow
1.500 UL
LTb
0.42 0.42 0.42 C 938 996 M
31 0 V
5267 0 R
-31 0 V
938 1156 M
31 0 V
5267 0 R
-31 0 V
938 1270 M
31 0 V
5267 0 R
-31 0 V
938 1358 M
31 0 V
5267 0 R
-31 0 V
938 1430 M
31 0 V
5267 0 R
-31 0 V
938 1491 M
31 0 V
5267 0 R
-31 0 V
938 1544 M
31 0 V
5267 0 R
-31 0 V
938 1591 M
31 0 V
5267 0 R
-31 0 V
stroke
1.000 UL
LTa
0.84 0.88 0.79 C 938 1632 M
5298 0 V
stroke
1.500 UL
LTb
0.42 0.42 0.42 C 938 1632 M
63 0 V
5235 0 R
-63 0 V
stroke
0.42 0.42 0.42 C 854 1632 M
[ [(SVBasic Manual) 120.0 0.0 true true 0 ( 100000)]
] -40.0 MRshow
1.500 UL
LTb
0.42 0.42 0.42 C 938 1906 M
31 0 V
5267 0 R
-31 0 V
938 2067 M
31 0 V
5267 0 R
-31 0 V
938 2180 M
31 0 V
5267 0 R
-31 0 V
938 2269 M
31 0 V
5267 0 R
-31 0 V
938 2341 M
31 0 V
5267 0 R
-31 0 V
938 2402 M
31 0 V
5267 0 R
-31 0 V
938 2454 M
31 0 V
5267 0 R
-31 0 V
938 2501 M
31 0 V
5267 0 R
-31 0 V
stroke
1.000 UL
LTa
0.84 0.88 0.79 C 938 2543 M
5298 0 V
stroke
1.500 UL
LTb
0.42 0.42 0.42 C 938 2543 M
63 0 V
5235 0 R
-63 0 V
stroke
0.42 0.42 0.42 C 854 2543 M
[ [(SVBasic Manual) 120.0 0.0 true true 0 ( 1e+06)]
] -40.0 MRshow
1.500 UL
LTb
0.42 0.42 0.42 C 938 2817 M
31 0 V
5267 0 R
-31 0 V
938 2977 M
31 0 V
5267 0 R
-31 0 V
938 3091 M
31 0 V
5267 0 R
-31 0 V
938 3179 M
31 0 V
5267 0 R
-31 0 V
stroke
1.000 UL
LTa
0.84 0.88 0.79 C 938 448 M
0 2731 V
stroke
1.500 UL
LTb
0.42 0.42 0.42 C 938 448 M
0 63 V
0 2668 R
0 -63 V
stroke
0.42 0.42 0.42 C 938 308 M
[ [(SVBasic Manual) 120.0 0.0 true true 0 ( 0)]
] -40.0 MCshow
1.500 UL
LTb
0.42 0.42 0.42 C 1.000 UL
LTa
0.84 0.88 0.79 C 1998 448 M
0 2731 V
stroke
1.500 UL
LTb
0.42 0.42 0.42 C 1998 448 M
0 63 V
0 2668 R
0 -63 V
stroke
0.42 0.42 0.42 C 1998 308 M
[ [(SVBasic Manual) 120.0 0.0 true true 0 ( 20)]
] -40.0 MCshow
1.500 UL
LTb
0.42 0.42 0.42 C 1.000 UL
LTa
0.84 0.88 0.79 C 3057 448 M
0 2731 V
stroke
1.500 UL
LTb
0.42 0.42 0.42 C 3057 448 M
0 63 V
0 2668 R
0 -63 V
stroke
0.42 0.42 0.42 C 3057 308 M
[ [(SVBasic Manual) 120.0 0.0 true true 0 ( 40)]
] -40.0 MCshow
1.500 UL
LTb
0.42 0.42 0.42 C 1.000 UL
LTa
0.84 0.88 0.79 C 4117 448 M
0 2731 V
stroke
1.500 UL
LTb
0.42 0.42 0.42 C 4117 448 M
0 63 V
0 2668 R
0 -63 V
stroke
0.42 0.42 0.42 C 4117 308 M
[ [(SVBasic Manual) 120.0 0.0 true true 0 ( 60)]
] -40.0 MCshow
1.500 UL
LTb
0.42 0.42 0.42 C 1.000 UL
LTa
0.84 0.88 0.79 C 5176 448 M
0 2731 V
stroke
1.500 UL
LTb
0.42 0.42 0.42 C 5176 448 M
0 63 V
0 2668 R
0 -63 V
stroke
0.42 0.42 0.42 C 5176 308 M
[ [(SVBasic Manual) 120.0 0.0 true true 0 ( 80)]
] -40.0 MCshow
1.500 UL
LTb
0.42 0.42 0.42 C 1.000 UL
LTa
0.84 0.88 0.79 C 6236 448 M
0 2731 V
stroke
1.500 UL
LTb
0.42 0.42 0.42 C 6236 448 M
0 63 V
0 2668 R
0 -63 V
stroke
0.42 0.42 0.42 C 6236 308 M
[ [(SVBasic Manual) 120.0 0.0 true true 0 ( 100)]
] -40.0 MCshow
1.500 UL
LTb
0.42 0.42 0.42 C 1.500 UL
LTb
0.42 0.42 0.42 C 938 3179 N
938 448 L
5298 0 V
0 2731 V
-5298 0 V
Z stroke
0.42 0.42 0.42 C 112 1813 M
currentpoint gsave translate -270 rotate 0 0 moveto
[ [(SVBasic Manual) 120.0 0.0 true true 0 (Query Time \()]
[(Symbol) 120.0 0.0 true true 0 (m)]
[(SVBasic Manual) 120.0 0.0 true true 0 (s\))]
] -40.0 MCshow
grestore
LTb
0.42 0.42 0.42 C 3587 98 M
[ [(SVBasic Manual) 120.0 0.0 true true 0 (Snapshot Position in Data Set \(Percentage\))]
] -40.0 MCshow
LTb
0.42 0.42 0.42 C 3587 3389 M
[ [(SVBasic Manual) 150.0 0.0 true true 0 (SQLite World Model Performance: 5% Snapshot \(No Expirations\))]
] -50.0 MCshow
LTb
1.000 UP
0.42 0.42 0.42 C 1.500 UL
LTb
0.42 0.42 0.42 C 1.000 UL
LTb
LCb setrgbcolor
6404 1919 N
0 1260 V
1071 0 V
0 -1260 V
-1071 0 V
Z stroke
% Begin plot #1
1.000 UP
2.000 UL
LT0
0.45 0.59 0.90 C LCb setrgbcolor
6908 2969 M
[ [(SVBasic Manual) 120.0 0.0 true true 0 (10000)]
] -40.0 MRshow
LT0
0.45 0.59 0.90 C 6992 2969 M
399 0 V
1070 513 M
265 423 V
265 229 V
265 89 V
265 101 V
265 77 V
265 63 V
265 55 V
265 98 V
265 25 V
264 14 V
265 36 V
265 33 V
265 25 V
265 35 V
265 12 V
265 37 V
265 29 V
265 6 V
265 29 V
1070 513 CircleF
1335 936 CircleF
1600 1165 CircleF
1865 1254 CircleF
2130 1355 CircleF
2395 1432 CircleF
2660 1495 CircleF
2925 1550 CircleF
3190 1648 CircleF
3455 1673 CircleF
3719 1687 CircleF
3984 1723 CircleF
4249 1756 CircleF
4514 1781 CircleF
4779 1816 CircleF
5044 1828 CircleF
5309 1865 CircleF
5574 1894 CircleF
5839 1900 CircleF
6104 1929 CircleF
7191 2969 CircleF
% End plot #1
% Begin plot #2
1.000 UP
2.000 UL
LT1
0.40 0.92 0.52 C LCb setrgbcolor
6908 2829 M
[ [(SVBasic Manual) 120.0 0.0 true true 0 (20000)]
] -40.0 MRshow
LT1
0.40 0.92 0.52 C 6992 2829 M
399 0 V
1070 768 M
265 421 V
265 199 V
265 137 V
265 101 V
265 66 V
265 83 V
265 51 V
265 55 V
265 29 V
264 57 V
265 18 V
265 33 V
265 49 V
265 28 V
265 25 V
265 8 V
265 23 V
265 39 V
265 23 V
1070 768 BoxF
1335 1189 BoxF
1600 1388 BoxF
1865 1525 BoxF
2130 1626 BoxF
2395 1692 BoxF
2660 1775 BoxF
2925 1826 BoxF
3190 1881 BoxF
3455 1910 BoxF
3719 1967 BoxF
3984 1985 BoxF
4249 2018 BoxF
4514 2067 BoxF
4779 2095 BoxF
5044 2120 BoxF
5309 2128 BoxF
5574 2151 BoxF
5839 2190 BoxF
6104 2213 BoxF
7191 2829 BoxF
% End plot #2
% Begin plot #3
1.000 UP
2.000 UL
LT2
0.98 0.48 0.43 C LCb setrgbcolor
6908 2689 M
[ [(SVBasic Manual) 120.0 0.0 true true 0 (30000)]
] -40.0 MRshow
LT2
0.98 0.48 0.43 C 6992 2689 M
399 0 V
1070 924 M
265 430 V
265 206 V
265 131 V
265 124 V
265 56 V
265 67 V
265 56 V
265 49 V
265 44 V
264 42 V
265 38 V
265 21 V
265 34 V
265 30 V
265 15 V
265 41 V
265 11 V
265 36 V
265 23 V
1070 924 TriUF
1335 1354 TriUF
1600 1560 TriUF
1865 1691 TriUF
2130 1815 TriUF
2395 1871 TriUF
2660 1938 TriUF
2925 1994 TriUF
3190 2043 TriUF
3455 2087 TriUF
3719 2129 TriUF
3984 2167 TriUF
4249 2188 TriUF
4514 2222 TriUF
4779 2252 TriUF
5044 2267 TriUF
5309 2308 TriUF
5574 2319 TriUF
5839 2355 TriUF
6104 2378 TriUF
7191 2689 TriUF
% End plot #3
% Begin plot #4
1.000 UP
2.000 UL
LT3
0.98 0.79 0.43 C LCb setrgbcolor
6908 2549 M
[ [(SVBasic Manual) 120.0 0.0 true true 0 (40000)]
] -40.0 MRshow
LT3
0.98 0.79 0.43 C 6992 2549 M
399 0 V
1070 1089 M
265 429 V
265 199 V
265 126 V
265 111 V
265 81 V
265 53 V
265 58 V
265 61 V
265 63 V
264 23 V
265 18 V
265 52 V
265 13 V
265 45 V
265 10 V
265 41 V
265 8 V
265 40 V
265 20 V
1070 1089 DiaF
1335 1518 DiaF
1600 1717 DiaF
1865 1843 DiaF
2130 1954 DiaF
2395 2035 DiaF
2660 2088 DiaF
2925 2146 DiaF
3190 2207 DiaF
3455 2270 DiaF
3719 2293 DiaF
3984 2311 DiaF
4249 2363 DiaF
4514 2376 DiaF
4779 2421 DiaF
5044 2431 DiaF
5309 2472 DiaF
5574 2480 DiaF
5839 2520 DiaF
6104 2540 DiaF
7191 2549 DiaF
% End plot #4
% Begin plot #5
1.000 UP
2.000 UL
LT4
0.11 0.27 0.60 C LCb setrgbcolor
6908 2409 M
[ [(SVBasic Manual) 120.0 0.0 true true 0 (50000)]
] -40.0 MRshow
LT4
0.11 0.27 0.60 C 6992 2409 M
399 0 V
1070 1156 M
265 426 V
265 178 V
265 133 V
265 87 V
265 83 V
265 81 V
265 56 V
265 51 V
265 55 V
264 14 V
265 51 V
265 33 V
265 31 V
265 53 V
265 4 V
265 20 V
265 23 V
265 22 V
265 25 V
1070 1156 TriDF
1335 1582 TriDF
1600 1760 TriDF
1865 1893 TriDF
2130 1980 TriDF
2395 2063 TriDF
2660 2144 TriDF
2925 2200 TriDF
3190 2251 TriDF
3455 2306 TriDF
3719 2320 TriDF
3984 2371 TriDF
4249 2404 TriDF
4514 2435 TriDF
4779 2488 TriDF
5044 2492 TriDF
5309 2512 TriDF
5574 2535 TriDF
5839 2557 TriDF
6104 2582 TriDF
7191 2409 TriDF
% End plot #5
% Begin plot #6
1.000 UP
2.000 UL
LT5
0.07 0.68 0.20 C LCb setrgbcolor
6908 2269 M
[ [(SVBasic Manual) 120.0 0.0 true true 0 (100000)]
] -40.0 MRshow
LT5
0.07 0.68 0.20 C 6992 2269 M
399 0 V
1070 1404 M
265 429 V
265 205 V
265 118 V
265 116 V
265 81 V
265 49 V
265 61 V
265 64 V
265 43 V
264 39 V
265 36 V
265 39 V
265 32 V
265 8 V
265 25 V
265 28 V
265 39 V
265 28 V
265 15 V
1070 1404 CircleF
1335 1833 CircleF
1600 2038 CircleF
1865 2156 CircleF
2130 2272 CircleF
2395 2353 CircleF
2660 2402 CircleF
2925 2463 CircleF
3190 2527 CircleF
3455 2570 CircleF
3719 2609 CircleF
3984 2645 CircleF
4249 2684 CircleF
4514 2716 CircleF
4779 2724 CircleF
5044 2749 CircleF
5309 2777 CircleF
5574 2816 CircleF
5839 2844 CircleF
6104 2859 CircleF
7191 2269 CircleF
% End plot #6
% Begin plot #7
1.000 UP
2.000 UL
LT6
0.90 0.17 0.09 C LCb setrgbcolor
6908 2129 M
[ [(SVBasic Manual) 120.0 0.0 true true 0 (200000)]
] -40.0 MRshow
LT6
0.90 0.17 0.09 C 6992 2129 M
399 0 V
1070 1679 M
265 436 V
265 186 V
265 149 V
265 100 V
265 80 V
265 50 V
265 58 V
265 70 V
265 41 V
264 43 V
265 37 V
265 34 V
265 31 V
265 27 V
265 29 V
265 22 V
265 29 V
265 22 V
265 19 V
1070 1679 BoxF
1335 2115 BoxF
1600 2301 BoxF
1865 2450 BoxF
2130 2550 BoxF
2395 2630 BoxF
2660 2680 BoxF
2925 2738 BoxF
3190 2808 BoxF
3455 2849 BoxF
3719 2892 BoxF
3984 2929 BoxF
4249 2963 BoxF
4514 2994 BoxF
4779 3021 BoxF
5044 3050 BoxF
5309 3072 BoxF
5574 3101 BoxF
5839 3123 BoxF
6104 3142 BoxF
7191 2129 BoxF
% End plot #7
1.500 UL
LTb
0.42 0.42 0.42 C 938 3179 N
938 448 L
5298 0 V
0 2731 V
-5298 0 V
Z stroke
1.000 UP
1.500 UL
LTb
0.42 0.42 0.42 C stroke
grestore
end
showpage
%%Trailer
%%DocumentFonts: Symbol Helvetica
%%Pages: 1
