%!PS-Adobe-2.0
%%Title: sqlite3.wm.regex2.eps
%%Creator: gnuplot 4.6 patchlevel 4
%%CreationDate: Thu Aug 28 19:25:59 2014
%%DocumentFonts: (atend)
%%BoundingBox: 50 50 410 806
%%Orientation: Landscape
%%Pages: (atend)
%%EndComments
%%BeginProlog
/gnudict 256 dict def
gnudict begin
%
% The following true/false flags may be edited by hand if desired.
% The unit line width and grayscale image gamma correction may also be changed.
%
/Color true def
/Blacktext false def
/Solid false def
/Dashlength 1 def
/Landscape true def
/Level1 false def
/Rounded false def
/ClipToBoundingBox false def
/SuppressPDFMark false def
/TransparentPatterns false def
/gnulinewidth 5.000 def
/userlinewidth gnulinewidth def
/Gamma 1.0 def
/BackgroundColor {-1.000 -1.000 -1.000} def
%
/vshift -46 def
/dl1 {
  10.0 Dashlength mul mul
  Rounded { currentlinewidth 0.75 mul sub dup 0 le { pop 0.01 } if } if
} def
/dl2 {
  10.0 Dashlength mul mul
  Rounded { currentlinewidth 0.75 mul add } if
} def
/hpt_ 31.5 def
/vpt_ 31.5 def
/hpt hpt_ def
/vpt vpt_ def
/doclip {
  ClipToBoundingBox {
    newpath 50 50 moveto 410 50 lineto 410 806 lineto 50 806 lineto closepath
    clip
  } if
} def
%
% Gnuplot Prolog Version 4.6 (September 2012)
%
%/SuppressPDFMark true def
%
/M {moveto} bind def
/L {lineto} bind def
/R {rmoveto} bind def
/V {rlineto} bind def
/N {newpath moveto} bind def
/Z {closepath} bind def
/C {setrgbcolor} bind def
/f {rlineto fill} bind def
/g {setgray} bind def
/Gshow {show} def   % May be redefined later in the file to support UTF-8
/vpt2 vpt 2 mul def
/hpt2 hpt 2 mul def
/Lshow {currentpoint stroke M 0 vshift R 
	Blacktext {gsave 0 setgray show grestore} {show} ifelse} def
/Rshow {currentpoint stroke M dup stringwidth pop neg vshift R
	Blacktext {gsave 0 setgray show grestore} {show} ifelse} def
/Cshow {currentpoint stroke M dup stringwidth pop -2 div vshift R 
	Blacktext {gsave 0 setgray show grestore} {show} ifelse} def
/UP {dup vpt_ mul /vpt exch def hpt_ mul /hpt exch def
  /hpt2 hpt 2 mul def /vpt2 vpt 2 mul def} def
/DL {Color {setrgbcolor Solid {pop []} if 0 setdash}
 {pop pop pop 0 setgray Solid {pop []} if 0 setdash} ifelse} def
/BL {stroke userlinewidth 2 mul setlinewidth
	Rounded {1 setlinejoin 1 setlinecap} if} def
/AL {stroke userlinewidth 2 div setlinewidth
	Rounded {1 setlinejoin 1 setlinecap} if} def
/UL {dup gnulinewidth mul /userlinewidth exch def
	dup 1 lt {pop 1} if 10 mul /udl exch def} def
/PL {stroke userlinewidth setlinewidth
	Rounded {1 setlinejoin 1 setlinecap} if} def
3.8 setmiterlimit
% Default Line colors
/LCw {1 1 1} def
/LCb {0 0 0} def
/LCa {0 0 0} def
/LC0 {1 0 0} def
/LC1 {0 1 0} def
/LC2 {0 0 1} def
/LC3 {1 0 1} def
/LC4 {0 1 1} def
/LC5 {1 1 0} def
/LC6 {0 0 0} def
/LC7 {1 0.3 0} def
/LC8 {0.5 0.5 0.5} def
% Default Line Types
/LTw {PL [] 1 setgray} def
/LTb {BL [] LCb DL} def
/LTa {AL [1 udl mul 2 udl mul] 0 setdash LCa setrgbcolor} def
/LT0 {PL [] LC0 DL} def
/LT1 {PL [4 dl1 2 dl2] LC1 DL} def
/LT2 {PL [2 dl1 3 dl2] LC2 DL} def
/LT3 {PL [1 dl1 1.5 dl2] LC3 DL} def
/LT4 {PL [6 dl1 2 dl2 1 dl1 2 dl2] LC4 DL} def
/LT5 {PL [3 dl1 3 dl2 1 dl1 3 dl2] LC5 DL} def
/LT6 {PL [2 dl1 2 dl2 2 dl1 6 dl2] LC6 DL} def
/LT7 {PL [1 dl1 2 dl2 6 dl1 2 dl2 1 dl1 2 dl2] LC7 DL} def
/LT8 {PL [2 dl1 2 dl2 2 dl1 2 dl2 2 dl1 2 dl2 2 dl1 4 dl2] LC8 DL} def
/Pnt {stroke [] 0 setdash gsave 1 setlinecap M 0 0 V stroke grestore} def
/Dia {stroke [] 0 setdash 2 copy vpt add M
  hpt neg vpt neg V hpt vpt neg V
  hpt vpt V hpt neg vpt V closepath stroke
  Pnt} def
/Pls {stroke [] 0 setdash vpt sub M 0 vpt2 V
  currentpoint stroke M
  hpt neg vpt neg R hpt2 0 V stroke
 } def
/Box {stroke [] 0 setdash 2 copy exch hpt sub exch vpt add M
  0 vpt2 neg V hpt2 0 V 0 vpt2 V
  hpt2 neg 0 V closepath stroke
  Pnt} def
/Crs {stroke [] 0 setdash exch hpt sub exch vpt add M
  hpt2 vpt2 neg V currentpoint stroke M
  hpt2 neg 0 R hpt2 vpt2 V stroke} def
/TriU {stroke [] 0 setdash 2 copy vpt 1.12 mul add M
  hpt neg vpt -1.62 mul V
  hpt 2 mul 0 V
  hpt neg vpt 1.62 mul V closepath stroke
  Pnt} def
/Star {2 copy Pls Crs} def
/BoxF {stroke [] 0 setdash exch hpt sub exch vpt add M
  0 vpt2 neg V hpt2 0 V 0 vpt2 V
  hpt2 neg 0 V closepath fill} def
/TriUF {stroke [] 0 setdash vpt 1.12 mul add M
  hpt neg vpt -1.62 mul V
  hpt 2 mul 0 V
  hpt neg vpt 1.62 mul V closepath fill} def
/TriD {stroke [] 0 setdash 2 copy vpt 1.12 mul sub M
  hpt neg vpt 1.62 mul V
  hpt 2 mul 0 V
  hpt neg vpt -1.62 mul V closepath stroke
  Pnt} def
/TriDF {stroke [] 0 setdash vpt 1.12 mul sub M
  hpt neg vpt 1.62 mul V
  hpt 2 mul 0 V
  hpt neg vpt -1.62 mul V closepath fill} def
/DiaF {stroke [] 0 setdash vpt add M
  hpt neg vpt neg V hpt vpt neg V
  hpt vpt V hpt neg vpt V closepath fill} def
/Pent {stroke [] 0 setdash 2 copy gsave
  translate 0 hpt M 4 {72 rotate 0 hpt L} repeat
  closepath stroke grestore Pnt} def
/PentF {stroke [] 0 setdash gsave
  translate 0 hpt M 4 {72 rotate 0 hpt L} repeat
  closepath fill grestore} def
/Circle {stroke [] 0 setdash 2 copy
  hpt 0 360 arc stroke Pnt} def
/CircleF {stroke [] 0 setdash hpt 0 360 arc fill} def
/C0 {BL [] 0 setdash 2 copy moveto vpt 90 450 arc} bind def
/C1 {BL [] 0 setdash 2 copy moveto
	2 copy vpt 0 90 arc closepath fill
	vpt 0 360 arc closepath} bind def
/C2 {BL [] 0 setdash 2 copy moveto
	2 copy vpt 90 180 arc closepath fill
	vpt 0 360 arc closepath} bind def
/C3 {BL [] 0 setdash 2 copy moveto
	2 copy vpt 0 180 arc closepath fill
	vpt 0 360 arc closepath} bind def
/C4 {BL [] 0 setdash 2 copy moveto
	2 copy vpt 180 270 arc closepath fill
	vpt 0 360 arc closepath} bind def
/C5 {BL [] 0 setdash 2 copy moveto
	2 copy vpt 0 90 arc
	2 copy moveto
	2 copy vpt 180 270 arc closepath fill
	vpt 0 360 arc} bind def
/C6 {BL [] 0 setdash 2 copy moveto
	2 copy vpt 90 270 arc closepath fill
	vpt 0 360 arc closepath} bind def
/C7 {BL [] 0 setdash 2 copy moveto
	2 copy vpt 0 270 arc closepath fill
	vpt 0 360 arc closepath} bind def
/C8 {BL [] 0 setdash 2 copy moveto
	2 copy vpt 270 360 arc closepath fill
	vpt 0 360 arc closepath} bind def
/C9 {BL [] 0 setdash 2 copy moveto
	2 copy vpt 270 450 arc closepath fill
	vpt 0 360 arc closepath} bind def
/C10 {BL [] 0 setdash 2 copy 2 copy moveto vpt 270 360 arc closepath fill
	2 copy moveto
	2 copy vpt 90 180 arc closepath fill
	vpt 0 360 arc closepath} bind def
/C11 {BL [] 0 setdash 2 copy moveto
	2 copy vpt 0 180 arc closepath fill
	2 copy moveto
	2 copy vpt 270 360 arc closepath fill
	vpt 0 360 arc closepath} bind def
/C12 {BL [] 0 setdash 2 copy moveto
	2 copy vpt 180 360 arc closepath fill
	vpt 0 360 arc closepath} bind def
/C13 {BL [] 0 setdash 2 copy moveto
	2 copy vpt 0 90 arc closepath fill
	2 copy moveto
	2 copy vpt 180 360 arc closepath fill
	vpt 0 360 arc closepath} bind def
/C14 {BL [] 0 setdash 2 copy moveto
	2 copy vpt 90 360 arc closepath fill
	vpt 0 360 arc} bind def
/C15 {BL [] 0 setdash 2 copy vpt 0 360 arc closepath fill
	vpt 0 360 arc closepath} bind def
/Rec {newpath 4 2 roll moveto 1 index 0 rlineto 0 exch rlineto
	neg 0 rlineto closepath} bind def
/Square {dup Rec} bind def
/Bsquare {vpt sub exch vpt sub exch vpt2 Square} bind def
/S0 {BL [] 0 setdash 2 copy moveto 0 vpt rlineto BL Bsquare} bind def
/S1 {BL [] 0 setdash 2 copy vpt Square fill Bsquare} bind def
/S2 {BL [] 0 setdash 2 copy exch vpt sub exch vpt Square fill Bsquare} bind def
/S3 {BL [] 0 setdash 2 copy exch vpt sub exch vpt2 vpt Rec fill Bsquare} bind def
/S4 {BL [] 0 setdash 2 copy exch vpt sub exch vpt sub vpt Square fill Bsquare} bind def
/S5 {BL [] 0 setdash 2 copy 2 copy vpt Square fill
	exch vpt sub exch vpt sub vpt Square fill Bsquare} bind def
/S6 {BL [] 0 setdash 2 copy exch vpt sub exch vpt sub vpt vpt2 Rec fill Bsquare} bind def
/S7 {BL [] 0 setdash 2 copy exch vpt sub exch vpt sub vpt vpt2 Rec fill
	2 copy vpt Square fill Bsquare} bind def
/S8 {BL [] 0 setdash 2 copy vpt sub vpt Square fill Bsquare} bind def
/S9 {BL [] 0 setdash 2 copy vpt sub vpt vpt2 Rec fill Bsquare} bind def
/S10 {BL [] 0 setdash 2 copy vpt sub vpt Square fill 2 copy exch vpt sub exch vpt Square fill
	Bsquare} bind def
/S11 {BL [] 0 setdash 2 copy vpt sub vpt Square fill 2 copy exch vpt sub exch vpt2 vpt Rec fill
	Bsquare} bind def
/S12 {BL [] 0 setdash 2 copy exch vpt sub exch vpt sub vpt2 vpt Rec fill Bsquare} bind def
/S13 {BL [] 0 setdash 2 copy exch vpt sub exch vpt sub vpt2 vpt Rec fill
	2 copy vpt Square fill Bsquare} bind def
/S14 {BL [] 0 setdash 2 copy exch vpt sub exch vpt sub vpt2 vpt Rec fill
	2 copy exch vpt sub exch vpt Square fill Bsquare} bind def
/S15 {BL [] 0 setdash 2 copy Bsquare fill Bsquare} bind def
/D0 {gsave translate 45 rotate 0 0 S0 stroke grestore} bind def
/D1 {gsave translate 45 rotate 0 0 S1 stroke grestore} bind def
/D2 {gsave translate 45 rotate 0 0 S2 stroke grestore} bind def
/D3 {gsave translate 45 rotate 0 0 S3 stroke grestore} bind def
/D4 {gsave translate 45 rotate 0 0 S4 stroke grestore} bind def
/D5 {gsave translate 45 rotate 0 0 S5 stroke grestore} bind def
/D6 {gsave translate 45 rotate 0 0 S6 stroke grestore} bind def
/D7 {gsave translate 45 rotate 0 0 S7 stroke grestore} bind def
/D8 {gsave translate 45 rotate 0 0 S8 stroke grestore} bind def
/D9 {gsave translate 45 rotate 0 0 S9 stroke grestore} bind def
/D10 {gsave translate 45 rotate 0 0 S10 stroke grestore} bind def
/D11 {gsave translate 45 rotate 0 0 S11 stroke grestore} bind def
/D12 {gsave translate 45 rotate 0 0 S12 stroke grestore} bind def
/D13 {gsave translate 45 rotate 0 0 S13 stroke grestore} bind def
/D14 {gsave translate 45 rotate 0 0 S14 stroke grestore} bind def
/D15 {gsave translate 45 rotate 0 0 S15 stroke grestore} bind def
/DiaE {stroke [] 0 setdash vpt add M
  hpt neg vpt neg V hpt vpt neg V
  hpt vpt V hpt neg vpt V closepath stroke} def
/BoxE {stroke [] 0 setdash exch hpt sub exch vpt add M
  0 vpt2 neg V hpt2 0 V 0 vpt2 V
  hpt2 neg 0 V closepath stroke} def
/TriUE {stroke [] 0 setdash vpt 1.12 mul add M
  hpt neg vpt -1.62 mul V
  hpt 2 mul 0 V
  hpt neg vpt 1.62 mul V closepath stroke} def
/TriDE {stroke [] 0 setdash vpt 1.12 mul sub M
  hpt neg vpt 1.62 mul V
  hpt 2 mul 0 V
  hpt neg vpt -1.62 mul V closepath stroke} def
/PentE {stroke [] 0 setdash gsave
  translate 0 hpt M 4 {72 rotate 0 hpt L} repeat
  closepath stroke grestore} def
/CircE {stroke [] 0 setdash 
  hpt 0 360 arc stroke} def
/Opaque {gsave closepath 1 setgray fill grestore 0 setgray closepath} def
/DiaW {stroke [] 0 setdash vpt add M
  hpt neg vpt neg V hpt vpt neg V
  hpt vpt V hpt neg vpt V Opaque stroke} def
/BoxW {stroke [] 0 setdash exch hpt sub exch vpt add M
  0 vpt2 neg V hpt2 0 V 0 vpt2 V
  hpt2 neg 0 V Opaque stroke} def
/TriUW {stroke [] 0 setdash vpt 1.12 mul add M
  hpt neg vpt -1.62 mul V
  hpt 2 mul 0 V
  hpt neg vpt 1.62 mul V Opaque stroke} def
/TriDW {stroke [] 0 setdash vpt 1.12 mul sub M
  hpt neg vpt 1.62 mul V
  hpt 2 mul 0 V
  hpt neg vpt -1.62 mul V Opaque stroke} def
/PentW {stroke [] 0 setdash gsave
  translate 0 hpt M 4 {72 rotate 0 hpt L} repeat
  Opaque stroke grestore} def
/CircW {stroke [] 0 setdash 
  hpt 0 360 arc Opaque stroke} def
/BoxFill {gsave Rec 1 setgray fill grestore} def
/Density {
  /Fillden exch def
  currentrgbcolor
  /ColB exch def /ColG exch def /ColR exch def
  /ColR ColR Fillden mul Fillden sub 1 add def
  /ColG ColG Fillden mul Fillden sub 1 add def
  /ColB ColB Fillden mul Fillden sub 1 add def
  ColR ColG ColB setrgbcolor} def
/BoxColFill {gsave Rec PolyFill} def
/PolyFill {gsave Density fill grestore grestore} def
/h {rlineto rlineto rlineto gsave closepath fill grestore} bind def
%
% PostScript Level 1 Pattern Fill routine for rectangles
% Usage: x y w h s a XX PatternFill
%	x,y = lower left corner of box to be filled
%	w,h = width and height of box
%	  a = angle in degrees between lines and x-axis
%	 XX = 0/1 for no/yes cross-hatch
%
/PatternFill {gsave /PFa [ 9 2 roll ] def
  PFa 0 get PFa 2 get 2 div add PFa 1 get PFa 3 get 2 div add translate
  PFa 2 get -2 div PFa 3 get -2 div PFa 2 get PFa 3 get Rec
  TransparentPatterns {} {gsave 1 setgray fill grestore} ifelse
  clip
  currentlinewidth 0.5 mul setlinewidth
  /PFs PFa 2 get dup mul PFa 3 get dup mul add sqrt def
  0 0 M PFa 5 get rotate PFs -2 div dup translate
  0 1 PFs PFa 4 get div 1 add floor cvi
	{PFa 4 get mul 0 M 0 PFs V} for
  0 PFa 6 get ne {
	0 1 PFs PFa 4 get div 1 add floor cvi
	{PFa 4 get mul 0 2 1 roll M PFs 0 V} for
 } if
  stroke grestore} def
%
/languagelevel where
 {pop languagelevel} {1} ifelse
 2 lt
	{/InterpretLevel1 true def}
	{/InterpretLevel1 Level1 def}
 ifelse
%
% PostScript level 2 pattern fill definitions
%
/Level2PatternFill {
/Tile8x8 {/PaintType 2 /PatternType 1 /TilingType 1 /BBox [0 0 8 8] /XStep 8 /YStep 8}
	bind def
/KeepColor {currentrgbcolor [/Pattern /DeviceRGB] setcolorspace} bind def
<< Tile8x8
 /PaintProc {0.5 setlinewidth pop 0 0 M 8 8 L 0 8 M 8 0 L stroke} 
>> matrix makepattern
/Pat1 exch def
<< Tile8x8
 /PaintProc {0.5 setlinewidth pop 0 0 M 8 8 L 0 8 M 8 0 L stroke
	0 4 M 4 8 L 8 4 L 4 0 L 0 4 L stroke}
>> matrix makepattern
/Pat2 exch def
<< Tile8x8
 /PaintProc {0.5 setlinewidth pop 0 0 M 0 8 L
	8 8 L 8 0 L 0 0 L fill}
>> matrix makepattern
/Pat3 exch def
<< Tile8x8
 /PaintProc {0.5 setlinewidth pop -4 8 M 8 -4 L
	0 12 M 12 0 L stroke}
>> matrix makepattern
/Pat4 exch def
<< Tile8x8
 /PaintProc {0.5 setlinewidth pop -4 0 M 8 12 L
	0 -4 M 12 8 L stroke}
>> matrix makepattern
/Pat5 exch def
<< Tile8x8
 /PaintProc {0.5 setlinewidth pop -2 8 M 4 -4 L
	0 12 M 8 -4 L 4 12 M 10 0 L stroke}
>> matrix makepattern
/Pat6 exch def
<< Tile8x8
 /PaintProc {0.5 setlinewidth pop -2 0 M 4 12 L
	0 -4 M 8 12 L 4 -4 M 10 8 L stroke}
>> matrix makepattern
/Pat7 exch def
<< Tile8x8
 /PaintProc {0.5 setlinewidth pop 8 -2 M -4 4 L
	12 0 M -4 8 L 12 4 M 0 10 L stroke}
>> matrix makepattern
/Pat8 exch def
<< Tile8x8
 /PaintProc {0.5 setlinewidth pop 0 -2 M 12 4 L
	-4 0 M 12 8 L -4 4 M 8 10 L stroke}
>> matrix makepattern
/Pat9 exch def
/Pattern1 {PatternBgnd KeepColor Pat1 setpattern} bind def
/Pattern2 {PatternBgnd KeepColor Pat2 setpattern} bind def
/Pattern3 {PatternBgnd KeepColor Pat3 setpattern} bind def
/Pattern4 {PatternBgnd KeepColor Landscape {Pat5} {Pat4} ifelse setpattern} bind def
/Pattern5 {PatternBgnd KeepColor Landscape {Pat4} {Pat5} ifelse setpattern} bind def
/Pattern6 {PatternBgnd KeepColor Landscape {Pat9} {Pat6} ifelse setpattern} bind def
/Pattern7 {PatternBgnd KeepColor Landscape {Pat8} {Pat7} ifelse setpattern} bind def
} def
%
%
%End of PostScript Level 2 code
%
/PatternBgnd {
  TransparentPatterns {} {gsave 1 setgray fill grestore} ifelse
} def
%
% Substitute for Level 2 pattern fill codes with
% grayscale if Level 2 support is not selected.
%
/Level1PatternFill {
/Pattern1 {0.250 Density} bind def
/Pattern2 {0.500 Density} bind def
/Pattern3 {0.750 Density} bind def
/Pattern4 {0.125 Density} bind def
/Pattern5 {0.375 Density} bind def
/Pattern6 {0.625 Density} bind def
/Pattern7 {0.875 Density} bind def
} def
%
% Now test for support of Level 2 code
%
Level1 {Level1PatternFill} {Level2PatternFill} ifelse
%
/Symbol-Oblique /Symbol findfont [1 0 .167 1 0 0] makefont
dup length dict begin {1 index /FID eq {pop pop} {def} ifelse} forall
currentdict end definefont pop
/MFshow {
   { dup 5 get 3 ge
     { 5 get 3 eq {gsave} {grestore} ifelse }
     {dup dup 0 get findfont exch 1 get scalefont setfont
     [ currentpoint ] exch dup 2 get 0 exch R dup 5 get 2 ne {dup dup 6
     get exch 4 get {Gshow} {stringwidth pop 0 R} ifelse }if dup 5 get 0 eq
     {dup 3 get {2 get neg 0 exch R pop} {pop aload pop M} ifelse} {dup 5
     get 1 eq {dup 2 get exch dup 3 get exch 6 get stringwidth pop -2 div
     dup 0 R} {dup 6 get stringwidth pop -2 div 0 R 6 get
     show 2 index {aload pop M neg 3 -1 roll neg R pop pop} {pop pop pop
     pop aload pop M} ifelse }ifelse }ifelse }
     ifelse }
   forall} def
/Gswidth {dup type /stringtype eq {stringwidth} {pop (n) stringwidth} ifelse} def
/MFwidth {0 exch { dup 5 get 3 ge { 5 get 3 eq { 0 } { pop } ifelse }
 {dup 3 get{dup dup 0 get findfont exch 1 get scalefont setfont
     6 get Gswidth pop add} {pop} ifelse} ifelse} forall} def
/MLshow { currentpoint stroke M
  0 exch R
  Blacktext {gsave 0 setgray MFshow grestore} {MFshow} ifelse } bind def
/MRshow { currentpoint stroke M
  exch dup MFwidth neg 3 -1 roll R
  Blacktext {gsave 0 setgray MFshow grestore} {MFshow} ifelse } bind def
/MCshow { currentpoint stroke M
  exch dup MFwidth -2 div 3 -1 roll R
  Blacktext {gsave 0 setgray MFshow grestore} {MFshow} ifelse } bind def
/XYsave    { [( ) 1 2 true false 3 ()] } bind def
/XYrestore { [( ) 1 2 true false 4 ()] } bind def
Level1 SuppressPDFMark or 
{} {
/SDict 10 dict def
systemdict /pdfmark known not {
  userdict /pdfmark systemdict /cleartomark get put
} if
SDict begin [
  /Title (sqlite3.wm.regex2.eps)
  /Subject (gnuplot plot)
  /Creator (gnuplot 4.6 patchlevel 4)
  /Author (romoore)
%  /Producer (gnuplot)
%  /Keywords ()
  /CreationDate (Thu Aug 28 19:25:59 2014)
  /DOCINFO pdfmark
end
} ifelse
end
%%EndProlog
%%Page: 1 1
gnudict begin
gsave
doclip
50 50 translate
0.100 0.100 scale
90 rotate
0 -3600 translate
0 setgray
newpath
(Helvetica) findfont 140 scalefont setfont
BackgroundColor 0 lt 3 1 roll 0 lt exch 0 lt or or not {gsave BackgroundColor C clippath fill grestore} if
1.500 UL
LTb
0.42 0.42 0.42 C 1.000 UL
LTa
0.84 0.88 0.79 C 938 485 M
6369 0 V
stroke
1.500 UL
LTb
0.42 0.42 0.42 C 938 485 M
63 0 V
6306 0 R
-63 0 V
stroke
0.42 0.42 0.42 C 854 485 M
[ [(SVBasic Manual) 120.0 0.0 true true 0 ( 1000)]
] -40.0 MRshow
1.500 UL
LTb
0.42 0.42 0.42 C 938 728 M
31 0 V
6338 0 R
-31 0 V
938 1048 M
31 0 V
6338 0 R
-31 0 V
938 1213 M
31 0 V
6338 0 R
-31 0 V
stroke
1.000 UL
LTa
0.84 0.88 0.79 C 938 1291 M
4122 0 V
2163 0 R
84 0 V
stroke
1.500 UL
LTb
0.42 0.42 0.42 C 938 1291 M
63 0 V
6306 0 R
-63 0 V
stroke
0.42 0.42 0.42 C 854 1291 M
[ [(SVBasic Manual) 120.0 0.0 true true 0 ( 10000)]
] -40.0 MRshow
1.500 UL
LTb
0.42 0.42 0.42 C 938 1534 M
31 0 V
6338 0 R
-31 0 V
938 1854 M
31 0 V
6338 0 R
-31 0 V
938 2019 M
31 0 V
6338 0 R
-31 0 V
stroke
1.000 UL
LTa
0.84 0.88 0.79 C 938 2097 M
6369 0 V
stroke
1.500 UL
LTb
0.42 0.42 0.42 C 938 2097 M
63 0 V
6306 0 R
-63 0 V
stroke
0.42 0.42 0.42 C 854 2097 M
[ [(SVBasic Manual) 120.0 0.0 true true 0 ( 100000)]
] -40.0 MRshow
1.500 UL
LTb
0.42 0.42 0.42 C 938 2340 M
31 0 V
6338 0 R
-31 0 V
938 2660 M
31 0 V
6338 0 R
-31 0 V
938 2825 M
31 0 V
6338 0 R
-31 0 V
stroke
1.000 UL
LTa
0.84 0.88 0.79 C 938 2903 M
6369 0 V
stroke
1.500 UL
LTb
0.42 0.42 0.42 C 938 2903 M
63 0 V
6306 0 R
-63 0 V
stroke
0.42 0.42 0.42 C 854 2903 M
[ [(SVBasic Manual) 120.0 0.0 true true 0 ( 1e+06)]
] -40.0 MRshow
1.500 UL
LTb
0.42 0.42 0.42 C 938 3146 M
31 0 V
6338 0 R
-31 0 V
938 448 M
0 31 V
0 2700 R
0 -31 V
stroke
1.000 UL
LTa
0.84 0.88 0.79 C 1060 448 M
0 2731 V
stroke
1.500 UL
LTb
0.42 0.42 0.42 C 1060 448 M
0 63 V
0 2668 R
0 -63 V
stroke
0.42 0.42 0.42 C 1060 308 M
[ [(SVBasic Manual) 120.0 0.0 true true 0 ( 10000)]
] -40.0 MCshow
1.500 UL
LTb
0.42 0.42 0.42 C 1863 448 M
0 31 V
0 2700 R
0 -31 V
2332 448 M
0 31 V
0 2700 R
0 -31 V
2666 448 M
0 31 V
0 2700 R
0 -31 V
2924 448 M
0 31 V
0 2700 R
0 -31 V
3135 448 M
0 31 V
0 2700 R
0 -31 V
3314 448 M
0 31 V
0 2700 R
0 -31 V
3468 448 M
0 31 V
0 2700 R
0 -31 V
3605 448 M
0 31 V
0 2700 R
0 -31 V
stroke
1.000 UL
LTa
0.84 0.88 0.79 C 3727 448 M
0 2731 V
stroke
1.500 UL
LTb
0.42 0.42 0.42 C 3727 448 M
0 63 V
0 2668 R
0 -63 V
stroke
0.42 0.42 0.42 C 3727 308 M
[ [(SVBasic Manual) 120.0 0.0 true true 0 ( 100000)]
] -40.0 MCshow
1.500 UL
LTb
0.42 0.42 0.42 C 4530 448 M
0 31 V
0 2700 R
0 -31 V
4999 448 M
0 31 V
0 2700 R
0 -31 V
5333 448 M
0 31 V
0 2700 R
0 -31 V
5591 448 M
0 31 V
0 2700 R
0 -31 V
5802 448 M
0 31 V
0 2700 R
0 -31 V
5981 448 M
0 31 V
0 2700 R
0 -31 V
6135 448 M
0 31 V
0 2700 R
0 -31 V
6272 448 M
0 31 V
0 2700 R
0 -31 V
stroke
1.000 UL
LTa
0.84 0.88 0.79 C 6394 448 M
0 63 V
0 840 R
0 1828 V
stroke
1.500 UL
LTb
0.42 0.42 0.42 C 6394 448 M
0 63 V
0 2668 R
0 -63 V
stroke
0.42 0.42 0.42 C 6394 308 M
[ [(SVBasic Manual) 120.0 0.0 true true 0 ( 1e+06)]
] -40.0 MCshow
1.500 UL
LTb
0.42 0.42 0.42 C 7197 448 M
0 31 V
0 2700 R
0 -31 V
stroke
LTb
0.42 0.42 0.42 C 938 3179 N
938 448 L
6369 0 V
0 2731 V
-6369 0 V
Z stroke
0.42 0.42 0.42 C 112 1813 M
currentpoint gsave translate -270 rotate 0 0 moveto
[ [(SVBasic Manual) 120.0 0.0 true true 0 (Time \()]
[(Symbol) 120.0 0.0 true true 0 (m)]
[(SVBasic Manual) 120.0 0.0 true true 0 (s\))]
] -40.0 MCshow
grestore
LTb
0.42 0.42 0.42 C 4122 98 M
[ [(SVBasic Manual) 120.0 0.0 true true 0 (World Model Size \(No. of Attributes\))]
] -40.0 MCshow
LTb
0.42 0.42 0.42 C 4122 3389 M
[ [(SVBasic Manual) 150.0 0.0 true true 0 (SQLite World Model Performance: Regex Search 2)]
] -50.0 MCshow
LTb
1.000 UP
0.42 0.42 0.42 C 1.500 UL
LTb
0.42 0.42 0.42 C 1.000 UL
LTb
LCb setrgbcolor
5060 511 N
0 840 V
2163 0 V
0 -840 V
-2163 0 V
Z stroke
% Begin plot #1
2.000 UL
LT0
LC0 setrgbcolor
LCb setrgbcolor
6656 1141 M
[ [(SVBasic Manual) 120.0 0.0 true true 0 (1-Minute Expirations)]
] -40.0 MRshow
LT0
LC0 setrgbcolor
0.500 6740 1106 399 70 BoxColFill
6740 1106 N
399 0 V
0 70 V
-399 0 V
0 -70 V
Z stroke
LT0
LC0 setrgbcolor
0.500 1045 832 30 246 BoxColFill
1060 448 M
0 384 V
0 246 R
0 152 V
stroke
1045 1078 N
30 0 V
0 -246 V
-30 0 V
0 246 V
Z stroke
1045 1230 M
30 0 V
stroke
0.500 1848 1121 30 127 BoxColFill
1863 896 M
0 225 V
0 127 R
0 100 V
stroke
1848 1248 N
30 0 V
0 -127 V
-30 0 V
0 127 V
Z stroke
1848 1348 M
30 0 V
1848 896 M
30 0 V
stroke
0.500 2317 1291 30 170 BoxColFill
2332 900 M
0 391 V
0 170 R
0 121 V
stroke
2317 1461 N
30 0 V
0 -170 V
-30 0 V
0 170 V
Z stroke
2317 1582 M
30 0 V
2317 900 M
30 0 V
stroke
0.500 2651 1403 30 182 BoxColFill
2666 931 M
0 472 V
0 182 R
0 128 V
stroke
2651 1585 N
30 0 V
0 -182 V
-30 0 V
0 182 V
Z stroke
2651 1713 M
30 0 V
2651 931 M
30 0 V
stroke
0.500 2909 1488 30 190 BoxColFill
2924 962 M
0 526 V
0 190 R
0 131 V
stroke
2909 1678 N
30 0 V
0 -190 V
-30 0 V
0 190 V
Z stroke
2909 1809 M
30 0 V
2909 962 M
30 0 V
stroke
0.500 3712 1697 30 200 BoxColFill
3727 1069 M
0 628 V
0 200 R
0 135 V
stroke
3712 1897 N
30 0 V
0 -200 V
-30 0 V
0 200 V
Z stroke
3712 2032 M
30 0 V
-30 -963 R
30 0 V
stroke
0.500 4515 1956 30 111 BoxColFill
4530 1775 M
0 181 V
0 111 R
0 90 V
stroke
4515 2067 N
30 0 V
0 -111 V
-30 0 V
0 111 V
Z stroke
4515 2157 M
30 0 V
-30 -382 R
30 0 V
stroke
0.500 4984 2139 30 141 BoxColFill
4999 1871 M
0 268 V
0 141 R
0 107 V
stroke
4984 2280 N
30 0 V
0 -141 V
-30 0 V
0 141 V
Z stroke
4984 2387 M
30 0 V
-30 -516 R
30 0 V
stroke
0.500 5318 2213 30 155 BoxColFill
5333 1894 M
0 319 V
0 155 R
0 114 V
stroke
5318 2368 N
30 0 V
0 -155 V
-30 0 V
0 155 V
Z stroke
5318 2482 M
30 0 V
-30 -588 R
30 0 V
stroke
0.500 5576 2322 30 163 BoxColFill
5591 1967 M
0 355 V
0 163 R
0 118 V
stroke
5576 2485 N
30 0 V
0 -163 V
-30 0 V
0 163 V
Z stroke
5576 2603 M
30 0 V
-30 -636 R
30 0 V
stroke
0.500 6379 2535 30 172 BoxColFill
6394 2129 M
0 406 V
0 172 R
0 122 V
stroke
6379 2707 N
30 0 V
0 -172 V
-30 0 V
0 172 V
Z stroke
6379 2829 M
30 0 V
-30 -700 R
30 0 V
stroke
0.500 7182 2780 30 96 BoxColFill
7197 2634 M
0 146 V
0 96 R
0 81 V
stroke
7182 2876 N
30 0 V
0 -96 V
-30 0 V
0 96 V
Z stroke
7182 2957 M
30 0 V
-30 -323 R
30 0 V
% End plot #1
% Begin plot #2
1.000 UP
stroke
LT1
LC0 setrgbcolor
LCb setrgbcolor
6656 1001 M
[ [(SVBasic Manual) 120.0 0.0 true true 0 (99 Percentile)]
] -40.0 MRshow
LT1
LC0 setrgbcolor
6740 1001 M
399 0 V
1060 1464 M
803 63 V
469 259 V
334 137 V
258 99 V
803 228 V
803 75 V
469 250 V
334 103 V
258 125 V
803 232 V
803 76 V
1060 1464 BoxF
1863 1527 BoxF
2332 1786 BoxF
2666 1923 BoxF
2924 2022 BoxF
3727 2250 BoxF
4530 2325 BoxF
4999 2575 BoxF
5333 2678 BoxF
5591 2803 BoxF
6394 3035 BoxF
7197 3111 BoxF
6939 1001 BoxF
% End plot #2
% Begin plot #3
2.000 UL
LT2
LC1 setrgbcolor
LCb setrgbcolor
6656 861 M
[ [(SVBasic Manual) 120.0 0.0 true true 0 (No Expirations)]
] -40.0 MRshow
LT2
LC1 setrgbcolor
0.500 6740 826 399 70 BoxColFill
6740 826 N
399 0 V
0 70 V
-399 0 V
0 -70 V
Z stroke
LT2
LC1 setrgbcolor
0.500 1045 828 30 250 BoxColFill
1060 448 M
0 380 V
0 250 R
0 154 V
stroke
1045 1078 N
30 0 V
0 -250 V
-30 0 V
0 250 V
Z stroke
1045 1232 M
30 0 V
stroke
0.500 1848 1112 30 132 BoxColFill
1863 876 M
0 236 V
0 132 R
0 101 V
stroke
1848 1244 N
30 0 V
0 -132 V
-30 0 V
0 132 V
Z stroke
1848 1345 M
30 0 V
1848 876 M
30 0 V
stroke
0.500 2317 1259 30 167 BoxColFill
2332 884 M
0 375 V
0 167 R
0 120 V
stroke
2317 1426 N
30 0 V
0 -167 V
-30 0 V
0 167 V
Z stroke
2317 1546 M
30 0 V
2317 884 M
30 0 V
stroke
0.500 2651 1402 30 182 BoxColFill
2666 938 M
0 464 V
0 182 R
0 127 V
stroke
2651 1584 N
30 0 V
0 -182 V
-30 0 V
0 182 V
Z stroke
2651 1711 M
30 0 V
2651 938 M
30 0 V
stroke
0.500 2909 1450 30 184 BoxColFill
2924 970 M
0 480 V
0 184 R
0 128 V
stroke
2909 1634 N
30 0 V
0 -184 V
-30 0 V
0 184 V
Z stroke
2909 1762 M
30 0 V
2909 970 M
30 0 V
stroke
0.500 3712 1701 30 198 BoxColFill
3727 1090 M
0 611 V
0 198 R
0 134 V
stroke
3712 1899 N
30 0 V
0 -198 V
-30 0 V
0 198 V
Z stroke
3712 2033 M
30 0 V
-30 -943 R
30 0 V
stroke
0.500 4515 1949 30 113 BoxColFill
4530 1763 M
0 186 V
0 113 R
0 91 V
stroke
4515 2062 N
30 0 V
0 -113 V
-30 0 V
0 113 V
Z stroke
4515 2153 M
30 0 V
-30 -390 R
30 0 V
% End plot #3
% Begin plot #4
1.000 UP
stroke
LT3
LC1 setrgbcolor
LCb setrgbcolor
6656 721 M
[ [(SVBasic Manual) 120.0 0.0 true true 0 (99 Percentile)]
] -40.0 MRshow
LT3
LC1 setrgbcolor
6740 721 M
399 0 V
1060 1468 M
803 59 V
469 221 V
334 172 V
258 53 V
803 278 V
803 71 V
1060 1468 DiaF
1863 1527 DiaF
2332 1748 DiaF
2666 1920 DiaF
2924 1973 DiaF
3727 2251 DiaF
4530 2322 DiaF
6939 721 DiaF
% End plot #4
1.500 UL
LTb
0.42 0.42 0.42 C 938 3179 N
938 448 L
6369 0 V
0 2731 V
-6369 0 V
Z stroke
1.000 UP
1.500 UL
LTb
0.42 0.42 0.42 C stroke
grestore
end
showpage
%%Trailer
%%DocumentFonts: Symbol Helvetica
%%Pages: 1
