%!PS-Adobe-2.0
%%Title: sqlite3.wm.snapshot.exp.eps
%%Creator: gnuplot 4.6 patchlevel 4
%%CreationDate: Thu Aug 28 19:25:59 2014
%%DocumentFonts: (atend)
%%BoundingBox: 50 50 410 806
%%Orientation: Landscape
%%Pages: (atend)
%%EndComments
%%BeginProlog
/gnudict 256 dict def
gnudict begin
%
% The following true/false flags may be edited by hand if desired.
% The unit line width and grayscale image gamma correction may also be changed.
%
/Color true def
/Blacktext false def
/Solid false def
/Dashlength 1 def
/Landscape true def
/Level1 false def
/Rounded false def
/ClipToBoundingBox false def
/SuppressPDFMark false def
/TransparentPatterns false def
/gnulinewidth 5.000 def
/userlinewidth gnulinewidth def
/Gamma 1.0 def
/BackgroundColor {-1.000 -1.000 -1.000} def
%
/vshift -46 def
/dl1 {
  10.0 Dashlength mul mul
  Rounded { currentlinewidth 0.75 mul sub dup 0 le { pop 0.01 } if } if
} def
/dl2 {
  10.0 Dashlength mul mul
  Rounded { currentlinewidth 0.75 mul add } if
} def
/hpt_ 31.5 def
/vpt_ 31.5 def
/hpt hpt_ def
/vpt vpt_ def
/doclip {
  ClipToBoundingBox {
    newpath 50 50 moveto 410 50 lineto 410 806 lineto 50 806 lineto closepath
    clip
  } if
} def
%
% Gnuplot Prolog Version 4.6 (September 2012)
%
%/SuppressPDFMark true def
%
/M {moveto} bind def
/L {lineto} bind def
/R {rmoveto} bind def
/V {rlineto} bind def
/N {newpath moveto} bind def
/Z {closepath} bind def
/C {setrgbcolor} bind def
/f {rlineto fill} bind def
/g {setgray} bind def
/Gshow {show} def   % May be redefined later in the file to support UTF-8
/vpt2 vpt 2 mul def
/hpt2 hpt 2 mul def
/Lshow {currentpoint stroke M 0 vshift R 
	Blacktext {gsave 0 setgray show grestore} {show} ifelse} def
/Rshow {currentpoint stroke M dup stringwidth pop neg vshift R
	Blacktext {gsave 0 setgray show grestore} {show} ifelse} def
/Cshow {currentpoint stroke M dup stringwidth pop -2 div vshift R 
	Blacktext {gsave 0 setgray show grestore} {show} ifelse} def
/UP {dup vpt_ mul /vpt exch def hpt_ mul /hpt exch def
  /hpt2 hpt 2 mul def /vpt2 vpt 2 mul def} def
/DL {Color {setrgbcolor Solid {pop []} if 0 setdash}
 {pop pop pop 0 setgray Solid {pop []} if 0 setdash} ifelse} def
/BL {stroke userlinewidth 2 mul setlinewidth
	Rounded {1 setlinejoin 1 setlinecap} if} def
/AL {stroke userlinewidth 2 div setlinewidth
	Rounded {1 setlinejoin 1 setlinecap} if} def
/UL {dup gnulinewidth mul /userlinewidth exch def
	dup 1 lt {pop 1} if 10 mul /udl exch def} def
/PL {stroke userlinewidth setlinewidth
	Rounded {1 setlinejoin 1 setlinecap} if} def
3.8 setmiterlimit
% Default Line colors
/LCw {1 1 1} def
/LCb {0 0 0} def
/LCa {0 0 0} def
/LC0 {1 0 0} def
/LC1 {0 1 0} def
/LC2 {0 0 1} def
/LC3 {1 0 1} def
/LC4 {0 1 1} def
/LC5 {1 1 0} def
/LC6 {0 0 0} def
/LC7 {1 0.3 0} def
/LC8 {0.5 0.5 0.5} def
% Default Line Types
/LTw {PL [] 1 setgray} def
/LTb {BL [] LCb DL} def
/LTa {AL [1 udl mul 2 udl mul] 0 setdash LCa setrgbcolor} def
/LT0 {PL [] LC0 DL} def
/LT1 {PL [4 dl1 2 dl2] LC1 DL} def
/LT2 {PL [2 dl1 3 dl2] LC2 DL} def
/LT3 {PL [1 dl1 1.5 dl2] LC3 DL} def
/LT4 {PL [6 dl1 2 dl2 1 dl1 2 dl2] LC4 DL} def
/LT5 {PL [3 dl1 3 dl2 1 dl1 3 dl2] LC5 DL} def
/LT6 {PL [2 dl1 2 dl2 2 dl1 6 dl2] LC6 DL} def
/LT7 {PL [1 dl1 2 dl2 6 dl1 2 dl2 1 dl1 2 dl2] LC7 DL} def
/LT8 {PL [2 dl1 2 dl2 2 dl1 2 dl2 2 dl1 2 dl2 2 dl1 4 dl2] LC8 DL} def
/Pnt {stroke [] 0 setdash gsave 1 setlinecap M 0 0 V stroke grestore} def
/Dia {stroke [] 0 setdash 2 copy vpt add M
  hpt neg vpt neg V hpt vpt neg V
  hpt vpt V hpt neg vpt V closepath stroke
  Pnt} def
/Pls {stroke [] 0 setdash vpt sub M 0 vpt2 V
  currentpoint stroke M
  hpt neg vpt neg R hpt2 0 V stroke
 } def
/Box {stroke [] 0 setdash 2 copy exch hpt sub exch vpt add M
  0 vpt2 neg V hpt2 0 V 0 vpt2 V
  hpt2 neg 0 V closepath stroke
  Pnt} def
/Crs {stroke [] 0 setdash exch hpt sub exch vpt add M
  hpt2 vpt2 neg V currentpoint stroke M
  hpt2 neg 0 R hpt2 vpt2 V stroke} def
/TriU {stroke [] 0 setdash 2 copy vpt 1.12 mul add M
  hpt neg vpt -1.62 mul V
  hpt 2 mul 0 V
  hpt neg vpt 1.62 mul V closepath stroke
  Pnt} def
/Star {2 copy Pls Crs} def
/BoxF {stroke [] 0 setdash exch hpt sub exch vpt add M
  0 vpt2 neg V hpt2 0 V 0 vpt2 V
  hpt2 neg 0 V closepath fill} def
/TriUF {stroke [] 0 setdash vpt 1.12 mul add M
  hpt neg vpt -1.62 mul V
  hpt 2 mul 0 V
  hpt neg vpt 1.62 mul V closepath fill} def
/TriD {stroke [] 0 setdash 2 copy vpt 1.12 mul sub M
  hpt neg vpt 1.62 mul V
  hpt 2 mul 0 V
  hpt neg vpt -1.62 mul V closepath stroke
  Pnt} def
/TriDF {stroke [] 0 setdash vpt 1.12 mul sub M
  hpt neg vpt 1.62 mul V
  hpt 2 mul 0 V
  hpt neg vpt -1.62 mul V closepath fill} def
/DiaF {stroke [] 0 setdash vpt add M
  hpt neg vpt neg V hpt vpt neg V
  hpt vpt V hpt neg vpt V closepath fill} def
/Pent {stroke [] 0 setdash 2 copy gsave
  translate 0 hpt M 4 {72 rotate 0 hpt L} repeat
  closepath stroke grestore Pnt} def
/PentF {stroke [] 0 setdash gsave
  translate 0 hpt M 4 {72 rotate 0 hpt L} repeat
  closepath fill grestore} def
/Circle {stroke [] 0 setdash 2 copy
  hpt 0 360 arc stroke Pnt} def
/CircleF {stroke [] 0 setdash hpt 0 360 arc fill} def
/C0 {BL [] 0 setdash 2 copy moveto vpt 90 450 arc} bind def
/C1 {BL [] 0 setdash 2 copy moveto
	2 copy vpt 0 90 arc closepath fill
	vpt 0 360 arc closepath} bind def
/C2 {BL [] 0 setdash 2 copy moveto
	2 copy vpt 90 180 arc closepath fill
	vpt 0 360 arc closepath} bind def
/C3 {BL [] 0 setdash 2 copy moveto
	2 copy vpt 0 180 arc closepath fill
	vpt 0 360 arc closepath} bind def
/C4 {BL [] 0 setdash 2 copy moveto
	2 copy vpt 180 270 arc closepath fill
	vpt 0 360 arc closepath} bind def
/C5 {BL [] 0 setdash 2 copy moveto
	2 copy vpt 0 90 arc
	2 copy moveto
	2 copy vpt 180 270 arc closepath fill
	vpt 0 360 arc} bind def
/C6 {BL [] 0 setdash 2 copy moveto
	2 copy vpt 90 270 arc closepath fill
	vpt 0 360 arc closepath} bind def
/C7 {BL [] 0 setdash 2 copy moveto
	2 copy vpt 0 270 arc closepath fill
	vpt 0 360 arc closepath} bind def
/C8 {BL [] 0 setdash 2 copy moveto
	2 copy vpt 270 360 arc closepath fill
	vpt 0 360 arc closepath} bind def
/C9 {BL [] 0 setdash 2 copy moveto
	2 copy vpt 270 450 arc closepath fill
	vpt 0 360 arc closepath} bind def
/C10 {BL [] 0 setdash 2 copy 2 copy moveto vpt 270 360 arc closepath fill
	2 copy moveto
	2 copy vpt 90 180 arc closepath fill
	vpt 0 360 arc closepath} bind def
/C11 {BL [] 0 setdash 2 copy moveto
	2 copy vpt 0 180 arc closepath fill
	2 copy moveto
	2 copy vpt 270 360 arc closepath fill
	vpt 0 360 arc closepath} bind def
/C12 {BL [] 0 setdash 2 copy moveto
	2 copy vpt 180 360 arc closepath fill
	vpt 0 360 arc closepath} bind def
/C13 {BL [] 0 setdash 2 copy moveto
	2 copy vpt 0 90 arc closepath fill
	2 copy moveto
	2 copy vpt 180 360 arc closepath fill
	vpt 0 360 arc closepath} bind def
/C14 {BL [] 0 setdash 2 copy moveto
	2 copy vpt 90 360 arc closepath fill
	vpt 0 360 arc} bind def
/C15 {BL [] 0 setdash 2 copy vpt 0 360 arc closepath fill
	vpt 0 360 arc closepath} bind def
/Rec {newpath 4 2 roll moveto 1 index 0 rlineto 0 exch rlineto
	neg 0 rlineto closepath} bind def
/Square {dup Rec} bind def
/Bsquare {vpt sub exch vpt sub exch vpt2 Square} bind def
/S0 {BL [] 0 setdash 2 copy moveto 0 vpt rlineto BL Bsquare} bind def
/S1 {BL [] 0 setdash 2 copy vpt Square fill Bsquare} bind def
/S2 {BL [] 0 setdash 2 copy exch vpt sub exch vpt Square fill Bsquare} bind def
/S3 {BL [] 0 setdash 2 copy exch vpt sub exch vpt2 vpt Rec fill Bsquare} bind def
/S4 {BL [] 0 setdash 2 copy exch vpt sub exch vpt sub vpt Square fill Bsquare} bind def
/S5 {BL [] 0 setdash 2 copy 2 copy vpt Square fill
	exch vpt sub exch vpt sub vpt Square fill Bsquare} bind def
/S6 {BL [] 0 setdash 2 copy exch vpt sub exch vpt sub vpt vpt2 Rec fill Bsquare} bind def
/S7 {BL [] 0 setdash 2 copy exch vpt sub exch vpt sub vpt vpt2 Rec fill
	2 copy vpt Square fill Bsquare} bind def
/S8 {BL [] 0 setdash 2 copy vpt sub vpt Square fill Bsquare} bind def
/S9 {BL [] 0 setdash 2 copy vpt sub vpt vpt2 Rec fill Bsquare} bind def
/S10 {BL [] 0 setdash 2 copy vpt sub vpt Square fill 2 copy exch vpt sub exch vpt Square fill
	Bsquare} bind def
/S11 {BL [] 0 setdash 2 copy vpt sub vpt Square fill 2 copy exch vpt sub exch vpt2 vpt Rec fill
	Bsquare} bind def
/S12 {BL [] 0 setdash 2 copy exch vpt sub exch vpt sub vpt2 vpt Rec fill Bsquare} bind def
/S13 {BL [] 0 setdash 2 copy exch vpt sub exch vpt sub vpt2 vpt Rec fill
	2 copy vpt Square fill Bsquare} bind def
/S14 {BL [] 0 setdash 2 copy exch vpt sub exch vpt sub vpt2 vpt Rec fill
	2 copy exch vpt sub exch vpt Square fill Bsquare} bind def
/S15 {BL [] 0 setdash 2 copy Bsquare fill Bsquare} bind def
/D0 {gsave translate 45 rotate 0 0 S0 stroke grestore} bind def
/D1 {gsave translate 45 rotate 0 0 S1 stroke grestore} bind def
/D2 {gsave translate 45 rotate 0 0 S2 stroke grestore} bind def
/D3 {gsave translate 45 rotate 0 0 S3 stroke grestore} bind def
/D4 {gsave translate 45 rotate 0 0 S4 stroke grestore} bind def
/D5 {gsave translate 45 rotate 0 0 S5 stroke grestore} bind def
/D6 {gsave translate 45 rotate 0 0 S6 stroke grestore} bind def
/D7 {gsave translate 45 rotate 0 0 S7 stroke grestore} bind def
/D8 {gsave translate 45 rotate 0 0 S8 stroke grestore} bind def
/D9 {gsave translate 45 rotate 0 0 S9 stroke grestore} bind def
/D10 {gsave translate 45 rotate 0 0 S10 stroke grestore} bind def
/D11 {gsave translate 45 rotate 0 0 S11 stroke grestore} bind def
/D12 {gsave translate 45 rotate 0 0 S12 stroke grestore} bind def
/D13 {gsave translate 45 rotate 0 0 S13 stroke grestore} bind def
/D14 {gsave translate 45 rotate 0 0 S14 stroke grestore} bind def
/D15 {gsave translate 45 rotate 0 0 S15 stroke grestore} bind def
/DiaE {stroke [] 0 setdash vpt add M
  hpt neg vpt neg V hpt vpt neg V
  hpt vpt V hpt neg vpt V closepath stroke} def
/BoxE {stroke [] 0 setdash exch hpt sub exch vpt add M
  0 vpt2 neg V hpt2 0 V 0 vpt2 V
  hpt2 neg 0 V closepath stroke} def
/TriUE {stroke [] 0 setdash vpt 1.12 mul add M
  hpt neg vpt -1.62 mul V
  hpt 2 mul 0 V
  hpt neg vpt 1.62 mul V closepath stroke} def
/TriDE {stroke [] 0 setdash vpt 1.12 mul sub M
  hpt neg vpt 1.62 mul V
  hpt 2 mul 0 V
  hpt neg vpt -1.62 mul V closepath stroke} def
/PentE {stroke [] 0 setdash gsave
  translate 0 hpt M 4 {72 rotate 0 hpt L} repeat
  closepath stroke grestore} def
/CircE {stroke [] 0 setdash 
  hpt 0 360 arc stroke} def
/Opaque {gsave closepath 1 setgray fill grestore 0 setgray closepath} def
/DiaW {stroke [] 0 setdash vpt add M
  hpt neg vpt neg V hpt vpt neg V
  hpt vpt V hpt neg vpt V Opaque stroke} def
/BoxW {stroke [] 0 setdash exch hpt sub exch vpt add M
  0 vpt2 neg V hpt2 0 V 0 vpt2 V
  hpt2 neg 0 V Opaque stroke} def
/TriUW {stroke [] 0 setdash vpt 1.12 mul add M
  hpt neg vpt -1.62 mul V
  hpt 2 mul 0 V
  hpt neg vpt 1.62 mul V Opaque stroke} def
/TriDW {stroke [] 0 setdash vpt 1.12 mul sub M
  hpt neg vpt 1.62 mul V
  hpt 2 mul 0 V
  hpt neg vpt -1.62 mul V Opaque stroke} def
/PentW {stroke [] 0 setdash gsave
  translate 0 hpt M 4 {72 rotate 0 hpt L} repeat
  Opaque stroke grestore} def
/CircW {stroke [] 0 setdash 
  hpt 0 360 arc Opaque stroke} def
/BoxFill {gsave Rec 1 setgray fill grestore} def
/Density {
  /Fillden exch def
  currentrgbcolor
  /ColB exch def /ColG exch def /ColR exch def
  /ColR ColR Fillden mul Fillden sub 1 add def
  /ColG ColG Fillden mul Fillden sub 1 add def
  /ColB ColB Fillden mul Fillden sub 1 add def
  ColR ColG ColB setrgbcolor} def
/BoxColFill {gsave Rec PolyFill} def
/PolyFill {gsave Density fill grestore grestore} def
/h {rlineto rlineto rlineto gsave closepath fill grestore} bind def
%
% PostScript Level 1 Pattern Fill routine for rectangles
% Usage: x y w h s a XX PatternFill
%	x,y = lower left corner of box to be filled
%	w,h = width and height of box
%	  a = angle in degrees between lines and x-axis
%	 XX = 0/1 for no/yes cross-hatch
%
/PatternFill {gsave /PFa [ 9 2 roll ] def
  PFa 0 get PFa 2 get 2 div add PFa 1 get PFa 3 get 2 div add translate
  PFa 2 get -2 div PFa 3 get -2 div PFa 2 get PFa 3 get Rec
  TransparentPatterns {} {gsave 1 setgray fill grestore} ifelse
  clip
  currentlinewidth 0.5 mul setlinewidth
  /PFs PFa 2 get dup mul PFa 3 get dup mul add sqrt def
  0 0 M PFa 5 get rotate PFs -2 div dup translate
  0 1 PFs PFa 4 get div 1 add floor cvi
	{PFa 4 get mul 0 M 0 PFs V} for
  0 PFa 6 get ne {
	0 1 PFs PFa 4 get div 1 add floor cvi
	{PFa 4 get mul 0 2 1 roll M PFs 0 V} for
 } if
  stroke grestore} def
%
/languagelevel where
 {pop languagelevel} {1} ifelse
 2 lt
	{/InterpretLevel1 true def}
	{/InterpretLevel1 Level1 def}
 ifelse
%
% PostScript level 2 pattern fill definitions
%
/Level2PatternFill {
/Tile8x8 {/PaintType 2 /PatternType 1 /TilingType 1 /BBox [0 0 8 8] /XStep 8 /YStep 8}
	bind def
/KeepColor {currentrgbcolor [/Pattern /DeviceRGB] setcolorspace} bind def
<< Tile8x8
 /PaintProc {0.5 setlinewidth pop 0 0 M 8 8 L 0 8 M 8 0 L stroke} 
>> matrix makepattern
/Pat1 exch def
<< Tile8x8
 /PaintProc {0.5 setlinewidth pop 0 0 M 8 8 L 0 8 M 8 0 L stroke
	0 4 M 4 8 L 8 4 L 4 0 L 0 4 L stroke}
>> matrix makepattern
/Pat2 exch def
<< Tile8x8
 /PaintProc {0.5 setlinewidth pop 0 0 M 0 8 L
	8 8 L 8 0 L 0 0 L fill}
>> matrix makepattern
/Pat3 exch def
<< Tile8x8
 /PaintProc {0.5 setlinewidth pop -4 8 M 8 -4 L
	0 12 M 12 0 L stroke}
>> matrix makepattern
/Pat4 exch def
<< Tile8x8
 /PaintProc {0.5 setlinewidth pop -4 0 M 8 12 L
	0 -4 M 12 8 L stroke}
>> matrix makepattern
/Pat5 exch def
<< Tile8x8
 /PaintProc {0.5 setlinewidth pop -2 8 M 4 -4 L
	0 12 M 8 -4 L 4 12 M 10 0 L stroke}
>> matrix makepattern
/Pat6 exch def
<< Tile8x8
 /PaintProc {0.5 setlinewidth pop -2 0 M 4 12 L
	0 -4 M 8 12 L 4 -4 M 10 8 L stroke}
>> matrix makepattern
/Pat7 exch def
<< Tile8x8
 /PaintProc {0.5 setlinewidth pop 8 -2 M -4 4 L
	12 0 M -4 8 L 12 4 M 0 10 L stroke}
>> matrix makepattern
/Pat8 exch def
<< Tile8x8
 /PaintProc {0.5 setlinewidth pop 0 -2 M 12 4 L
	-4 0 M 12 8 L -4 4 M 8 10 L stroke}
>> matrix makepattern
/Pat9 exch def
/Pattern1 {PatternBgnd KeepColor Pat1 setpattern} bind def
/Pattern2 {PatternBgnd KeepColor Pat2 setpattern} bind def
/Pattern3 {PatternBgnd KeepColor Pat3 setpattern} bind def
/Pattern4 {PatternBgnd KeepColor Landscape {Pat5} {Pat4} ifelse setpattern} bind def
/Pattern5 {PatternBgnd KeepColor Landscape {Pat4} {Pat5} ifelse setpattern} bind def
/Pattern6 {PatternBgnd KeepColor Landscape {Pat9} {Pat6} ifelse setpattern} bind def
/Pattern7 {PatternBgnd KeepColor Landscape {Pat8} {Pat7} ifelse setpattern} bind def
} def
%
%
%End of PostScript Level 2 code
%
/PatternBgnd {
  TransparentPatterns {} {gsave 1 setgray fill grestore} ifelse
} def
%
% Substitute for Level 2 pattern fill codes with
% grayscale if Level 2 support is not selected.
%
/Level1PatternFill {
/Pattern1 {0.250 Density} bind def
/Pattern2 {0.500 Density} bind def
/Pattern3 {0.750 Density} bind def
/Pattern4 {0.125 Density} bind def
/Pattern5 {0.375 Density} bind def
/Pattern6 {0.625 Density} bind def
/Pattern7 {0.875 Density} bind def
} def
%
% Now test for support of Level 2 code
%
Level1 {Level1PatternFill} {Level2PatternFill} ifelse
%
/Symbol-Oblique /Symbol findfont [1 0 .167 1 0 0] makefont
dup length dict begin {1 index /FID eq {pop pop} {def} ifelse} forall
currentdict end definefont pop
/MFshow {
   { dup 5 get 3 ge
     { 5 get 3 eq {gsave} {grestore} ifelse }
     {dup dup 0 get findfont exch 1 get scalefont setfont
     [ currentpoint ] exch dup 2 get 0 exch R dup 5 get 2 ne {dup dup 6
     get exch 4 get {Gshow} {stringwidth pop 0 R} ifelse }if dup 5 get 0 eq
     {dup 3 get {2 get neg 0 exch R pop} {pop aload pop M} ifelse} {dup 5
     get 1 eq {dup 2 get exch dup 3 get exch 6 get stringwidth pop -2 div
     dup 0 R} {dup 6 get stringwidth pop -2 div 0 R 6 get
     show 2 index {aload pop M neg 3 -1 roll neg R pop pop} {pop pop pop
     pop aload pop M} ifelse }ifelse }ifelse }
     ifelse }
   forall} def
/Gswidth {dup type /stringtype eq {stringwidth} {pop (n) stringwidth} ifelse} def
/MFwidth {0 exch { dup 5 get 3 ge { 5 get 3 eq { 0 } { pop } ifelse }
 {dup 3 get{dup dup 0 get findfont exch 1 get scalefont setfont
     6 get Gswidth pop add} {pop} ifelse} ifelse} forall} def
/MLshow { currentpoint stroke M
  0 exch R
  Blacktext {gsave 0 setgray MFshow grestore} {MFshow} ifelse } bind def
/MRshow { currentpoint stroke M
  exch dup MFwidth neg 3 -1 roll R
  Blacktext {gsave 0 setgray MFshow grestore} {MFshow} ifelse } bind def
/MCshow { currentpoint stroke M
  exch dup MFwidth -2 div 3 -1 roll R
  Blacktext {gsave 0 setgray MFshow grestore} {MFshow} ifelse } bind def
/XYsave    { [( ) 1 2 true false 3 ()] } bind def
/XYrestore { [( ) 1 2 true false 4 ()] } bind def
Level1 SuppressPDFMark or 
{} {
/SDict 10 dict def
systemdict /pdfmark known not {
  userdict /pdfmark systemdict /cleartomark get put
} if
SDict begin [
  /Title (sqlite3.wm.snapshot.exp.eps)
  /Subject (gnuplot plot)
  /Creator (gnuplot 4.6 patchlevel 4)
  /Author (romoore)
%  /Producer (gnuplot)
%  /Keywords ()
  /CreationDate (Thu Aug 28 19:25:59 2014)
  /DOCINFO pdfmark
end
} ifelse
end
%%EndProlog
%%Page: 1 1
gnudict begin
gsave
doclip
50 50 translate
0.100 0.100 scale
90 rotate
0 -3600 translate
0 setgray
newpath
(Helvetica) findfont 140 scalefont setfont
BackgroundColor 0 lt 3 1 roll 0 lt exch 0 lt or or not {gsave BackgroundColor C clippath fill grestore} if
1.500 UL
LTb
0.42 0.42 0.42 C 938 611 M
31 0 V
5183 0 R
-31 0 V
938 860 M
31 0 V
5183 0 R
-31 0 V
938 988 M
31 0 V
5183 0 R
-31 0 V
stroke
1.000 UL
LTa
0.84 0.88 0.79 C 938 1049 M
5214 0 V
stroke
1.500 UL
LTb
0.42 0.42 0.42 C 938 1049 M
63 0 V
5151 0 R
-63 0 V
stroke
0.42 0.42 0.42 C 854 1049 M
[ [(SVBasic Manual) 120.0 0.0 true true 0 ( 10000)]
] -40.0 MRshow
1.500 UL
LTb
0.42 0.42 0.42 C 938 1238 M
31 0 V
5183 0 R
-31 0 V
938 1487 M
31 0 V
5183 0 R
-31 0 V
938 1615 M
31 0 V
5183 0 R
-31 0 V
stroke
1.000 UL
LTa
0.84 0.88 0.79 C 938 1676 M
5214 0 V
stroke
1.500 UL
LTb
0.42 0.42 0.42 C 938 1676 M
63 0 V
5151 0 R
-63 0 V
stroke
0.42 0.42 0.42 C 854 1676 M
[ [(SVBasic Manual) 120.0 0.0 true true 0 ( 100000)]
] -40.0 MRshow
1.500 UL
LTb
0.42 0.42 0.42 C 938 1865 M
31 0 V
5183 0 R
-31 0 V
938 2114 M
31 0 V
5183 0 R
-31 0 V
938 2242 M
31 0 V
5183 0 R
-31 0 V
stroke
1.000 UL
LTa
0.84 0.88 0.79 C 938 2303 M
5214 0 V
stroke
1.500 UL
LTb
0.42 0.42 0.42 C 938 2303 M
63 0 V
5151 0 R
-63 0 V
stroke
0.42 0.42 0.42 C 854 2303 M
[ [(SVBasic Manual) 120.0 0.0 true true 0 ( 1e+06)]
] -40.0 MRshow
1.500 UL
LTb
0.42 0.42 0.42 C 938 2491 M
31 0 V
5183 0 R
-31 0 V
938 2741 M
31 0 V
5183 0 R
-31 0 V
938 2869 M
31 0 V
5183 0 R
-31 0 V
stroke
1.000 UL
LTa
0.84 0.88 0.79 C 938 2930 M
5214 0 V
stroke
1.500 UL
LTb
0.42 0.42 0.42 C 938 2930 M
63 0 V
5151 0 R
-63 0 V
stroke
0.42 0.42 0.42 C 854 2930 M
[ [(SVBasic Manual) 120.0 0.0 true true 0 ( 1e+07)]
] -40.0 MRshow
1.500 UL
LTb
0.42 0.42 0.42 C 938 3118 M
31 0 V
5183 0 R
-31 0 V
stroke
1.000 UL
LTa
0.84 0.88 0.79 C 938 448 M
0 2731 V
stroke
1.500 UL
LTb
0.42 0.42 0.42 C 938 448 M
0 63 V
0 2668 R
0 -63 V
stroke
0.42 0.42 0.42 C 938 308 M
[ [(SVBasic Manual) 120.0 0.0 true true 0 ( 0)]
] -40.0 MCshow
1.500 UL
LTb
0.42 0.42 0.42 C 1.000 UL
LTa
0.84 0.88 0.79 C 1981 448 M
0 2731 V
stroke
1.500 UL
LTb
0.42 0.42 0.42 C 1981 448 M
0 63 V
0 2668 R
0 -63 V
stroke
0.42 0.42 0.42 C 1981 308 M
[ [(SVBasic Manual) 120.0 0.0 true true 0 ( 20)]
] -40.0 MCshow
1.500 UL
LTb
0.42 0.42 0.42 C 1.000 UL
LTa
0.84 0.88 0.79 C 3024 448 M
0 2731 V
stroke
1.500 UL
LTb
0.42 0.42 0.42 C 3024 448 M
0 63 V
0 2668 R
0 -63 V
stroke
0.42 0.42 0.42 C 3024 308 M
[ [(SVBasic Manual) 120.0 0.0 true true 0 ( 40)]
] -40.0 MCshow
1.500 UL
LTb
0.42 0.42 0.42 C 1.000 UL
LTa
0.84 0.88 0.79 C 4066 448 M
0 2731 V
stroke
1.500 UL
LTb
0.42 0.42 0.42 C 4066 448 M
0 63 V
0 2668 R
0 -63 V
stroke
0.42 0.42 0.42 C 4066 308 M
[ [(SVBasic Manual) 120.0 0.0 true true 0 ( 60)]
] -40.0 MCshow
1.500 UL
LTb
0.42 0.42 0.42 C 1.000 UL
LTa
0.84 0.88 0.79 C 5109 448 M
0 2731 V
stroke
1.500 UL
LTb
0.42 0.42 0.42 C 5109 448 M
0 63 V
0 2668 R
0 -63 V
stroke
0.42 0.42 0.42 C 5109 308 M
[ [(SVBasic Manual) 120.0 0.0 true true 0 ( 80)]
] -40.0 MCshow
1.500 UL
LTb
0.42 0.42 0.42 C 1.000 UL
LTa
0.84 0.88 0.79 C 6152 448 M
0 2731 V
stroke
1.500 UL
LTb
0.42 0.42 0.42 C 6152 448 M
0 63 V
0 2668 R
0 -63 V
stroke
0.42 0.42 0.42 C 6152 308 M
[ [(SVBasic Manual) 120.0 0.0 true true 0 ( 100)]
] -40.0 MCshow
1.500 UL
LTb
0.42 0.42 0.42 C 1.500 UL
LTb
0.42 0.42 0.42 C 938 3179 N
938 448 L
5214 0 V
0 2731 V
-5214 0 V
Z stroke
0.42 0.42 0.42 C 112 1813 M
currentpoint gsave translate -270 rotate 0 0 moveto
[ [(SVBasic Manual) 120.0 0.0 true true 0 (Query Time \()]
[(Symbol) 120.0 0.0 true true 0 (m)]
[(SVBasic Manual) 120.0 0.0 true true 0 (s\))]
] -40.0 MCshow
grestore
LTb
0.42 0.42 0.42 C 3545 98 M
[ [(SVBasic Manual) 120.0 0.0 true true 0 (Snapshot Position in Data Set \(Percentage\))]
] -40.0 MCshow
LTb
0.42 0.42 0.42 C 3545 3389 M
[ [(SVBasic Manual) 150.0 0.0 true true 0 (SQLite World Model Performance: 5% Snapshot \(1-Minute Expirations\))]
] -50.0 MCshow
LTb
1.000 UP
0.42 0.42 0.42 C 1.500 UL
LTb
0.42 0.42 0.42 C 1.000 UL
LTb
LCb setrgbcolor
6320 1219 N
0 1960 V
1155 0 V
0 -1960 V
-1155 0 V
Z stroke
% Begin plot #1
1.000 UP
2.000 UL
LT0
0.45 0.59 0.90 C LCb setrgbcolor
6908 2969 M
[ [(SVBasic Manual) 120.0 0.0 true true 0 (10000)]
] -40.0 MRshow
LT0
0.45 0.59 0.90 C 6992 2969 M
399 0 V
1068 675 M
261 289 V
261 132 V
260 90 V
261 68 V
261 53 V
261 49 V
260 35 V
261 36 V
261 30 V
260 28 V
261 25 V
261 21 V
260 22 V
261 16 V
261 23 V
261 15 V
260 13 V
261 20 V
261 14 V
1068 675 CircleF
1329 964 CircleF
1590 1096 CircleF
1850 1186 CircleF
2111 1254 CircleF
2372 1307 CircleF
2633 1356 CircleF
2893 1391 CircleF
3154 1427 CircleF
3415 1457 CircleF
3675 1485 CircleF
3936 1510 CircleF
4197 1531 CircleF
4457 1553 CircleF
4718 1569 CircleF
4979 1592 CircleF
5240 1607 CircleF
5500 1620 CircleF
5761 1640 CircleF
6022 1654 CircleF
7191 2969 CircleF
% End plot #1
% Begin plot #2
1.000 UP
2.000 UL
LT1
0.40 0.92 0.52 C LCb setrgbcolor
6908 2829 M
[ [(SVBasic Manual) 120.0 0.0 true true 0 (20000)]
] -40.0 MRshow
LT1
0.40 0.92 0.52 C 6992 2829 M
399 0 V
1068 865 M
261 285 V
261 139 V
260 89 V
261 71 V
261 51 V
261 45 V
260 40 V
261 36 V
261 28 V
260 27 V
261 25 V
261 27 V
260 21 V
261 18 V
261 19 V
261 17 V
260 13 V
261 17 V
261 16 V
1068 865 BoxF
1329 1150 BoxF
1590 1289 BoxF
1850 1378 BoxF
2111 1449 BoxF
2372 1500 BoxF
2633 1545 BoxF
2893 1585 BoxF
3154 1621 BoxF
3415 1649 BoxF
3675 1676 BoxF
3936 1701 BoxF
4197 1728 BoxF
4457 1749 BoxF
4718 1767 BoxF
4979 1786 BoxF
5240 1803 BoxF
5500 1816 BoxF
5761 1833 BoxF
6022 1849 BoxF
7191 2829 BoxF
% End plot #2
% Begin plot #3
1.000 UP
2.000 UL
LT2
0.98 0.48 0.43 C LCb setrgbcolor
6908 2689 M
[ [(SVBasic Manual) 120.0 0.0 true true 0 (30000)]
] -40.0 MRshow
LT2
0.98 0.48 0.43 C 6992 2689 M
399 0 V
1068 1028 M
261 290 V
261 140 V
260 70 V
261 70 V
261 55 V
261 43 V
260 38 V
261 35 V
261 30 V
260 28 V
261 24 V
261 25 V
260 20 V
261 18 V
261 15 V
261 18 V
260 18 V
261 18 V
261 12 V
1068 1028 TriUF
1329 1318 TriUF
1590 1458 TriUF
1850 1528 TriUF
2111 1598 TriUF
2372 1653 TriUF
2633 1696 TriUF
2893 1734 TriUF
3154 1769 TriUF
3415 1799 TriUF
3675 1827 TriUF
3936 1851 TriUF
4197 1876 TriUF
4457 1896 TriUF
4718 1914 TriUF
4979 1929 TriUF
5240 1947 TriUF
5500 1965 TriUF
5761 1983 TriUF
6022 1995 TriUF
7191 2689 TriUF
% End plot #3
% Begin plot #4
1.000 UP
2.000 UL
LT3
0.98 0.79 0.43 C LCb setrgbcolor
6908 2549 M
[ [(SVBasic Manual) 120.0 0.0 true true 0 (40000)]
] -40.0 MRshow
LT3
0.98 0.79 0.43 C 6992 2549 M
399 0 V
1068 1098 M
261 295 V
261 136 V
260 88 V
261 71 V
261 53 V
261 46 V
260 40 V
261 34 V
261 29 V
260 28 V
261 25 V
261 22 V
260 21 V
261 21 V
261 17 V
261 19 V
260 15 V
261 15 V
261 15 V
1068 1098 DiaF
1329 1393 DiaF
1590 1529 DiaF
1850 1617 DiaF
2111 1688 DiaF
2372 1741 DiaF
2633 1787 DiaF
2893 1827 DiaF
3154 1861 DiaF
3415 1890 DiaF
3675 1918 DiaF
3936 1943 DiaF
4197 1965 DiaF
4457 1986 DiaF
4718 2007 DiaF
4979 2024 DiaF
5240 2043 DiaF
5500 2058 DiaF
5761 2073 DiaF
6022 2088 DiaF
7191 2549 DiaF
% End plot #4
% Begin plot #5
1.000 UP
2.000 UL
LT4
0.11 0.27 0.60 C LCb setrgbcolor
6908 2409 M
[ [(SVBasic Manual) 120.0 0.0 true true 0 (50000)]
] -40.0 MRshow
LT4
0.11 0.27 0.60 C 6992 2409 M
399 0 V
1068 1148 M
261 281 V
261 138 V
260 91 V
261 70 V
261 55 V
261 43 V
260 39 V
261 36 V
261 31 V
260 26 V
261 27 V
261 21 V
260 24 V
261 17 V
261 19 V
261 15 V
260 17 V
261 17 V
261 12 V
1068 1148 TriDF
1329 1429 TriDF
1590 1567 TriDF
1850 1658 TriDF
2111 1728 TriDF
2372 1783 TriDF
2633 1826 TriDF
2893 1865 TriDF
3154 1901 TriDF
3415 1932 TriDF
3675 1958 TriDF
3936 1985 TriDF
4197 2006 TriDF
4457 2030 TriDF
4718 2047 TriDF
4979 2066 TriDF
5240 2081 TriDF
5500 2098 TriDF
5761 2115 TriDF
6022 2127 TriDF
7191 2409 TriDF
% End plot #5
% Begin plot #6
1.000 UP
2.000 UL
LT5
0.07 0.68 0.20 C LCb setrgbcolor
6908 2269 M
[ [(SVBasic Manual) 120.0 0.0 true true 0 (100000)]
] -40.0 MRshow
LT5
0.07 0.68 0.20 C 6992 2269 M
399 0 V
1068 1309 M
261 278 V
261 138 V
260 90 V
261 70 V
261 56 V
261 43 V
260 38 V
261 37 V
261 26 V
260 30 V
261 26 V
261 24 V
260 22 V
261 21 V
261 21 V
261 13 V
260 19 V
261 16 V
261 15 V
1068 1309 CircleF
1329 1587 CircleF
1590 1725 CircleF
1850 1815 CircleF
2111 1885 CircleF
2372 1941 CircleF
2633 1984 CircleF
2893 2022 CircleF
3154 2059 CircleF
3415 2085 CircleF
3675 2115 CircleF
3936 2141 CircleF
4197 2165 CircleF
4457 2187 CircleF
4718 2208 CircleF
4979 2229 CircleF
5240 2242 CircleF
5500 2261 CircleF
5761 2277 CircleF
6022 2292 CircleF
7191 2269 CircleF
% End plot #6
% Begin plot #7
1.000 UP
2.000 UL
LT6
0.90 0.17 0.09 C LCb setrgbcolor
6908 2129 M
[ [(SVBasic Manual) 120.0 0.0 true true 0 (200000)]
] -40.0 MRshow
LT6
0.90 0.17 0.09 C 6992 2129 M
399 0 V
1068 1484 M
261 296 V
261 136 V
260 91 V
261 68 V
261 55 V
261 50 V
260 38 V
261 36 V
261 31 V
260 26 V
261 26 V
261 22 V
260 19 V
261 21 V
261 17 V
261 19 V
260 13 V
261 18 V
261 14 V
1068 1484 BoxF
1329 1780 BoxF
1590 1916 BoxF
1850 2007 BoxF
2111 2075 BoxF
2372 2130 BoxF
2633 2180 BoxF
2893 2218 BoxF
3154 2254 BoxF
3415 2285 BoxF
3675 2311 BoxF
3936 2337 BoxF
4197 2359 BoxF
4457 2378 BoxF
4718 2399 BoxF
4979 2416 BoxF
5240 2435 BoxF
5500 2448 BoxF
5761 2466 BoxF
6022 2480 BoxF
7191 2129 BoxF
% End plot #7
% Begin plot #8
1.000 UP
2.000 UL
LT7
0.90 0.62 0.09 C LCb setrgbcolor
6908 1989 M
[ [(SVBasic Manual) 120.0 0.0 true true 0 (300000)]
] -40.0 MRshow
LT7
0.90 0.62 0.09 C 6992 1989 M
399 0 V
1068 1642 M
261 285 V
261 135 V
260 92 V
261 66 V
261 62 V
261 44 V
260 38 V
261 35 V
261 33 V
260 25 V
261 27 V
261 21 V
260 19 V
261 20 V
261 19 V
261 18 V
260 14 V
261 14 V
261 15 V
1068 1642 TriUF
1329 1927 TriUF
1590 2062 TriUF
1850 2154 TriUF
2111 2220 TriUF
2372 2282 TriUF
2633 2326 TriUF
2893 2364 TriUF
3154 2399 TriUF
3415 2432 TriUF
3675 2457 TriUF
3936 2484 TriUF
4197 2505 TriUF
4457 2524 TriUF
4718 2544 TriUF
4979 2563 TriUF
5240 2581 TriUF
5500 2595 TriUF
5761 2609 TriUF
6022 2624 TriUF
7191 1989 TriUF
% End plot #8
% Begin plot #9
1.000 UP
2.000 UL
LT8
0.18 0.25 0.38 C LCb setrgbcolor
6908 1849 M
[ [(SVBasic Manual) 120.0 0.0 true true 0 (400000)]
] -40.0 MRshow
LT8
0.18 0.25 0.38 C 6992 1849 M
399 0 V
1068 1671 M
261 298 V
261 135 V
260 88 V
261 76 V
261 51 V
261 46 V
260 40 V
261 35 V
261 33 V
260 24 V
261 26 V
261 24 V
260 19 V
261 21 V
261 15 V
261 21 V
260 14 V
261 17 V
261 15 V
1068 1671 DiaF
1329 1969 DiaF
1590 2104 DiaF
1850 2192 DiaF
2111 2268 DiaF
2372 2319 DiaF
2633 2365 DiaF
2893 2405 DiaF
3154 2440 DiaF
3415 2473 DiaF
3675 2497 DiaF
3936 2523 DiaF
4197 2547 DiaF
4457 2566 DiaF
4718 2587 DiaF
4979 2602 DiaF
5240 2623 DiaF
5500 2637 DiaF
5761 2654 DiaF
6022 2669 DiaF
7191 1849 DiaF
% End plot #9
% Begin plot #10
1.000 UP
2.000 UL
LT0
0.18 0.42 0.24 C LCb setrgbcolor
6908 1709 M
[ [(SVBasic Manual) 120.0 0.0 true true 0 (500000)]
] -40.0 MRshow
LT0
0.18 0.42 0.24 C 6992 1709 M
399 0 V
-6323 69 R
261 285 V
261 137 V
260 92 V
261 70 V
261 53 V
261 48 V
260 39 V
261 32 V
261 30 V
260 29 V
261 25 V
261 24 V
260 18 V
261 23 V
261 17 V
261 17 V
260 18 V
261 11 V
261 15 V
1068 1778 TriDF
1329 2063 TriDF
1590 2200 TriDF
1850 2292 TriDF
2111 2362 TriDF
2372 2415 TriDF
2633 2463 TriDF
2893 2502 TriDF
3154 2534 TriDF
3415 2564 TriDF
3675 2593 TriDF
3936 2618 TriDF
4197 2642 TriDF
4457 2660 TriDF
4718 2683 TriDF
4979 2700 TriDF
5240 2717 TriDF
5500 2735 TriDF
5761 2746 TriDF
6022 2761 TriDF
7191 1709 TriDF
% End plot #10
% Begin plot #11
1.000 UP
2.000 UL
LT1
0.56 0.27 0.25 C LCb setrgbcolor
6908 1569 M
[ [(SVBasic Manual) 120.0 0.0 true true 0 (1000000)]
] -40.0 MRshow
LT1
0.56 0.27 0.25 C 6992 1569 M
399 0 V
1068 1956 M
261 282 V
261 140 V
260 84 V
261 61 V
261 70 V
261 39 V
260 31 V
261 33 V
261 30 V
260 27 V
261 24 V
261 25 V
260 19 V
261 19 V
261 20 V
261 16 V
260 16 V
261 14 V
261 16 V
1068 1956 CircleF
1329 2238 CircleF
1590 2378 CircleF
1850 2462 CircleF
2111 2523 CircleF
2372 2593 CircleF
2633 2632 CircleF
2893 2663 CircleF
3154 2696 CircleF
3415 2726 CircleF
3675 2753 CircleF
3936 2777 CircleF
4197 2802 CircleF
4457 2821 CircleF
4718 2840 CircleF
4979 2860 CircleF
5240 2876 CircleF
5500 2892 CircleF
5761 2906 CircleF
6022 2922 CircleF
7191 1569 CircleF
% End plot #11
% Begin plot #12
1.000 UP
2.000 UL
LT2
0.56 0.45 0.25 C LCb setrgbcolor
6908 1429 M
[ [(SVBasic Manual) 120.0 0.0 true true 0 (2000000)]
] -40.0 MRshow
LT2
0.56 0.45 0.25 C 6992 1429 M
399 0 V
1068 2114 M
261 296 V
261 136 V
260 92 V
261 68 V
261 57 V
261 44 V
260 38 V
261 35 V
261 31 V
260 28 V
261 27 V
261 55 V
260 -13 V
261 21 V
261 18 V
261 17 V
260 14 V
261 15 V
261 14 V
1068 2114 BoxF
1329 2410 BoxF
1590 2546 BoxF
1850 2638 BoxF
2111 2706 BoxF
2372 2763 BoxF
2633 2807 BoxF
2893 2845 BoxF
3154 2880 BoxF
3415 2911 BoxF
3675 2939 BoxF
3936 2966 BoxF
4197 3021 BoxF
4457 3008 BoxF
4718 3029 BoxF
4979 3047 BoxF
5240 3064 BoxF
5500 3078 BoxF
5761 3093 BoxF
6022 3107 BoxF
7191 1429 BoxF
% End plot #12
1.500 UL
LTb
0.42 0.42 0.42 C 938 3179 N
938 448 L
5214 0 V
0 2731 V
-5214 0 V
Z stroke
1.000 UP
1.500 UL
LTb
0.42 0.42 0.42 C stroke
grestore
end
showpage
%%Trailer
%%DocumentFonts: Symbol Helvetica
%%Pages: 1
